# z = 1.000000e+00
# log(Z/Zsun) = 5.000000e-01
# log(nH) = -6.000000e+00
1.000 -25.186 -20.830 9.292 0.633 -5.916
1.250 -25.055 -20.938 9.542 0.632 -5.915
1.500 -24.925 -21.044 9.792 0.632 -5.915
1.750 -24.797 -21.144 10.042 0.632 -5.915
2.000 -24.663 -21.239 10.292 0.632 -5.914
2.250 -24.517 -21.326 10.542 0.632 -5.914
2.500 -24.311 -21.391 10.792 0.631 -5.914
2.750 -24.010 -21.454 11.043 0.631 -5.914
3.000 -23.829 -21.517 11.293 0.631 -5.913
3.250 -23.746 -21.579 11.543 0.631 -5.913
3.500 -23.603 -21.642 11.793 0.631 -5.913
3.750 -23.360 -21.702 12.043 0.631 -5.913
4.000 -23.129 -21.767 12.293 0.630 -5.913
4.250 -22.977 -21.844 12.543 0.630 -5.912
4.500 -22.893 -21.969 12.793 0.630 -5.912
4.750 -22.822 -22.150 13.044 0.630 -5.912
5.000 -22.634 -22.295 13.294 0.630 -5.912
5.250 -22.399 -22.415 13.544 0.630 -5.911
5.500 -22.214 -22.540 13.794 0.629 -5.911
5.750 -22.056 -22.666 14.044 0.629 -5.911
6.000 -21.869 -22.778 14.294 0.629 -5.911
6.250 -21.651 -22.866 14.544 0.629 -5.911
6.500 -21.417 -22.937 14.794 0.629 -5.911
6.750 -21.178 -23.044 15.044 0.629 -5.911
7.000 -20.939 -23.295 15.294 0.629 -5.911
7.250 -20.697 -23.580 15.544 0.629 -5.911
7.500 -20.450 -23.731 15.794 0.629 -5.911
7.750 -20.202 -23.826 16.044 0.629 -5.911
8.000 -19.953 -23.916 16.294 0.629 -5.910
8.250 -19.705 -23.984 16.544 0.629 -5.910
8.500 -19.457 -24.023 16.794 0.629 -5.910
8.750 -19.211 -24.045 17.044 0.629 -5.910
9.000 -18.969 -24.061 17.294 0.629 -5.910
