# z = 1.500000e+01
# log(Z/Zsun) = -5.000000e-01
# log(nH) = -6.000000e+00
1.000 -23.450 -21.491 9.256 0.687 -6.018
1.250 -23.185 -21.601 9.513 0.676 -6.003
1.500 -22.923 -21.717 9.769 0.667 -5.992
1.750 -22.664 -21.836 10.023 0.660 -5.983
2.000 -22.406 -21.956 10.276 0.655 -5.976
2.250 -22.150 -22.074 10.529 0.652 -5.971
2.500 -21.897 -22.188 10.781 0.649 -5.967
2.750 -21.646 -22.294 11.032 0.647 -5.964
3.000 -21.395 -22.391 11.283 0.646 -5.963
3.250 -21.145 -22.475 11.533 0.645 -5.961
3.500 -20.894 -22.545 11.784 0.644 -5.960
3.750 -20.644 -22.602 12.034 0.643 -5.960
4.000 -20.393 -22.646 12.284 0.643 -5.959
4.250 -20.143 -22.680 12.535 0.643 -5.959
4.500 -19.892 -22.713 12.785 0.643 -5.959
4.750 -19.640 -22.739 13.036 0.642 -5.957
5.000 -19.357 -22.717 13.302 0.618 -5.925
5.250 -19.104 -22.715 13.554 0.615 -5.921
5.500 -18.854 -22.715 13.804 0.614 -5.920
5.750 -18.605 -22.715 14.054 0.614 -5.920
6.000 -18.354 -22.715 14.304 0.614 -5.920
6.250 -18.104 -22.715 14.555 0.614 -5.920
6.500 -17.854 -22.715 14.805 0.614 -5.920
6.750 -17.604 -22.715 15.055 0.614 -5.920
7.000 -17.355 -22.715 15.305 0.614 -5.920
7.250 -17.106 -22.716 15.555 0.614 -5.920
7.500 -16.858 -22.718 15.805 0.614 -5.920
7.750 -16.609 -22.719 16.055 0.614 -5.920
8.000 -16.362 -22.722 16.305 0.614 -5.920
8.250 -16.119 -22.730 16.555 0.614 -5.920
8.500 -15.871 -22.732 16.805 0.614 -5.920
8.750 -15.621 -22.732 17.055 0.614 -5.920
9.000 -15.371 -22.732 17.305 0.614 -5.920
