# z = 1.500000e+01
# log(Z/Zsun) = -5.000000e-01
# log(nH) = 1.000000e+00
1.000 -31.766 -27.458 8.984 1.285 -2.115
1.250 -31.105 -27.463 9.234 1.285 -2.044
1.500 -28.475 -27.448 9.484 1.285 -1.972
1.750 -28.058 -27.430 9.734 1.285 -1.900
2.000 -27.674 -27.412 9.984 1.285 -1.827
2.250 -27.204 -27.393 10.234 1.284 -1.753
2.500 -26.774 -27.364 10.484 1.285 -1.679
2.750 -26.372 -27.333 10.734 1.285 -1.606
3.000 -25.942 -27.299 10.984 1.286 -1.538
3.250 -25.711 -27.263 11.234 1.284 -1.480
3.500 -25.633 -27.216 11.485 1.283 -1.435
3.750 -25.647 -27.163 11.735 1.280 -1.341
4.000 -25.203 -27.110 11.986 1.277 -1.168
4.250 -21.845 -26.169 12.466 0.753 0.890
4.500 -22.133 -26.172 12.779 0.652 1.029
4.750 -22.000 -26.366 13.035 0.642 1.043
5.000 -21.635 -26.386 13.302 0.618 1.075
5.250 -21.733 -26.353 13.554 0.615 1.079
5.500 -21.914 -26.311 13.804 0.614 1.080
5.750 -22.193 -26.389 14.054 0.614 1.080
6.000 -22.289 -26.476 14.304 0.614 1.080
6.250 -22.417 -26.547 14.555 0.614 1.080
6.500 -22.740 -26.614 14.805 0.614 1.080
6.750 -22.801 -26.623 15.055 0.614 1.080
7.000 -22.757 -26.621 15.305 0.614 1.080
7.250 -22.767 -26.632 15.555 0.614 1.080
7.500 -22.697 -26.641 15.805 0.614 1.080
7.750 -22.584 -26.646 16.055 0.614 1.080
8.000 -22.458 -26.648 16.305 0.614 1.080
8.250 -22.324 -26.653 16.555 0.614 1.080
8.500 -22.180 -26.655 16.805 0.614 1.080
8.750 -22.024 -26.656 17.055 0.614 1.080
9.000 -21.855 -26.656 17.305 0.614 1.080
