# z = 1.300000e+01
# log(Z/Zsun) = -2.000000e+00
# log(nH) = 2.000000e+00
1.000 -32.750 -28.613 8.984 1.283 -1.599
1.250 -30.977 -28.606 9.234 1.284 -1.527
1.500 -29.936 -28.592 9.484 1.285 -1.453
1.750 -29.552 -28.577 9.733 1.286 -1.379
2.000 -29.025 -28.561 9.983 1.289 -1.304
2.250 -28.042 -28.543 10.231 1.293 -1.230
2.500 -26.987 -28.521 10.479 1.299 -1.157
2.750 -26.078 -28.498 10.726 1.309 -1.086
3.000 -25.388 -28.475 10.972 1.320 -1.026
3.250 -25.050 -28.459 11.224 1.314 -0.993
3.500 -25.218 -28.434 11.481 1.293 -0.926
3.750 -26.273 -28.391 11.736 1.279 -0.774
4.000 -25.822 -28.327 11.987 1.277 -0.512
4.250 -21.864 -27.610 12.467 0.751 1.890
4.500 -22.256 -27.219 12.781 0.649 2.030
4.750 -22.419 -27.476 13.037 0.639 2.042
5.000 -22.061 -27.540 13.304 0.615 2.075
5.250 -22.502 -27.449 13.556 0.612 2.079
5.500 -22.810 -27.417 13.806 0.612 2.079
5.750 -23.031 -27.450 14.056 0.612 2.079
6.000 -23.125 -27.459 14.306 0.612 2.079
6.250 -23.151 -27.546 14.556 0.612 2.079
6.500 -23.146 -27.613 14.806 0.612 2.079
6.750 -23.078 -27.641 15.056 0.612 2.079
7.000 -22.985 -27.649 15.306 0.612 2.079
7.250 -22.885 -27.653 15.556 0.612 2.079
7.500 -22.775 -27.656 15.806 0.612 2.079
7.750 -22.658 -27.657 16.056 0.612 2.079
8.000 -22.538 -27.657 16.306 0.612 2.079
8.250 -22.416 -27.657 16.556 0.612 2.079
8.500 -22.290 -27.658 16.806 0.612 2.079
8.750 -22.160 -27.658 17.056 0.612 2.079
9.000 -22.020 -27.658 17.306 0.612 2.079
