# CIE
# log(Z/Zsun) = 0.000000e+00
# log(nH) = 2.000000e+00
1.000 -28.476 -28.662 8.980 1.296 -1.633
1.250 -27.950 -28.649 9.230 1.296 -1.554
1.500 -27.570 -28.635 9.480 1.296 -1.475
1.750 -27.297 -28.620 9.730 1.296 -1.399
2.000 -27.054 -28.606 9.980 1.296 -1.324
2.250 -26.771 -28.591 10.230 1.296 -1.251
2.500 -26.479 -28.576 10.480 1.296 -1.183
2.750 -26.228 -28.563 10.730 1.296 -1.125
3.000 -25.997 -28.554 10.980 1.296 -1.086
3.250 -25.814 -28.549 11.230 1.296 -1.073
3.500 -25.662 -28.548 11.480 1.295 -1.086
3.750 -25.524 -28.525 11.731 1.295 -1.008
4.000 -25.174 -28.406 11.981 1.293 -0.638
4.250 -21.807 -27.323 12.462 0.760 1.890
4.500 -21.944 -27.501 12.776 0.656 2.030
4.750 -21.623 -27.296 13.032 0.647 2.043
5.000 -21.256 -26.636 13.299 0.622 2.076
5.250 -21.277 -26.409 13.551 0.619 2.080
5.500 -21.444 -26.363 13.801 0.619 2.081
5.750 -21.728 -26.557 14.051 0.618 2.081
6.000 -21.825 -26.743 14.302 0.618 2.081
6.250 -21.966 -26.886 14.552 0.618 2.082
6.500 -22.370 -27.073 14.802 0.618 2.082
6.750 -22.498 -27.141 15.052 0.618 2.082
7.000 -22.492 -27.166 15.302 0.618 2.082
7.250 -22.623 -27.282 15.552 0.618 2.082
7.500 -22.636 -27.347 15.802 0.618 2.082
7.750 -22.559 -27.401 16.052 0.618 2.082
8.000 -22.464 -27.448 16.302 0.618 2.082
8.250 -22.364 -27.545 16.552 0.618 2.082
8.500 -22.252 -27.597 16.802 0.618 2.082
8.750 -22.130 -27.625 17.052 0.618 2.082
9.000 -21.997 -27.641 17.302 0.618 2.082
