# z = 0.000000e+00
# log(Z/Zsun) = -1.000000e+01
# log(nH) = -4.000000e+00
1.000 -25.535 -21.639 9.257 0.685 -4.019
1.250 -25.372 -21.746 9.515 0.673 -4.004
1.500 -25.215 -21.858 9.771 0.664 -3.991
1.750 -25.068 -21.973 10.026 0.656 -3.980
2.000 -24.922 -22.090 10.280 0.650 -3.972
2.250 -24.780 -22.207 10.533 0.645 -3.966
2.500 -24.656 -22.323 10.786 0.641 -3.960
2.750 -24.538 -22.438 11.039 0.637 -3.955
3.000 -24.425 -22.552 11.291 0.634 -3.950
3.250 -24.314 -22.668 11.543 0.630 -3.945
3.500 -24.206 -22.787 11.795 0.627 -3.941
3.750 -24.101 -22.912 12.048 0.624 -3.937
4.000 -23.996 -23.045 12.299 0.621 -3.933
4.250 -23.595 -23.189 12.551 0.619 -3.930
4.500 -22.828 -23.375 12.802 0.617 -3.927
4.750 -22.750 -23.617 13.054 0.616 -3.925
5.000 -22.380 -24.021 13.305 0.614 -3.923
5.250 -22.601 -25.105 13.556 0.612 -3.921
5.500 -22.923 -25.938 13.806 0.612 -3.921
5.750 -23.123 -26.408 14.056 0.612 -3.921
6.000 -23.212 -26.645 14.306 0.612 -3.921
6.250 -23.210 -26.758 14.556 0.612 -3.921
6.500 -23.156 -26.812 14.806 0.612 -3.921
6.750 -23.071 -26.840 15.056 0.612 -3.921
7.000 -22.967 -26.854 15.306 0.612 -3.921
7.250 -22.851 -26.862 15.556 0.612 -3.921
7.500 -22.725 -26.867 15.806 0.612 -3.921
7.750 -22.591 -26.869 16.056 0.612 -3.921
8.000 -22.450 -26.871 16.306 0.612 -3.921
8.250 -22.300 -26.872 16.556 0.612 -3.921
8.500 -22.142 -26.872 16.806 0.612 -3.921
8.750 -21.973 -26.872 17.056 0.612 -3.921
9.000 -21.792 -26.872 17.306 0.612 -3.921
