# z = 7.000000e+00
# log(Z/Zsun) = 5.000000e-01
# log(nH) = -5.000000e+00
1.000 -25.216 -21.475 9.270 0.665 -4.957
1.250 -25.017 -21.618 9.520 0.664 -4.957
1.500 -24.527 -21.761 9.771 0.664 -4.956
1.750 -23.875 -21.909 10.021 0.664 -4.956
2.000 -23.441 -22.060 10.271 0.664 -4.956
2.250 -23.180 -22.213 10.521 0.664 -4.956
2.500 -23.019 -22.367 10.771 0.663 -4.956
2.750 -22.909 -22.521 11.021 0.663 -4.956
3.000 -22.833 -22.673 11.271 0.663 -4.956
3.250 -22.776 -22.822 11.521 0.663 -4.956
3.500 -22.712 -22.969 11.771 0.663 -4.956
3.750 -22.595 -23.111 12.021 0.663 -4.955
4.000 -22.361 -23.247 12.271 0.663 -4.955
4.250 -22.003 -23.369 12.521 0.663 -4.955
4.500 -21.545 -23.468 12.771 0.663 -4.955
4.750 -21.105 -23.533 13.022 0.662 -4.954
5.000 -20.771 -23.640 13.288 0.637 -4.922
5.250 -20.683 -23.794 13.541 0.634 -4.917
5.500 -20.715 -23.904 13.792 0.632 -4.915
5.750 -20.676 -23.972 14.042 0.632 -4.914
6.000 -20.490 -24.041 14.293 0.631 -4.914
6.250 -20.276 -24.154 14.543 0.630 -4.913
6.500 -20.045 -24.410 14.794 0.630 -4.912
6.750 -19.798 -24.576 15.044 0.629 -4.911
7.000 -19.548 -24.700 15.294 0.629 -4.911
7.250 -19.299 -24.895 15.544 0.629 -4.911
7.500 -19.049 -24.999 15.794 0.629 -4.911
7.750 -18.799 -25.038 16.044 0.629 -4.911
8.000 -18.549 -25.067 16.294 0.629 -4.911
8.250 -18.299 -25.089 16.544 0.629 -4.910
8.500 -18.049 -25.099 16.794 0.629 -4.910
8.750 -17.800 -25.104 17.044 0.629 -4.910
9.000 -17.550 -25.107 17.294 0.629 -4.910
