# z = 1.300000e+01
# log(Z/Zsun) = -2.000000e+00
# log(nH) = -6.000000e+00
1.000 -23.635 -21.431 9.279 0.652 -5.974
1.250 -23.382 -21.567 9.531 0.648 -5.970
1.500 -23.130 -21.704 9.783 0.646 -5.967
1.750 -22.878 -21.843 10.034 0.644 -5.964
2.000 -22.627 -21.981 10.284 0.643 -5.963
2.250 -22.376 -22.118 10.535 0.642 -5.961
2.500 -22.126 -22.252 10.785 0.642 -5.961
2.750 -21.875 -22.380 11.036 0.641 -5.960
3.000 -21.625 -22.500 11.286 0.641 -5.960
3.250 -21.375 -22.610 11.536 0.641 -5.959
3.500 -21.125 -22.708 11.786 0.640 -5.959
3.750 -20.875 -22.791 12.036 0.640 -5.959
4.000 -20.625 -22.859 12.286 0.640 -5.959
4.250 -20.375 -22.913 12.536 0.640 -5.959
4.500 -20.125 -22.958 12.786 0.640 -5.959
4.750 -19.873 -23.003 13.037 0.639 -5.957
5.000 -19.590 -23.000 13.304 0.615 -5.925
5.250 -19.337 -23.003 13.556 0.612 -5.921
5.500 -19.087 -23.004 13.806 0.612 -5.921
5.750 -18.837 -23.004 14.056 0.612 -5.921
6.000 -18.587 -23.004 14.306 0.612 -5.921
6.250 -18.338 -23.004 14.556 0.612 -5.921
6.500 -18.088 -23.005 14.806 0.612 -5.921
6.750 -17.839 -23.006 15.056 0.612 -5.921
7.000 -17.590 -23.007 15.306 0.612 -5.921
7.250 -17.343 -23.010 15.556 0.612 -5.921
7.500 -17.098 -23.015 15.806 0.612 -5.921
7.750 -16.854 -23.021 16.056 0.612 -5.921
8.000 -16.604 -23.021 16.306 0.612 -5.921
8.250 -16.354 -23.021 16.556 0.612 -5.921
8.500 -16.104 -23.021 16.806 0.612 -5.921
8.750 -15.854 -23.021 17.056 0.612 -5.921
9.000 -15.604 -23.021 17.306 0.612 -5.921
