# z = 0.000000e+00
# log(Z/Zsun) = -2.000000e+00
# log(nH) = 0.000000e+00
1.000 -30.281 -26.786 8.986 1.279 -2.759
1.250 -29.780 -26.767 9.236 1.278 -2.688
1.500 -29.398 -26.748 9.486 1.278 -2.616
1.750 -29.104 -26.729 9.736 1.278 -2.544
2.000 -28.689 -26.708 9.986 1.278 -2.471
2.250 -27.934 -26.687 10.236 1.278 -2.398
2.500 -27.027 -26.666 10.486 1.279 -2.324
2.750 -26.153 -26.643 10.735 1.281 -2.250
3.000 -25.390 -26.619 10.984 1.285 -2.175
3.250 -24.828 -26.595 11.232 1.291 -2.102
3.500 -24.824 -26.576 11.485 1.281 -2.040
3.750 -25.546 -26.554 11.739 1.269 -1.964
4.000 -25.150 -26.517 11.991 1.264 -1.847
4.250 -21.864 -26.075 12.467 0.751 -0.110
4.500 -22.254 -26.001 12.780 0.649 0.029
4.750 -22.417 -26.006 13.037 0.639 0.042
5.000 -22.061 -25.991 13.304 0.615 0.075
5.250 -22.502 -25.986 13.556 0.612 0.079
5.500 -22.810 -25.984 13.806 0.612 0.079
5.750 -23.031 -25.985 14.056 0.612 0.079
6.000 -23.125 -25.986 14.306 0.612 0.079
6.250 -23.151 -25.988 14.556 0.612 0.079
6.500 -23.147 -25.990 14.806 0.612 0.079
6.750 -23.078 -25.991 15.056 0.612 0.079
7.000 -22.986 -25.991 15.306 0.612 0.079
7.250 -22.887 -25.991 15.556 0.612 0.079
7.500 -22.777 -25.991 15.806 0.612 0.079
7.750 -22.661 -25.991 16.056 0.612 0.079
8.000 -22.542 -25.991 16.306 0.612 0.079
8.250 -22.421 -25.991 16.556 0.612 0.079
8.500 -22.297 -25.991 16.806 0.612 0.079
8.750 -22.169 -25.991 17.056 0.612 0.079
9.000 -22.032 -25.991 17.306 0.612 0.079
