# z = 6.000000e+00
# log(Z/Zsun) = -5.000000e-01
# log(nH) = -2.000000e+00
1.000 -26.703 -22.760 9.078 1.036 -2.577
1.250 -26.313 -22.781 9.340 1.005 -2.514
1.500 -25.728 -22.807 9.605 0.973 -2.452
1.750 -25.274 -22.838 9.870 0.939 -2.393
2.000 -24.938 -22.875 10.136 0.905 -2.335
2.250 -24.644 -22.918 10.403 0.870 -2.280
2.500 -24.413 -22.970 10.671 0.836 -2.228
2.750 -24.257 -23.032 10.938 0.803 -2.181
3.000 -24.149 -23.105 11.205 0.773 -2.137
3.250 -24.067 -23.189 11.470 0.745 -2.099
3.500 -23.975 -23.286 11.735 0.721 -2.066
3.750 -23.821 -23.396 11.997 0.701 -2.038
4.000 -23.456 -23.519 12.257 0.685 -2.016
4.250 -22.218 -23.730 12.519 0.667 -1.991
4.500 -22.163 -24.349 12.783 0.646 -1.963
4.750 -22.000 -24.649 13.035 0.642 -1.957
5.000 -21.635 -24.656 13.302 0.618 -1.925
5.250 -21.732 -24.653 13.554 0.615 -1.921
5.500 -21.913 -24.652 13.804 0.614 -1.920
5.750 -22.187 -24.653 14.054 0.614 -1.920
6.000 -22.276 -24.655 14.304 0.614 -1.920
6.250 -22.387 -24.656 14.555 0.614 -1.920
6.500 -22.635 -24.656 14.805 0.614 -1.920
6.750 -22.608 -24.656 15.055 0.614 -1.920
7.000 -22.478 -24.656 15.305 0.614 -1.920
7.250 -22.345 -24.657 15.555 0.614 -1.920
7.500 -22.155 -24.657 15.805 0.614 -1.920
7.750 -21.940 -24.657 16.055 0.614 -1.920
8.000 -21.716 -24.657 16.305 0.614 -1.920
8.250 -21.484 -24.657 16.555 0.614 -1.920
8.500 -21.248 -24.657 16.805 0.614 -1.920
8.750 -21.008 -24.657 17.055 0.614 -1.920
9.000 -20.766 -24.657 17.305 0.614 -1.920
