# z = 1.200000e+01
# log(Z/Zsun) = 0.000000e+00
# log(nH) = -6.000000e+00
1.000 -23.752 -21.426 9.278 0.653 -5.965
1.250 -23.501 -21.565 9.529 0.651 -5.963
1.500 -23.248 -21.707 9.780 0.650 -5.961
1.750 -22.987 -21.849 10.030 0.649 -5.960
2.000 -22.727 -21.992 10.281 0.649 -5.959
2.250 -22.476 -22.135 10.531 0.648 -5.959
2.500 -22.231 -22.275 10.781 0.648 -5.959
2.750 -21.987 -22.411 11.031 0.648 -5.958
3.000 -21.743 -22.541 11.281 0.648 -5.958
3.250 -21.497 -22.661 11.531 0.648 -5.958
3.500 -21.250 -22.771 11.781 0.648 -5.958
3.750 -21.001 -22.868 12.032 0.648 -5.958
4.000 -20.751 -22.949 12.282 0.648 -5.958
4.250 -20.500 -23.015 12.532 0.647 -5.958
4.500 -20.248 -23.067 12.782 0.647 -5.958
4.750 -19.992 -23.112 13.032 0.647 -5.956
5.000 -19.708 -23.126 13.299 0.622 -5.924
5.250 -19.458 -23.142 13.551 0.619 -5.920
5.500 -19.212 -23.147 13.801 0.619 -5.919
5.750 -18.963 -23.148 14.051 0.618 -5.919
6.000 -18.713 -23.149 14.302 0.618 -5.919
6.250 -18.463 -23.151 14.552 0.618 -5.918
6.500 -18.213 -23.154 14.802 0.618 -5.918
6.750 -17.963 -23.155 15.052 0.618 -5.918
7.000 -17.713 -23.156 15.302 0.618 -5.918
7.250 -17.463 -23.159 15.552 0.618 -5.918
7.500 -17.214 -23.160 15.802 0.618 -5.918
7.750 -16.964 -23.161 16.052 0.618 -5.918
8.000 -16.715 -23.162 16.302 0.618 -5.918
8.250 -16.468 -23.165 16.552 0.618 -5.918
8.500 -16.223 -23.170 16.802 0.618 -5.918
8.750 -15.980 -23.177 17.052 0.618 -5.918
9.000 -15.730 -23.177 17.302 0.618 -5.918
