# z = 1.200000e+01
# log(Z/Zsun) = 0.000000e+00
# log(nH) = 2.000000e+00
1.000 -32.686 -27.664 8.980 1.296 -1.633
1.250 -28.767 -27.735 9.230 1.296 -1.554
1.500 -27.872 -27.725 9.480 1.296 -1.475
1.750 -27.484 -27.713 9.730 1.296 -1.399
2.000 -27.168 -27.701 9.980 1.296 -1.324
2.250 -26.833 -27.685 10.230 1.296 -1.251
2.500 -26.513 -27.632 10.480 1.296 -1.183
2.750 -26.247 -27.579 10.730 1.296 -1.125
3.000 -26.007 -27.531 10.980 1.296 -1.086
3.250 -25.820 -27.487 11.230 1.296 -1.073
3.500 -25.666 -27.424 11.480 1.295 -1.086
3.750 -25.526 -27.347 11.731 1.295 -1.008
4.000 -25.174 -27.288 11.981 1.293 -0.638
4.250 -21.807 -26.359 12.462 0.760 1.890
4.500 -21.944 -26.389 12.776 0.656 2.030
4.750 -21.623 -26.498 13.032 0.647 2.043
5.000 -21.256 -26.383 13.299 0.622 2.076
5.250 -21.277 -26.393 13.551 0.619 2.080
5.500 -21.444 -26.362 13.801 0.619 2.081
5.750 -21.728 -26.557 14.051 0.618 2.081
6.000 -21.825 -26.743 14.302 0.618 2.081
6.250 -21.966 -26.886 14.552 0.618 2.082
6.500 -22.370 -27.073 14.802 0.618 2.082
6.750 -22.498 -27.141 15.052 0.618 2.082
7.000 -22.492 -27.165 15.302 0.618 2.082
7.250 -22.622 -27.282 15.552 0.618 2.082
7.500 -22.635 -27.347 15.802 0.618 2.082
7.750 -22.558 -27.401 16.052 0.618 2.082
8.000 -22.462 -27.448 16.302 0.618 2.082
8.250 -22.361 -27.545 16.552 0.618 2.082
8.500 -22.247 -27.597 16.802 0.618 2.082
8.750 -22.124 -27.625 17.052 0.618 2.082
9.000 -21.989 -27.641 17.302 0.618 2.082
