# z = 7.000000e+00
# log(Z/Zsun) = -3.000000e+00
# log(nH) = -2.000000e+00
1.000 -28.233 -24.200 9.003 1.229 -3.341
1.250 -27.961 -24.201 9.256 1.221 -3.269
1.500 -27.646 -24.201 9.510 1.210 -3.197
1.750 -27.344 -24.203 9.764 1.198 -3.124
2.000 -27.054 -24.205 10.019 1.184 -3.051
2.250 -26.772 -24.208 10.275 1.168 -2.977
2.500 -26.514 -24.213 10.532 1.150 -2.903
2.750 -26.267 -24.219 10.790 1.128 -2.829
3.000 -26.023 -24.226 11.050 1.104 -2.754
3.250 -25.778 -24.235 11.311 1.076 -2.680
3.500 -25.533 -24.246 11.574 1.045 -2.606
3.750 -25.288 -24.260 11.838 1.011 -2.533
4.000 -23.955 -24.276 12.105 0.973 -2.459
4.250 -21.876 -24.461 12.475 0.738 -2.092
4.500 -22.260 -24.643 12.781 0.649 -1.970
4.750 -22.437 -24.675 13.037 0.639 -1.958
5.000 -22.082 -24.660 13.304 0.615 -1.925
5.250 -22.561 -24.658 13.556 0.612 -1.921
5.500 -22.878 -24.658 13.806 0.612 -1.921
5.750 -23.034 -24.658 14.056 0.612 -1.921
6.000 -23.047 -24.658 14.306 0.612 -1.921
6.250 -22.957 -24.658 14.556 0.612 -1.921
6.500 -22.809 -24.658 14.806 0.612 -1.921
6.750 -22.626 -24.658 15.056 0.612 -1.921
7.000 -22.419 -24.653 15.308 0.609 -1.916
7.250 -22.208 -24.658 15.556 0.612 -1.921
7.500 -21.979 -24.653 15.808 0.609 -1.916
7.750 -21.752 -24.658 16.056 0.612 -1.921
8.000 -21.516 -24.658 16.306 0.612 -1.921
8.250 -21.277 -24.658 16.556 0.612 -1.921
8.500 -21.035 -24.658 16.806 0.612 -1.921
8.750 -20.791 -24.658 17.056 0.612 -1.921
9.000 -20.545 -24.658 17.306 0.612 -1.921
