# z = 3.000000e+00
# log(Z/Zsun) = 1.000000e+00
# log(nH) = 2.000000e+00
1.000 -27.601 -27.462 8.936 1.435 -1.706
1.250 -27.006 -27.463 9.186 1.435 -1.608
1.500 -26.600 -27.443 9.436 1.435 -1.509
1.750 -26.311 -27.423 9.686 1.434 -1.412
2.000 -26.057 -27.411 9.936 1.434 -1.319
2.250 -25.775 -27.402 10.186 1.434 -1.232
2.500 -25.493 -27.363 10.436 1.434 -1.156
2.750 -25.266 -27.325 10.686 1.434 -1.095
3.000 -25.065 -27.347 10.936 1.434 -1.050
3.250 -24.800 -27.568 11.186 1.435 -1.024
3.500 -24.534 -27.786 11.436 1.436 -1.048
3.750 -24.440 -27.897 11.686 1.436 -1.074
4.000 -24.374 -27.222 11.936 1.433 -0.978
4.250 -21.478 -26.485 12.418 0.842 1.893
4.500 -21.189 -26.755 12.731 0.727 2.034
4.750 -20.681 -26.534 12.989 0.714 2.049
5.000 -20.310 -25.859 13.257 0.685 2.084
5.250 -20.285 -25.833 13.511 0.679 2.092
5.500 -20.441 -25.873 13.764 0.675 2.097
5.750 -20.726 -26.101 14.015 0.673 2.100
6.000 -20.821 -26.183 14.266 0.671 2.102
6.250 -20.966 -26.166 14.518 0.669 2.105
6.500 -21.412 -26.212 14.769 0.666 2.108
6.750 -21.585 -26.278 15.020 0.665 2.109
7.000 -21.610 -26.350 15.270 0.664 2.110
7.250 -21.886 -26.546 15.521 0.664 2.111
7.500 -22.067 -26.600 15.771 0.663 2.111
7.750 -22.077 -26.684 16.021 0.663 2.111
8.000 -22.049 -26.774 16.271 0.663 2.111
8.250 -22.022 -27.036 16.521 0.663 2.111
8.500 -21.961 -27.239 16.771 0.663 2.111
8.750 -21.869 -27.389 17.021 0.663 2.111
9.000 -21.755 -27.501 17.271 0.663 2.111
