# z = 9.000000e+00
# log(Z/Zsun) = -2.000000e+00
# log(nH) = 0.000000e+00
1.000 -31.115 -26.810 8.986 1.279 -2.782
1.250 -30.259 -26.791 9.236 1.278 -2.711
1.500 -29.690 -26.772 9.486 1.278 -2.639
1.750 -29.327 -26.752 9.736 1.278 -2.567
2.000 -28.826 -26.731 9.986 1.278 -2.495
2.250 -28.038 -26.709 10.236 1.278 -2.422
2.500 -27.140 -26.687 10.486 1.278 -2.348
2.750 -26.271 -26.664 10.736 1.279 -2.275
3.000 -25.507 -26.640 10.985 1.282 -2.200
3.250 -24.934 -26.615 11.233 1.287 -2.127
3.500 -24.854 -26.595 11.485 1.281 -2.066
3.750 -25.544 -26.573 11.739 1.269 -1.992
4.000 -25.173 -26.535 11.991 1.265 -1.874
4.250 -21.864 -26.073 12.467 0.751 -0.110
4.500 -22.254 -25.999 12.780 0.649 0.029
4.750 -22.417 -26.005 13.037 0.639 0.042
5.000 -22.061 -25.991 13.304 0.615 0.075
5.250 -22.502 -25.985 13.556 0.612 0.079
5.500 -22.809 -25.984 13.806 0.612 0.079
5.750 -23.030 -25.985 14.056 0.612 0.079
6.000 -23.121 -25.986 14.306 0.612 0.079
6.250 -23.144 -25.988 14.556 0.612 0.079
6.500 -23.134 -25.990 14.806 0.612 0.079
6.750 -23.059 -25.991 15.056 0.612 0.079
7.000 -22.959 -25.991 15.306 0.612 0.079
7.250 -22.848 -25.991 15.556 0.612 0.079
7.500 -22.725 -25.991 15.806 0.612 0.079
7.750 -22.592 -25.991 16.056 0.612 0.079
8.000 -22.451 -25.991 16.306 0.612 0.079
8.250 -22.302 -25.991 16.556 0.612 0.079
8.500 -22.144 -25.991 16.806 0.612 0.079
8.750 -21.976 -25.991 17.056 0.612 0.079
9.000 -21.795 -25.991 17.306 0.612 0.079
