# z = 1.100000e+01
# log(Z/Zsun) = -5.000000e-01
# log(nH) = 1.000000e+00
1.000 -31.768 -27.478 8.984 1.285 -2.115
1.250 -29.141 -27.477 9.234 1.285 -2.045
1.500 -28.337 -27.461 9.484 1.285 -1.972
1.750 -27.975 -27.443 9.734 1.285 -1.900
2.000 -27.626 -27.426 9.984 1.285 -1.827
2.250 -27.184 -27.406 10.234 1.284 -1.753
2.500 -26.764 -27.379 10.484 1.285 -1.679
2.750 -26.367 -27.350 10.734 1.285 -1.606
3.000 -25.940 -27.319 10.984 1.286 -1.538
3.250 -25.709 -27.287 11.234 1.284 -1.480
3.500 -25.631 -27.253 11.485 1.283 -1.435
3.750 -25.644 -27.207 11.735 1.280 -1.341
4.000 -25.202 -27.149 11.986 1.277 -1.168
4.250 -21.845 -26.336 12.466 0.753 0.890
4.500 -22.133 -26.331 12.779 0.652 1.029
4.750 -22.000 -26.506 13.035 0.642 1.043
5.000 -21.635 -26.478 13.302 0.618 1.075
5.250 -21.733 -26.359 13.554 0.615 1.079
5.500 -21.914 -26.311 13.804 0.614 1.080
5.750 -22.193 -26.389 14.054 0.614 1.080
6.000 -22.290 -26.476 14.304 0.614 1.080
6.250 -22.418 -26.547 14.555 0.614 1.080
6.500 -22.742 -26.614 14.805 0.614 1.080
6.750 -22.806 -26.624 15.055 0.614 1.080
7.000 -22.765 -26.621 15.305 0.614 1.080
7.250 -22.781 -26.632 15.555 0.614 1.080
7.500 -22.718 -26.641 15.805 0.614 1.080
7.750 -22.613 -26.646 16.055 0.614 1.080
8.000 -22.497 -26.649 16.305 0.614 1.080
8.250 -22.376 -26.653 16.555 0.614 1.080
8.500 -22.247 -26.655 16.805 0.614 1.080
8.750 -22.110 -26.656 17.055 0.614 1.080
9.000 -21.962 -26.656 17.305 0.614 1.080
