# z = 1.200000e+01
# log(Z/Zsun) = 1.000000e+00
# log(nH) = 3.000000e+00
1.000 -33.498 -26.803 8.935 1.439 -1.207
1.250 -27.973 -26.906 9.184 1.440 -1.106
1.500 -27.261 -27.099 9.434 1.443 -1.004
1.750 -26.704 -27.165 9.682 1.448 -0.903
2.000 -26.290 -27.167 9.930 1.455 -0.808
2.250 -25.904 -27.169 10.178 1.462 -0.714
2.500 -25.562 -27.170 10.425 1.472 -0.632
2.750 -25.237 -27.560 10.682 1.448 -0.572
3.000 -24.907 -27.642 10.935 1.439 -0.564
3.250 -23.333 -27.726 11.185 1.439 -0.560
3.500 -23.129 -27.674 11.435 1.439 -0.559
3.750 -23.633 -27.332 11.685 1.438 -0.498
4.000 -24.441 -26.720 11.936 1.434 -0.098
4.250 -21.489 -26.033 12.418 0.842 2.893
4.500 -21.199 -26.154 12.733 0.724 3.037
4.750 -20.684 -25.930 12.989 0.714 3.049
5.000 -20.311 -25.647 13.257 0.685 3.084
5.250 -20.285 -25.814 13.511 0.679 3.092
5.500 -20.441 -25.880 13.764 0.675 3.097
5.750 -20.726 -26.059 14.015 0.673 3.100
6.000 -20.821 -26.152 14.266 0.671 3.102
6.250 -20.966 -26.179 14.518 0.669 3.105
6.500 -21.412 -26.227 14.769 0.666 3.108
6.750 -21.585 -26.295 15.020 0.665 3.109
7.000 -21.610 -26.372 15.270 0.664 3.110
7.250 -21.886 -26.579 15.521 0.664 3.111
7.500 -22.067 -26.639 15.771 0.663 3.111
7.750 -22.077 -26.731 16.021 0.663 3.111
8.000 -22.049 -26.833 16.271 0.663 3.111
8.250 -22.022 -27.150 16.521 0.663 3.111
8.500 -21.961 -27.438 16.771 0.663 3.111
8.750 -21.868 -27.710 17.021 0.663 3.111
9.000 -21.755 -27.990 17.271 0.663 3.111
