# z = 1.500000e+01
# log(Z/Zsun) = -1.000000e+01
# log(nH) = -4.000000e+00
1.000 -25.989 -22.720 9.070 1.053 -4.625
1.250 -25.683 -22.740 9.332 1.024 -4.561
1.500 -25.377 -22.763 9.596 0.993 -4.498
1.750 -25.070 -22.791 9.860 0.960 -4.436
2.000 -24.764 -22.825 10.126 0.926 -4.377
2.250 -24.462 -22.865 10.393 0.892 -4.319
2.500 -24.165 -22.912 10.660 0.857 -4.265
2.750 -23.870 -22.969 10.928 0.823 -4.213
3.000 -23.579 -23.036 11.195 0.790 -4.166
3.250 -23.291 -23.114 11.462 0.760 -4.124
3.500 -23.008 -23.205 11.727 0.734 -4.087
3.750 -22.730 -23.310 11.991 0.711 -4.055
4.000 -22.449 -23.429 12.253 0.692 -4.029
4.250 -21.883 -23.658 12.518 0.668 -3.996
4.500 -21.752 -24.294 12.785 0.643 -3.962
4.750 -21.578 -24.706 13.037 0.639 -3.958
5.000 -21.285 -24.718 13.304 0.615 -3.925
5.250 -21.091 -24.716 13.556 0.612 -3.921
5.500 -20.852 -24.716 13.806 0.612 -3.921
5.750 -20.604 -24.716 14.056 0.612 -3.921
6.000 -20.355 -24.716 14.306 0.612 -3.921
6.250 -20.105 -24.716 14.556 0.612 -3.921
6.500 -19.855 -24.716 14.806 0.612 -3.921
6.750 -19.605 -24.716 15.056 0.612 -3.921
7.000 -19.355 -24.716 15.306 0.612 -3.921
7.250 -19.105 -24.716 15.556 0.612 -3.921
7.500 -18.855 -24.716 15.806 0.612 -3.921
7.750 -18.605 -24.716 16.056 0.612 -3.921
8.000 -18.356 -24.716 16.306 0.612 -3.921
8.250 -18.106 -24.716 16.556 0.612 -3.921
8.500 -17.856 -24.717 16.806 0.612 -3.921
8.750 -17.606 -24.717 17.056 0.612 -3.921
9.000 -17.356 -24.717 17.306 0.612 -3.921
