# z = 4.000000e+00
# log(Z/Zsun) = -3.000000e+00
# log(nH) = 6.000000e+00
1.000 -34.715 -32.645 8.977 1.306 0.384
1.250 -33.995 -32.648 9.225 1.313 0.455
1.500 -33.093 -32.649 9.472 1.321 0.526
1.750 -32.008 -32.652 9.721 1.324 0.578
2.000 -31.141 -32.658 9.975 1.313 0.582
2.250 -30.530 -32.658 10.226 1.308 0.517
2.500 -29.934 -32.650 10.475 1.313 0.348
2.750 -29.094 -32.630 10.718 1.332 0.111
3.000 -28.575 -32.573 10.977 1.306 -0.289
3.250 -27.362 -32.579 11.221 1.323 -0.084
3.500 -29.704 -32.641 11.485 1.280 1.173
3.750 -29.852 -32.636 11.736 1.280 1.273
4.000 -26.076 -32.304 11.986 1.278 3.247
4.250 -21.864 -28.163 12.468 0.750 5.890
4.500 -22.274 -27.318 12.784 0.644 6.036
4.750 -22.452 -28.026 13.037 0.639 6.042
5.000 -22.084 -28.536 13.304 0.615 6.075
5.250 -22.569 -28.458 13.556 0.612 6.079
5.500 -22.908 -28.499 13.806 0.612 6.079
5.750 -23.114 -28.443 14.056 0.612 6.079
6.000 -23.207 -28.561 14.306 0.612 6.079
6.250 -23.212 -28.858 14.556 0.612 6.079
6.500 -23.167 -29.165 14.806 0.612 6.079
6.750 -23.090 -29.476 15.056 0.612 6.079
7.000 -22.995 -29.780 15.306 0.612 6.079
7.250 -22.890 -30.115 15.556 0.612 6.079
7.500 -22.778 -30.468 15.806 0.612 6.079
7.750 -22.662 -30.802 16.056 0.612 6.079
8.000 -22.543 -31.103 16.306 0.612 6.079
8.250 -22.422 -31.371 16.556 0.612 6.079
8.500 -22.297 -31.565 16.806 0.612 6.079
8.750 -22.169 -31.633 17.056 0.612 6.079
9.000 -22.032 -31.648 17.306 0.612 6.079
