# z = 2.000000e+00
# log(Z/Zsun) = -1.000000e+01
# log(nH) = -2.000000e+00
1.000 -26.122 -22.213 9.151 0.874 -2.292
1.250 -25.868 -22.260 9.418 0.842 -2.242
1.500 -25.635 -22.315 9.684 0.811 -2.196
1.750 -25.423 -22.380 9.950 0.781 -2.153
2.000 -25.217 -22.454 10.215 0.754 -2.115
2.250 -25.023 -22.539 10.479 0.730 -2.082
2.500 -24.860 -22.635 10.742 0.710 -2.054
2.750 -24.713 -22.742 11.002 0.692 -2.030
3.000 -24.577 -22.859 11.261 0.678 -2.011
3.250 -24.453 -22.984 11.518 0.667 -1.996
3.500 -24.338 -23.116 11.774 0.659 -1.984
3.750 -24.230 -23.252 12.028 0.652 -1.975
4.000 -24.060 -23.389 12.282 0.647 -1.968
4.250 -22.803 -23.541 12.535 0.643 -1.962
4.500 -22.373 -23.921 12.789 0.637 -1.954
4.750 -22.494 -24.122 13.041 0.633 -1.949
5.000 -22.104 -24.533 13.304 0.615 -1.925
5.250 -22.578 -24.652 13.556 0.612 -1.921
5.500 -22.919 -24.657 13.806 0.612 -1.921
5.750 -23.122 -24.658 14.056 0.612 -1.921
6.000 -23.213 -24.658 14.306 0.612 -1.921
6.250 -23.212 -24.658 14.556 0.612 -1.921
6.500 -23.158 -24.658 14.806 0.612 -1.921
6.750 -23.075 -24.658 15.056 0.612 -1.921
7.000 -22.973 -24.658 15.306 0.612 -1.921
7.250 -22.859 -24.658 15.556 0.612 -1.921
7.500 -22.731 -24.654 15.808 0.609 -1.916
7.750 -22.605 -24.658 16.056 0.612 -1.921
8.000 -22.467 -24.658 16.306 0.612 -1.921
8.250 -22.318 -24.654 16.558 0.609 -1.916
8.500 -22.165 -24.654 16.808 0.609 -1.916
8.750 -22.003 -24.654 17.058 0.609 -1.916
9.000 -21.832 -24.658 17.306 0.612 -1.921
