# z = 1.500000e+01
# log(Z/Zsun) = -1.000000e+00
# log(nH) = -1.000000e+00
1.000 -30.335 -26.057 8.986 1.278 -3.465
1.250 -29.791 -26.037 9.237 1.277 -3.396
1.500 -28.718 -26.016 9.487 1.276 -3.326
1.750 -28.183 -25.994 9.737 1.275 -3.256
2.000 -27.692 -25.973 9.988 1.274 -3.185
2.250 -27.208 -25.951 10.238 1.273 -3.114
2.500 -26.832 -25.928 10.488 1.271 -3.042
2.750 -26.508 -25.905 10.739 1.270 -2.969
3.000 -26.095 -25.882 10.990 1.268 -2.896
3.250 -25.645 -25.859 11.240 1.266 -2.823
3.500 -25.368 -25.837 11.491 1.263 -2.751
3.750 -25.428 -25.815 11.743 1.259 -2.684
4.000 -24.835 -25.785 11.995 1.252 -2.588
4.250 -21.858 -25.388 12.467 0.751 -1.110
4.500 -22.214 -25.331 12.780 0.650 -0.971
4.750 -22.247 -25.334 13.037 0.640 -0.958
5.000 -21.887 -25.319 13.303 0.616 -0.925
5.250 -22.112 -25.313 13.555 0.613 -0.921
5.500 -22.318 -25.312 13.805 0.613 -0.921
5.750 -22.555 -25.312 14.055 0.613 -0.921
6.000 -22.606 -25.316 14.305 0.613 -0.921
6.250 -22.619 -25.319 14.555 0.613 -0.921
6.500 -22.614 -25.322 14.805 0.613 -0.921
6.750 -22.452 -25.322 15.055 0.613 -0.921
7.000 -22.248 -25.322 15.305 0.613 -0.921
7.250 -22.034 -25.322 15.555 0.613 -0.920
7.500 -21.804 -25.322 15.805 0.613 -0.920
7.750 -21.568 -25.322 16.055 0.613 -0.920
8.000 -21.327 -25.322 16.305 0.613 -0.920
8.250 -21.084 -25.322 16.555 0.613 -0.920
8.500 -20.839 -25.322 16.805 0.613 -0.920
8.750 -20.593 -25.322 17.055 0.613 -0.920
9.000 -20.346 -25.322 17.305 0.613 -0.920
