# z = 3.000000e+00
# log(Z/Zsun) = 0.000000e+00
# log(nH) = 1.000000e+00
1.000 -28.514 -27.505 8.981 1.295 -2.126
1.250 -27.921 -27.490 9.231 1.295 -2.053
1.500 -27.509 -27.473 9.481 1.295 -1.979
1.750 -27.218 -27.456 9.731 1.295 -1.906
2.000 -26.962 -27.437 9.981 1.294 -1.833
2.250 -26.648 -27.418 10.231 1.294 -1.759
2.500 -26.316 -27.392 10.481 1.294 -1.686
2.750 -26.036 -27.364 10.731 1.294 -1.614
3.000 -25.795 -27.334 10.981 1.294 -1.547
3.250 -25.629 -27.304 11.231 1.293 -1.487
3.500 -25.504 -27.279 11.481 1.292 -1.441
3.750 -25.332 -27.250 11.732 1.291 -1.376
4.000 -24.900 -27.176 11.983 1.288 -1.198
4.250 -21.806 -26.648 12.462 0.760 0.890
4.500 -21.944 -26.648 12.775 0.657 1.029
4.750 -21.623 -26.615 13.032 0.647 1.043
5.000 -21.255 -26.369 13.299 0.622 1.076
5.250 -21.277 -26.230 13.551 0.619 1.080
5.500 -21.444 -26.199 13.801 0.619 1.081
5.750 -21.728 -26.323 14.051 0.618 1.081
6.000 -21.825 -26.421 14.302 0.618 1.081
6.250 -21.966 -26.483 14.552 0.618 1.082
6.500 -22.370 -26.547 14.802 0.618 1.082
6.750 -22.498 -26.566 15.052 0.618 1.082
7.000 -22.492 -26.572 15.302 0.618 1.082
7.250 -22.623 -26.599 15.552 0.618 1.082
7.500 -22.636 -26.612 15.802 0.618 1.082
7.750 -22.559 -26.621 16.052 0.618 1.082
8.000 -22.464 -26.629 16.302 0.618 1.082
8.250 -22.364 -26.642 16.552 0.618 1.082
8.500 -22.252 -26.648 16.802 0.618 1.082
8.750 -22.130 -26.652 17.052 0.618 1.082
9.000 -21.997 -26.653 17.302 0.618 1.082
