# z = 1.750000e+00
# log(Z/Zsun) = -1.000000e+01
# log(nH) = -2.000000e+00
1.000 -26.264 -22.361 9.129 0.920 -2.366
1.250 -26.004 -22.399 9.395 0.887 -2.312
1.500 -25.763 -22.444 9.661 0.854 -2.260
1.750 -25.540 -22.497 9.928 0.822 -2.212
2.000 -25.321 -22.559 10.195 0.791 -2.167
2.250 -25.114 -22.631 10.460 0.763 -2.127
2.500 -24.936 -22.713 10.725 0.737 -2.092
2.750 -24.776 -22.807 10.988 0.715 -2.061
3.000 -24.628 -22.912 11.250 0.697 -2.036
3.250 -24.492 -23.028 11.509 0.682 -2.015
3.500 -24.368 -23.152 11.767 0.669 -1.998
3.750 -24.254 -23.283 12.023 0.660 -1.986
4.000 -24.043 -23.419 12.278 0.653 -1.976
4.250 -22.638 -23.580 12.532 0.647 -1.968
4.500 -22.343 -24.009 12.788 0.638 -1.956
4.750 -22.480 -24.210 13.040 0.635 -1.951
5.000 -22.098 -24.567 13.304 0.615 -1.925
5.250 -22.578 -24.654 13.556 0.612 -1.921
5.500 -22.919 -24.657 13.806 0.612 -1.921
5.750 -23.123 -24.658 14.056 0.612 -1.921
6.000 -23.214 -24.658 14.306 0.612 -1.921
6.250 -23.214 -24.658 14.556 0.612 -1.921
6.500 -23.162 -24.658 14.806 0.612 -1.921
6.750 -23.079 -24.658 15.056 0.612 -1.921
7.000 -22.979 -24.658 15.306 0.612 -1.921
7.250 -22.868 -24.658 15.556 0.612 -1.921
7.500 -22.748 -24.658 15.806 0.612 -1.921
7.750 -22.621 -24.658 16.056 0.612 -1.921
8.000 -22.488 -24.658 16.306 0.612 -1.921
8.250 -22.345 -24.654 16.558 0.609 -1.916
8.500 -22.203 -24.658 16.806 0.612 -1.921
8.750 -22.049 -24.658 17.056 0.612 -1.921
9.000 -21.877 -24.654 17.308 0.609 -1.916
