# z = 3.750000e+00
# log(Z/Zsun) = 0.000000e+00
# log(nH) = -4.000000e+00
1.000 -25.467 -21.516 9.281 0.649 -3.960
1.250 -25.292 -21.648 9.531 0.648 -3.958
1.500 -24.939 -21.778 9.782 0.647 -3.957
1.750 -24.388 -21.904 10.032 0.646 -3.956
2.000 -23.963 -22.026 10.283 0.645 -3.955
2.250 -23.696 -22.143 10.534 0.644 -3.953
2.500 -23.533 -22.253 10.785 0.643 -3.951
2.750 -23.417 -22.357 11.036 0.641 -3.949
3.000 -23.329 -22.456 11.287 0.639 -3.947
3.250 -23.266 -22.552 11.539 0.637 -3.943
3.500 -23.229 -22.649 11.790 0.634 -3.940
3.750 -23.210 -22.748 12.042 0.632 -3.936
4.000 -23.126 -22.852 12.294 0.629 -3.933
4.250 -22.871 -22.960 12.546 0.627 -3.930
4.500 -22.399 -23.067 12.797 0.625 -3.927
4.750 -21.891 -23.172 13.048 0.623 -3.925
5.000 -21.495 -23.373 13.300 0.621 -3.922
5.250 -21.363 -23.639 13.551 0.619 -3.919
5.500 -21.543 -23.939 13.801 0.619 -3.919
5.750 -21.721 -24.174 14.052 0.618 -3.919
6.000 -21.750 -24.371 14.302 0.618 -3.918
6.250 -21.791 -24.634 14.552 0.618 -3.918
6.500 -21.828 -25.122 14.802 0.618 -3.918
6.750 -21.654 -25.473 15.052 0.618 -3.918
7.000 -21.430 -25.729 15.302 0.618 -3.918
7.250 -21.195 -26.013 15.552 0.618 -3.918
7.500 -20.952 -26.166 15.802 0.618 -3.918
7.750 -20.705 -26.229 16.052 0.618 -3.918
8.000 -20.457 -26.275 16.302 0.618 -3.918
8.250 -20.209 -26.312 16.552 0.618 -3.918
8.500 -19.959 -26.330 16.802 0.618 -3.918
8.750 -19.710 -26.338 17.052 0.618 -3.918
9.000 -19.461 -26.342 17.302 0.618 -3.918
