# z = 5.000000e-01
# log(Z/Zsun) = -3.000000e+00
# log(nH) = -1.000000e+00
1.000 -29.538 -25.516 8.989 1.269 -3.022
1.250 -29.251 -25.507 9.240 1.267 -2.949
1.500 -28.964 -25.498 9.491 1.265 -2.875
1.750 -28.681 -25.489 9.742 1.262 -2.801
2.000 -28.378 -25.480 9.993 1.259 -2.726
2.250 -28.028 -25.471 10.244 1.255 -2.650
2.500 -27.565 -25.461 10.496 1.250 -2.573
2.750 -26.906 -25.452 10.748 1.245 -2.496
3.000 -26.189 -25.442 11.000 1.238 -2.417
3.250 -25.599 -25.433 11.253 1.231 -2.338
3.500 -25.436 -25.423 11.506 1.221 -2.258
3.750 -25.906 -25.414 11.761 1.207 -2.177
4.000 -24.474 -25.402 12.017 1.192 -2.088
4.250 -21.865 -25.349 12.468 0.750 -1.109
4.500 -22.258 -25.339 12.780 0.649 -0.971
4.750 -22.438 -25.340 13.037 0.639 -0.958
5.000 -22.083 -25.326 13.304 0.615 -0.925
5.250 -22.569 -25.324 13.556 0.612 -0.921
5.500 -22.907 -25.324 13.806 0.612 -0.921
5.750 -23.114 -25.324 14.056 0.612 -0.921
6.000 -23.207 -25.324 14.306 0.612 -0.921
6.250 -23.212 -25.324 14.556 0.612 -0.921
6.500 -23.167 -25.324 14.806 0.612 -0.921
6.750 -23.090 -25.325 15.056 0.612 -0.921
7.000 -22.995 -25.325 15.306 0.612 -0.921
7.250 -22.890 -25.325 15.556 0.612 -0.921
7.500 -22.778 -25.325 15.806 0.612 -0.921
7.750 -22.662 -25.325 16.056 0.612 -0.921
8.000 -22.543 -25.325 16.306 0.612 -0.921
8.250 -22.421 -25.325 16.556 0.612 -0.921
8.500 -22.297 -25.325 16.806 0.612 -0.921
8.750 -22.168 -25.325 17.056 0.612 -0.921
9.000 -22.031 -25.325 17.306 0.612 -0.921
