# z = 2.500000e-01
# log(Z/Zsun) = -5.000000e-01
# log(nH) = 6.000000e+00
1.000 -30.444 -32.544 8.983 1.286 -0.091
1.250 -29.845 -32.563 9.233 1.287 0.012
1.500 -29.277 -32.458 9.483 1.288 0.128
1.750 -28.936 -32.161 9.728 1.302 0.321
2.000 -28.638 -32.091 9.963 1.348 0.558
2.250 -28.154 -31.902 10.203 1.380 0.664
2.500 -27.683 -31.447 10.447 1.398 0.651
2.750 -26.894 -31.079 10.702 1.384 0.457
3.000 -26.549 -30.709 10.902 1.550 0.490
3.250 -26.078 -30.379 11.195 1.405 0.681
3.500 -26.490 -31.178 11.484 1.285 0.997
3.750 -26.387 -31.451 11.734 1.285 1.197
4.000 -25.940 -30.443 11.984 1.283 3.190
4.250 -21.852 -27.455 12.466 0.753 5.891
4.500 -22.174 -27.192 12.782 0.646 6.037
4.750 -22.022 -27.131 13.035 0.642 6.043
5.000 -21.644 -26.627 13.302 0.618 6.075
5.250 -21.739 -26.304 13.554 0.615 6.079
5.500 -21.936 -26.523 13.804 0.614 6.080
5.750 -22.205 -26.322 14.054 0.614 6.080
6.000 -22.307 -26.421 14.304 0.614 6.080
6.250 -22.420 -27.168 14.555 0.614 6.080
6.500 -22.743 -27.639 14.805 0.614 6.080
6.750 -22.808 -27.759 15.055 0.614 6.080
7.000 -22.768 -27.723 15.305 0.614 6.080
7.250 -22.787 -27.892 15.555 0.614 6.080
7.500 -22.728 -28.088 15.805 0.614 6.080
7.750 -22.627 -28.249 16.055 0.614 6.080
8.000 -22.517 -28.376 16.305 0.614 6.080
8.250 -22.403 -28.706 16.555 0.614 6.080
8.500 -22.283 -29.019 16.805 0.614 6.080
8.750 -22.157 -29.332 17.055 0.614 6.080
9.000 -22.021 -29.758 17.305 0.614 6.080
