# z = 4.000000e+00
# log(Z/Zsun) = -3.000000e+00
# log(nH) = -1.000000e+00
1.000 -29.673 -25.575 8.989 1.270 -3.060
1.250 -29.367 -25.566 9.240 1.268 -2.987
1.500 -29.043 -25.556 9.490 1.266 -2.914
1.750 -28.735 -25.546 9.741 1.264 -2.839
2.000 -28.425 -25.536 9.992 1.261 -2.765
2.250 -28.102 -25.525 10.243 1.257 -2.689
2.500 -27.759 -25.514 10.495 1.252 -2.612
2.750 -27.293 -25.504 10.747 1.247 -2.535
3.000 -26.693 -25.493 10.999 1.241 -2.456
3.250 -26.139 -25.482 11.252 1.234 -2.376
3.500 -25.797 -25.470 11.505 1.225 -2.296
3.750 -25.924 -25.459 11.759 1.213 -2.216
4.000 -24.509 -25.446 12.014 1.199 -2.126
4.250 -21.865 -25.363 12.468 0.750 -1.109
4.500 -22.258 -25.342 12.780 0.649 -0.971
4.750 -22.438 -25.342 13.037 0.639 -0.958
5.000 -22.083 -25.326 13.304 0.615 -0.925
5.250 -22.569 -25.324 13.556 0.612 -0.921
5.500 -22.907 -25.324 13.806 0.612 -0.921
5.750 -23.113 -25.324 14.056 0.612 -0.921
6.000 -23.199 -25.320 14.308 0.609 -0.916
6.250 -23.206 -25.324 14.556 0.612 -0.921
6.500 -23.159 -25.324 14.806 0.612 -0.921
6.750 -23.077 -25.325 15.056 0.612 -0.921
7.000 -22.977 -25.325 15.306 0.612 -0.921
7.250 -22.865 -25.325 15.556 0.612 -0.921
7.500 -22.745 -25.325 15.806 0.612 -0.921
7.750 -22.617 -25.325 16.056 0.612 -0.921
8.000 -22.483 -25.325 16.306 0.612 -0.921
8.250 -22.343 -25.325 16.556 0.612 -0.921
8.500 -22.196 -25.325 16.806 0.612 -0.921
8.750 -22.039 -25.325 17.056 0.612 -0.921
9.000 -21.870 -25.325 17.306 0.612 -0.921
