# z = 7.000000e+00
# log(Z/Zsun) = 1.000000e+00
# log(nH) = -5.000000e+00
1.000 -25.180 -21.445 9.239 0.715 -4.951
1.250 -24.952 -21.578 9.489 0.714 -4.951
1.500 -24.197 -21.711 9.739 0.714 -4.950
1.750 -23.425 -21.853 9.989 0.714 -4.950
2.000 -22.967 -22.002 10.239 0.713 -4.950
2.250 -22.702 -22.154 10.490 0.713 -4.949
2.500 -22.545 -22.305 10.740 0.713 -4.949
2.750 -22.446 -22.450 10.990 0.713 -4.949
3.000 -22.388 -22.587 11.240 0.713 -4.949
3.250 -22.367 -22.715 11.490 0.713 -4.949
3.500 -22.361 -22.836 11.740 0.713 -4.949
3.750 -22.311 -22.948 11.990 0.713 -4.949
4.000 -22.084 -23.046 12.240 0.712 -4.949
4.250 -21.663 -23.125 12.490 0.712 -4.949
4.500 -21.134 -23.171 12.740 0.712 -4.948
4.750 -20.665 -23.175 12.991 0.711 -4.947
5.000 -20.330 -23.222 13.257 0.684 -4.915
5.250 -20.255 -23.347 13.511 0.679 -4.908
5.500 -20.368 -23.443 13.764 0.675 -4.903
5.750 -20.473 -23.504 14.015 0.673 -4.900
6.000 -20.366 -23.573 14.266 0.671 -4.898
6.250 -20.210 -23.691 14.518 0.668 -4.895
6.500 -20.015 -23.976 14.769 0.666 -4.892
6.750 -19.774 -24.174 15.020 0.665 -4.891
7.000 -19.526 -24.334 15.270 0.664 -4.890
7.250 -19.277 -24.625 15.521 0.664 -4.889
7.500 -19.027 -24.820 15.771 0.663 -4.889
7.750 -18.777 -24.903 16.021 0.663 -4.889
8.000 -18.527 -24.974 16.271 0.663 -4.889
8.250 -18.277 -25.031 16.521 0.663 -4.889
8.500 -18.028 -25.060 16.771 0.663 -4.889
8.750 -17.778 -25.073 17.021 0.663 -4.889
9.000 -17.528 -25.080 17.271 0.663 -4.889
