# z = 1.000000e+00
# log(Z/Zsun) = 5.000000e-01
# log(nH) = -1.000000e+00
1.000 -27.898 -25.138 8.975 1.310 -2.796
1.250 -27.273 -25.135 9.227 1.307 -2.723
1.500 -26.656 -25.131 9.478 1.303 -2.650
1.750 -26.139 -25.128 9.729 1.298 -2.576
2.000 -25.631 -25.125 9.981 1.292 -2.501
2.250 -25.130 -25.122 10.234 1.285 -2.424
2.500 -24.768 -25.120 10.486 1.277 -2.347
2.750 -24.540 -25.118 10.740 1.268 -2.269
3.000 -24.390 -25.116 10.994 1.256 -2.191
3.250 -24.273 -25.114 11.249 1.242 -2.111
3.500 -24.130 -25.113 11.504 1.226 -2.032
3.750 -23.875 -25.112 11.761 1.207 -1.951
4.000 -23.352 -25.108 12.019 1.184 -1.870
4.250 -21.702 -25.228 12.452 0.778 -1.107
4.500 -21.620 -25.317 12.764 0.674 -0.970
4.750 -21.170 -25.323 13.021 0.663 -0.955
5.000 -20.800 -25.275 13.288 0.638 -0.922
5.250 -20.789 -25.265 13.541 0.634 -0.917
5.500 -20.950 -25.262 13.792 0.632 -0.915
5.750 -21.236 -25.284 14.042 0.632 -0.914
6.000 -21.332 -25.294 14.293 0.631 -0.914
6.250 -21.478 -25.296 14.543 0.630 -0.913
6.500 -21.914 -25.299 14.794 0.630 -0.912
6.750 -22.075 -25.301 15.044 0.629 -0.911
7.000 -22.091 -25.303 15.294 0.629 -0.911
7.250 -22.318 -25.307 15.544 0.629 -0.911
7.500 -22.427 -25.308 15.794 0.629 -0.911
7.750 -22.393 -25.309 16.044 0.629 -0.911
8.000 -22.327 -25.310 16.294 0.629 -0.911
8.250 -22.257 -25.312 16.544 0.629 -0.910
8.500 -22.164 -25.313 16.794 0.629 -0.910
8.750 -22.052 -25.314 17.044 0.629 -0.910
9.000 -21.925 -25.314 17.294 0.629 -0.910
