# z = 7.500000e-01
# log(Z/Zsun) = -5.000000e-01
# log(nH) = 2.000000e+00
1.000 -28.980 -28.641 8.984 1.285 -1.615
1.250 -28.453 -28.629 9.234 1.285 -1.542
1.500 -28.078 -28.617 9.484 1.286 -1.468
1.750 -27.814 -28.603 9.733 1.286 -1.394
2.000 -27.572 -28.590 9.983 1.286 -1.321
2.250 -27.267 -28.575 10.234 1.286 -1.249
2.500 -26.925 -28.560 10.483 1.286 -1.181
2.750 -26.559 -28.545 10.733 1.287 -1.120
3.000 -26.184 -28.530 10.983 1.288 -1.075
3.250 -26.003 -28.520 11.233 1.286 -1.055
3.500 -25.870 -28.518 11.484 1.286 -1.067
3.750 -25.903 -28.474 11.734 1.284 -0.901
4.000 -25.488 -28.378 11.985 1.282 -0.550
4.250 -21.845 -27.547 12.466 0.753 1.890
4.500 -22.134 -27.605 12.779 0.651 2.030
4.750 -22.000 -27.533 13.035 0.642 2.043
5.000 -21.636 -27.014 13.302 0.618 2.075
5.250 -21.733 -26.627 13.554 0.615 2.079
5.500 -21.914 -26.537 13.804 0.614 2.080
5.750 -22.193 -26.678 14.054 0.614 2.080
6.000 -22.290 -26.865 14.304 0.614 2.080
6.250 -22.418 -27.067 14.555 0.614 2.080
6.500 -22.743 -27.348 14.805 0.614 2.080
6.750 -22.808 -27.404 15.055 0.614 2.080
7.000 -22.768 -27.388 15.305 0.614 2.080
7.250 -22.787 -27.458 15.555 0.614 2.080
7.500 -22.728 -27.520 15.805 0.614 2.080
7.750 -22.627 -27.558 16.055 0.614 2.080
8.000 -22.517 -27.581 16.305 0.614 2.080
8.250 -22.403 -27.620 16.555 0.614 2.080
8.500 -22.283 -27.638 16.805 0.614 2.080
8.750 -22.157 -27.648 17.055 0.614 2.080
9.000 -22.021 -27.653 17.305 0.614 2.080
