# z = 2.750000e+00
# log(Z/Zsun) = 0.000000e+00
# log(nH) = 4.000000e+00
1.000 -30.161 -29.878 8.978 1.303 -0.719
1.250 -28.812 -30.029 9.226 1.307 -0.618
1.500 -28.243 -30.098 9.474 1.313 -0.514
1.750 -27.808 -30.141 9.724 1.314 -0.421
2.000 -27.404 -30.108 9.978 1.301 -0.353
2.250 -27.001 -30.048 10.229 1.299 -0.301
2.500 -26.657 -30.030 10.479 1.300 -0.279
2.750 -26.314 -29.783 10.725 1.311 -0.327
3.000 -25.808 -29.705 10.975 1.311 -0.394
3.250 -24.579 -29.417 11.212 1.352 -0.430
3.500 -24.653 -29.383 11.479 1.299 -0.285
3.750 -25.523 -29.434 11.730 1.296 -0.169
4.000 -25.442 -29.726 11.981 1.295 1.015
4.250 -21.815 -27.544 12.462 0.760 3.891
4.500 -21.979 -26.854 12.779 0.652 4.036
4.750 -21.634 -27.106 13.032 0.647 4.043
5.000 -21.259 -26.659 13.299 0.622 4.076
5.250 -21.277 -26.436 13.551 0.619 4.080
5.500 -21.447 -26.383 13.801 0.619 4.081
5.750 -21.729 -26.459 14.051 0.618 4.081
6.000 -21.826 -26.651 14.302 0.618 4.081
6.250 -21.966 -26.964 14.552 0.618 4.082
6.500 -22.370 -27.204 14.802 0.618 4.082
6.750 -22.498 -27.298 15.052 0.618 4.082
7.000 -22.492 -27.334 15.302 0.618 4.082
7.250 -22.623 -27.518 15.552 0.618 4.082
7.500 -22.636 -27.638 15.802 0.618 4.082
7.750 -22.559 -27.750 16.052 0.618 4.082
8.000 -22.464 -27.862 16.302 0.618 4.082
8.250 -22.364 -28.182 16.552 0.618 4.082
8.500 -22.252 -28.474 16.802 0.618 4.082
8.750 -22.130 -28.751 17.052 0.618 4.082
9.000 -21.997 -29.037 17.302 0.618 4.082
