# z = 1.250000e+00
# log(Z/Zsun) = 5.000000e-01
# log(nH) = 2.000000e+00
1.000 -27.989 -28.361 8.969 1.329 -1.673
1.250 -27.455 -28.352 9.219 1.329 -1.576
1.500 -27.070 -28.341 9.469 1.329 -1.484
1.750 -26.793 -28.334 9.719 1.329 -1.400
2.000 -26.548 -28.330 9.969 1.329 -1.320
2.250 -26.270 -28.324 10.219 1.329 -1.243
2.500 -25.990 -28.307 10.469 1.329 -1.173
2.750 -25.761 -28.292 10.719 1.329 -1.114
3.000 -25.566 -28.288 10.969 1.329 -1.075
3.250 -25.356 -28.318 11.219 1.329 -1.062
3.500 -25.132 -28.348 11.469 1.329 -1.093
3.750 -25.001 -28.335 11.719 1.329 -1.057
4.000 -24.800 -28.214 11.970 1.328 -0.852
4.250 -21.703 -26.965 12.451 0.780 1.891
4.500 -21.618 -27.158 12.764 0.674 2.031
4.750 -21.169 -26.940 13.021 0.663 2.045
5.000 -20.800 -26.256 13.288 0.638 2.078
5.250 -20.789 -26.180 13.541 0.634 2.083
5.500 -20.950 -26.160 13.792 0.632 2.085
5.750 -21.236 -26.383 14.042 0.632 2.086
6.000 -21.332 -26.531 14.293 0.631 2.086
6.250 -21.478 -26.587 14.543 0.630 2.087
6.500 -21.914 -26.682 14.794 0.630 2.088
6.750 -22.075 -26.751 15.044 0.629 2.089
7.000 -22.091 -26.809 15.294 0.629 2.089
7.250 -22.318 -26.975 15.544 0.629 2.089
7.500 -22.426 -27.035 15.794 0.629 2.089
7.750 -22.393 -27.107 16.044 0.629 2.089
8.000 -22.328 -27.180 16.294 0.629 2.089
8.250 -22.258 -27.366 16.544 0.629 2.090
8.500 -22.166 -27.485 16.794 0.629 2.090
8.750 -22.055 -27.559 17.044 0.629 2.090
9.000 -21.929 -27.605 17.294 0.629 2.090
