# z = 3.500000e+00
# log(Z/Zsun) = 5.000000e-01
# log(nH) = -4.000000e+00
1.000 -25.450 -21.464 9.271 0.664 -3.956
1.250 -25.242 -21.581 9.521 0.663 -3.955
1.500 -24.684 -21.693 9.772 0.662 -3.953
1.750 -23.986 -21.801 10.023 0.660 -3.952
2.000 -23.531 -21.903 10.274 0.659 -3.950
2.250 -23.260 -21.999 10.525 0.657 -3.947
2.500 -23.085 -22.090 10.777 0.655 -3.944
2.750 -22.943 -22.176 11.028 0.652 -3.941
3.000 -22.825 -22.258 11.280 0.650 -3.938
3.250 -22.740 -22.342 11.532 0.647 -3.934
3.500 -22.698 -22.428 11.784 0.644 -3.931
3.750 -22.697 -22.517 12.035 0.642 -3.928
4.000 -22.665 -22.607 12.287 0.640 -3.925
4.250 -22.464 -22.694 12.538 0.638 -3.922
4.500 -21.992 -22.767 12.789 0.636 -3.920
4.750 -21.480 -22.820 13.040 0.636 -3.919
5.000 -21.092 -22.895 13.290 0.634 -3.918
5.250 -20.919 -23.059 13.541 0.633 -3.916
5.500 -21.104 -23.352 13.792 0.632 -3.915
5.750 -21.276 -23.586 14.042 0.631 -3.914
6.000 -21.328 -23.788 14.293 0.631 -3.913
6.250 -21.451 -24.064 14.543 0.630 -3.912
6.500 -21.699 -24.578 14.794 0.630 -3.912
6.750 -21.641 -24.967 15.044 0.629 -3.911
7.000 -21.463 -25.274 15.294 0.629 -3.911
7.250 -21.260 -25.658 15.544 0.629 -3.911
7.500 -21.031 -25.907 15.794 0.629 -3.911
7.750 -20.788 -26.025 16.044 0.629 -3.911
8.000 -20.541 -26.125 16.294 0.629 -3.911
8.250 -20.294 -26.215 16.544 0.629 -3.910
8.500 -20.045 -26.264 16.794 0.629 -3.910
8.750 -19.796 -26.287 17.044 0.629 -3.910
9.000 -19.547 -26.299 17.294 0.629 -3.910
