# z = 9.000000e+00
# log(Z/Zsun) = -1.000000e+01
# log(nH) = -2.000000e+00
1.000 -28.563 -24.468 8.997 1.246 -3.517
1.250 -28.290 -24.465 9.249 1.240 -3.444
1.500 -27.997 -24.462 9.502 1.233 -3.371
1.750 -27.691 -24.460 9.755 1.224 -3.298
2.000 -27.398 -24.458 10.008 1.214 -3.223
2.250 -27.115 -24.457 10.263 1.203 -3.149
2.500 -26.849 -24.456 10.518 1.189 -3.074
2.750 -26.588 -24.456 10.773 1.173 -2.998
3.000 -26.325 -24.457 11.030 1.154 -2.922
3.250 -26.060 -24.458 11.289 1.133 -2.845
3.500 -25.795 -24.461 11.548 1.108 -2.768
3.750 -25.528 -24.465 11.809 1.080 -2.691
4.000 -24.058 -24.469 12.073 1.048 -2.612
4.250 -21.868 -24.568 12.471 0.744 -2.101
4.500 -22.258 -24.657 12.781 0.649 -1.971
4.750 -22.436 -24.675 13.037 0.639 -1.958
5.000 -22.078 -24.657 13.306 0.612 -1.921
5.250 -22.558 -24.658 13.556 0.612 -1.921
5.500 -22.849 -24.657 13.806 0.612 -1.921
5.750 -22.947 -24.657 14.056 0.612 -1.921
6.000 -22.893 -24.657 14.306 0.612 -1.921
6.250 -22.744 -24.657 14.556 0.612 -1.921
6.500 -22.552 -24.658 14.806 0.612 -1.921
6.750 -22.337 -24.658 15.056 0.612 -1.921
7.000 -22.111 -24.658 15.306 0.612 -1.921
7.250 -21.877 -24.658 15.556 0.612 -1.921
7.500 -21.639 -24.658 15.806 0.612 -1.921
7.750 -21.397 -24.658 16.056 0.612 -1.921
8.000 -21.154 -24.658 16.306 0.612 -1.921
8.250 -20.908 -24.658 16.556 0.612 -1.921
8.500 -20.662 -24.658 16.806 0.612 -1.921
8.750 -20.414 -24.658 17.056 0.612 -1.921
9.000 -20.166 -24.658 17.306 0.612 -1.921
