# z = 1.500000e+01
# log(Z/Zsun) = -1.000000e+00
# log(nH) = 0.000000e+00
1.000 -31.092 -26.807 8.986 1.280 -2.785
1.250 -30.750 -26.790 9.236 1.280 -2.714
1.500 -28.962 -26.770 9.486 1.280 -2.643
1.750 -28.535 -26.750 9.736 1.279 -2.571
2.000 -28.064 -26.729 9.986 1.279 -2.499
2.250 -27.485 -26.708 10.236 1.279 -2.426
2.500 -26.925 -26.685 10.486 1.279 -2.352
2.750 -26.304 -26.661 10.736 1.279 -2.279
3.000 -25.665 -26.637 10.985 1.281 -2.207
3.250 -25.235 -26.614 11.235 1.281 -2.138
3.500 -25.185 -26.591 11.487 1.277 -2.077
3.750 -25.506 -26.563 11.739 1.271 -1.999
4.000 -25.094 -26.524 11.990 1.267 -1.878
4.250 -21.858 -25.988 12.467 0.751 -0.110
4.500 -22.215 -25.942 12.780 0.650 0.029
4.750 -22.248 -25.978 13.037 0.640 0.042
5.000 -21.888 -25.968 13.303 0.616 0.075
5.250 -22.116 -25.947 13.555 0.613 0.079
5.500 -22.329 -25.941 13.805 0.613 0.079
5.750 -22.591 -25.941 14.055 0.613 0.079
6.000 -22.682 -25.961 14.305 0.613 0.079
6.250 -22.770 -25.975 14.555 0.613 0.079
6.500 -22.930 -25.986 14.805 0.613 0.079
6.750 -22.888 -25.987 15.055 0.613 0.079
7.000 -22.777 -25.987 15.305 0.613 0.079
7.250 -22.661 -25.988 15.555 0.613 0.080
7.500 -22.505 -25.989 15.805 0.613 0.080
7.750 -22.326 -25.989 16.055 0.613 0.080
8.000 -22.135 -25.990 16.305 0.613 0.080
8.250 -21.932 -25.990 16.555 0.613 0.080
8.500 -21.720 -25.990 16.805 0.613 0.080
8.750 -21.499 -25.990 17.055 0.613 0.080
9.000 -21.271 -25.990 17.305 0.613 0.080
