# z = 7.000000e+00
# log(Z/Zsun) = 0.000000e+00
# log(nH) = -2.000000e+00
1.000 -28.156 -24.196 8.998 1.244 -3.340
1.250 -27.164 -24.196 9.251 1.235 -3.268
1.500 -26.248 -24.197 9.505 1.225 -3.195
1.750 -25.690 -24.198 9.759 1.213 -3.123
2.000 -25.303 -24.201 10.014 1.199 -3.049
2.250 -24.962 -24.204 10.270 1.182 -2.976
2.500 -24.697 -24.209 10.527 1.163 -2.902
2.750 -24.523 -24.214 10.785 1.142 -2.828
3.000 -24.405 -24.222 11.045 1.117 -2.754
3.250 -24.311 -24.231 11.306 1.089 -2.679
3.500 -24.188 -24.242 11.569 1.057 -2.605
3.750 -23.958 -24.256 11.833 1.023 -2.532
4.000 -23.385 -24.271 12.099 0.985 -2.459
4.250 -21.814 -24.453 12.470 0.747 -2.092
4.500 -21.946 -24.635 12.775 0.657 -1.970
4.750 -21.623 -24.672 13.032 0.647 -1.957
5.000 -21.255 -24.654 13.299 0.622 -1.924
5.250 -21.276 -24.649 13.551 0.619 -1.920
5.500 -21.443 -24.648 13.801 0.619 -1.919
5.750 -21.725 -24.651 14.051 0.618 -1.919
6.000 -21.817 -24.652 14.302 0.618 -1.919
6.250 -21.947 -24.653 14.552 0.618 -1.918
6.500 -22.289 -24.654 14.802 0.618 -1.918
6.750 -22.324 -24.654 15.052 0.618 -1.918
7.000 -22.222 -24.654 15.302 0.618 -1.918
7.250 -22.135 -24.654 15.552 0.618 -1.918
7.500 -21.955 -24.654 15.802 0.618 -1.918
7.750 -21.736 -24.654 16.052 0.618 -1.918
8.000 -21.506 -24.654 16.302 0.618 -1.918
8.250 -21.270 -24.654 16.552 0.618 -1.918
8.500 -21.029 -24.654 16.802 0.618 -1.918
8.750 -20.786 -24.654 17.052 0.618 -1.918
9.000 -20.541 -24.654 17.302 0.618 -1.918
