# z = 2.000000e+00
# log(Z/Zsun) = -1.000000e+01
# log(nH) = -1.000000e+00
1.000 -28.782 -24.838 8.995 1.253 -2.622
1.250 -28.480 -24.837 9.247 1.248 -2.549
1.500 -28.192 -24.837 9.499 1.242 -2.476
1.750 -27.916 -24.836 9.751 1.236 -2.401
2.000 -27.635 -24.837 10.004 1.228 -2.327
2.250 -27.356 -24.837 10.257 1.218 -2.251
2.500 -27.092 -24.838 10.511 1.207 -2.175
2.750 -26.819 -24.840 10.766 1.194 -2.099
3.000 -26.510 -24.843 11.022 1.178 -2.021
3.250 -26.176 -24.847 11.278 1.160 -1.943
3.500 -25.901 -24.852 11.536 1.139 -1.865
3.750 -25.762 -24.858 11.796 1.114 -1.786
4.000 -24.141 -24.865 12.057 1.085 -1.704
4.250 -21.868 -25.103 12.469 0.747 -1.105
4.500 -22.259 -25.302 12.780 0.649 -0.971
4.750 -22.441 -25.334 13.037 0.639 -0.958
5.000 -22.086 -25.325 13.304 0.615 -0.925
5.250 -22.577 -25.324 13.556 0.612 -0.921
5.500 -22.915 -25.320 13.808 0.609 -0.917
5.750 -23.124 -25.324 14.056 0.612 -0.921
6.000 -23.216 -25.324 14.306 0.612 -0.921
6.250 -23.218 -25.324 14.556 0.612 -0.921
6.500 -23.168 -25.324 14.806 0.612 -0.921
6.750 -23.089 -25.325 15.056 0.612 -0.921
7.000 -22.993 -25.325 15.306 0.612 -0.921
7.250 -22.887 -25.325 15.556 0.612 -0.921
7.500 -22.774 -25.325 15.806 0.612 -0.921
7.750 -22.656 -25.325 16.056 0.612 -0.921
8.000 -22.535 -25.325 16.306 0.612 -0.921
8.250 -22.411 -25.325 16.556 0.612 -0.921
8.500 -22.283 -25.325 16.806 0.612 -0.921
8.750 -22.150 -25.325 17.056 0.612 -0.921
9.000 -22.008 -25.325 17.306 0.612 -0.921
