# z = 3.000000e+00
# log(Z/Zsun) = -1.000000e+00
# log(nH) = -5.000000e+00
1.000 -25.361 -21.153 9.299 0.622 -4.933
1.250 -25.182 -21.270 9.550 0.620 -4.930
1.500 -25.018 -21.393 9.801 0.618 -4.928
1.750 -24.867 -21.522 10.052 0.617 -4.926
2.000 -24.713 -21.657 10.303 0.616 -4.925
2.250 -24.527 -21.795 10.554 0.615 -4.924
2.500 -24.304 -21.937 10.804 0.615 -4.923
2.750 -24.086 -22.083 11.055 0.614 -4.922
3.000 -23.918 -22.232 11.305 0.614 -4.922
3.250 -23.817 -22.384 11.555 0.613 -4.921
3.500 -23.747 -22.539 11.805 0.613 -4.921
3.750 -23.653 -22.696 12.055 0.613 -4.921
4.000 -23.513 -22.855 12.305 0.613 -4.921
4.250 -23.335 -23.014 12.555 0.613 -4.921
4.500 -23.123 -23.174 12.805 0.613 -4.921
4.750 -22.889 -23.334 13.055 0.613 -4.921
5.000 -22.643 -23.496 13.305 0.613 -4.921
5.250 -22.390 -23.693 13.555 0.613 -4.921
5.500 -22.169 -23.928 13.805 0.613 -4.921
5.750 -21.952 -24.113 14.055 0.613 -4.921
6.000 -21.730 -24.316 14.305 0.613 -4.921
6.250 -21.500 -24.607 14.555 0.613 -4.921
6.500 -21.256 -24.829 14.805 0.613 -4.921
6.750 -21.009 -24.996 15.055 0.613 -4.921
7.000 -20.760 -25.109 15.305 0.613 -4.921
7.250 -20.511 -25.195 15.555 0.613 -4.920
7.500 -20.263 -25.227 15.805 0.613 -4.920
7.750 -20.013 -25.239 16.055 0.613 -4.920
8.000 -19.764 -25.247 16.305 0.613 -4.920
8.250 -19.517 -25.253 16.555 0.613 -4.920
8.500 -19.272 -25.260 16.805 0.613 -4.920
8.750 -19.022 -25.261 17.055 0.613 -4.920
9.000 -18.772 -25.261 17.305 0.613 -4.920
