# z = 7.000000e+00
# log(Z/Zsun) = -5.000000e-01
# log(nH) = -4.000000e+00
1.000 -25.469 -21.514 9.278 0.653 -3.972
1.250 -25.314 -21.654 9.530 0.650 -3.968
1.500 -25.060 -21.797 9.781 0.648 -3.966
1.750 -24.696 -21.944 10.032 0.646 -3.963
2.000 -24.328 -22.094 10.283 0.645 -3.962
2.250 -24.043 -22.247 10.534 0.644 -3.961
2.500 -23.867 -22.402 10.784 0.644 -3.960
2.750 -23.771 -22.560 11.034 0.643 -3.960
3.000 -23.711 -22.721 11.285 0.643 -3.959
3.250 -23.660 -22.885 11.535 0.643 -3.959
3.500 -23.599 -23.051 11.785 0.643 -3.959
3.750 -23.492 -23.222 12.035 0.643 -3.959
4.000 -23.286 -23.396 12.285 0.643 -3.958
4.250 -22.961 -23.574 12.535 0.643 -3.958
4.500 -22.502 -23.774 12.785 0.642 -3.958
4.750 -21.990 -24.101 13.036 0.642 -3.957
5.000 -21.597 -24.679 13.302 0.618 -3.925
5.250 -21.632 -25.228 13.554 0.615 -3.921
5.500 -21.681 -25.484 13.804 0.614 -3.920
5.750 -21.660 -25.625 14.054 0.614 -3.920
6.000 -21.486 -25.719 14.304 0.614 -3.920
6.250 -21.277 -25.809 14.555 0.614 -3.920
6.500 -21.050 -25.940 14.805 0.614 -3.920
6.750 -20.804 -26.004 15.055 0.614 -3.920
7.000 -20.556 -26.040 15.305 0.614 -3.920
7.250 -20.307 -26.079 15.555 0.614 -3.920
7.500 -20.057 -26.098 15.805 0.614 -3.920
7.750 -19.808 -26.105 16.055 0.614 -3.920
8.000 -19.558 -26.110 16.305 0.614 -3.920
8.250 -19.308 -26.114 16.555 0.614 -3.920
8.500 -19.058 -26.116 16.805 0.614 -3.920
8.750 -18.809 -26.117 17.055 0.614 -3.920
9.000 -18.559 -26.118 17.305 0.614 -3.920
