# z = 2.500000e-01
# log(Z/Zsun) = -5.000000e-01
# log(nH) = -4.000000e+00
1.000 -25.455 -21.529 9.274 0.659 -3.981
1.250 -25.282 -21.643 9.528 0.653 -3.973
1.500 -25.050 -21.758 9.781 0.648 -3.966
1.750 -24.748 -21.871 10.034 0.644 -3.961
2.000 -24.421 -21.984 10.286 0.641 -3.956
2.250 -24.144 -22.094 10.539 0.637 -3.951
2.500 -23.950 -22.205 10.791 0.634 -3.947
2.750 -23.809 -22.318 11.043 0.631 -3.943
3.000 -23.698 -22.434 11.295 0.628 -3.939
3.250 -23.615 -22.555 11.547 0.625 -3.935
3.500 -23.564 -22.683 11.799 0.623 -3.932
3.750 -23.540 -22.818 12.050 0.621 -3.929
4.000 -23.494 -22.961 12.301 0.619 -3.926
4.250 -23.265 -23.110 12.552 0.618 -3.925
4.500 -22.696 -23.274 12.803 0.617 -3.923
4.750 -22.250 -23.474 13.053 0.616 -3.922
5.000 -21.920 -23.720 13.304 0.615 -3.921
5.250 -21.801 -24.212 13.554 0.614 -3.920
5.500 -21.995 -24.628 13.804 0.614 -3.920
5.750 -22.215 -24.893 14.054 0.614 -3.920
6.000 -22.300 -25.087 14.304 0.614 -3.920
6.250 -22.434 -25.307 14.555 0.614 -3.920
6.500 -22.752 -25.715 14.805 0.614 -3.920
6.750 -22.820 -25.978 15.055 0.614 -3.920
7.000 -22.774 -26.151 15.305 0.614 -3.920
7.250 -22.719 -26.345 15.555 0.614 -3.920
7.500 -22.620 -26.438 15.805 0.614 -3.920
7.750 -22.481 -26.472 16.055 0.614 -3.920
8.000 -22.326 -26.495 16.305 0.614 -3.920
8.250 -22.159 -26.513 16.555 0.614 -3.920
8.500 -21.978 -26.521 16.805 0.614 -3.920
8.750 -21.786 -26.525 17.055 0.614 -3.920
9.000 -21.581 -26.527 17.305 0.614 -3.920
