# z = 4.000000e+00
# log(Z/Zsun) = 0.000000e+00
# log(nH) = 1.000000e+00
1.000 -28.644 -27.480 8.981 1.295 -2.126
1.250 -27.974 -27.466 9.231 1.295 -2.053
1.500 -27.545 -27.450 9.481 1.295 -1.979
1.750 -27.248 -27.433 9.731 1.295 -1.906
2.000 -26.984 -27.415 9.981 1.294 -1.832
2.250 -26.661 -27.396 10.231 1.294 -1.759
2.500 -26.324 -27.368 10.481 1.294 -1.686
2.750 -26.042 -27.338 10.731 1.294 -1.614
3.000 -25.799 -27.306 10.981 1.294 -1.547
3.250 -25.633 -27.273 11.231 1.293 -1.487
3.500 -25.506 -27.245 11.481 1.292 -1.441
3.750 -25.333 -27.213 11.732 1.291 -1.376
4.000 -24.901 -27.134 11.983 1.288 -1.198
4.250 -21.806 -26.603 12.462 0.760 0.890
4.500 -21.944 -26.611 12.775 0.657 1.029
4.750 -21.623 -26.605 13.032 0.647 1.043
5.000 -21.255 -26.368 13.299 0.622 1.076
5.250 -21.277 -26.230 13.551 0.619 1.080
5.500 -21.444 -26.199 13.801 0.619 1.081
5.750 -21.728 -26.323 14.051 0.618 1.081
6.000 -21.825 -26.421 14.302 0.618 1.081
6.250 -21.966 -26.483 14.552 0.618 1.082
6.500 -22.370 -26.547 14.802 0.618 1.082
6.750 -22.498 -26.566 15.052 0.618 1.082
7.000 -22.492 -26.572 15.302 0.618 1.082
7.250 -22.622 -26.599 15.552 0.618 1.082
7.500 -22.635 -26.612 15.802 0.618 1.082
7.750 -22.559 -26.621 16.052 0.618 1.082
8.000 -22.464 -26.629 16.302 0.618 1.082
8.250 -22.363 -26.642 16.552 0.618 1.082
8.500 -22.251 -26.648 16.802 0.618 1.082
8.750 -22.129 -26.652 17.052 0.618 1.082
9.000 -21.996 -26.653 17.302 0.618 1.082
