# z = 9.000000e+00
# log(Z/Zsun) = -2.000000e+00
# log(nH) = 6.000000e+00
1.000 -33.622 -32.108 8.980 1.295 0.287
1.250 -33.017 -32.137 9.229 1.300 0.357
1.500 -32.122 -32.239 9.477 1.306 0.434
1.750 -31.033 -32.281 9.728 1.304 0.485
2.000 -30.233 -32.326 9.981 1.295 0.473
2.250 -29.690 -32.344 10.231 1.293 0.378
2.500 -29.273 -32.317 10.479 1.298 0.218
2.750 -28.815 -32.281 10.728 1.304 -0.042
3.000 -27.921 -32.226 10.966 1.338 -0.186
3.250 -27.277 -32.021 11.222 1.322 -0.106
3.500 -28.733 -32.139 11.485 1.280 1.075
3.750 -28.903 -32.112 11.735 1.280 1.263
4.000 -26.070 -31.657 11.986 1.278 3.246
4.250 -21.864 -28.115 12.468 0.750 5.890
4.500 -22.270 -27.319 12.784 0.644 6.036
4.750 -22.431 -27.954 13.037 0.639 6.042
5.000 -22.063 -28.073 13.304 0.615 6.075
5.250 -22.503 -27.638 13.556 0.612 6.079
5.500 -22.815 -27.785 13.806 0.612 6.079
5.750 -23.034 -27.659 14.056 0.612 6.079
6.000 -23.129 -27.708 14.306 0.612 6.079
6.250 -23.152 -28.186 14.556 0.612 6.079
6.500 -23.147 -28.625 14.806 0.612 6.079
6.750 -23.078 -29.059 15.056 0.612 6.079
7.000 -22.986 -29.361 15.306 0.612 6.079
7.250 -22.887 -29.583 15.556 0.612 6.079
7.500 -22.777 -30.032 15.806 0.612 6.079
7.750 -22.661 -30.250 16.056 0.612 6.079
8.000 -22.542 -30.408 16.306 0.612 6.079
8.250 -22.421 -30.742 16.556 0.612 6.079
8.500 -22.297 -31.152 16.806 0.612 6.079
8.750 -22.169 -31.468 17.056 0.612 6.079
9.000 -22.032 -31.603 17.306 0.612 6.079
