# z = 0.000000e+00
# log(Z/Zsun) = 1.000000e+00
# log(nH) = -6.000000e+00
1.000 -25.152 -20.823 9.256 0.687 -5.917
1.250 -25.016 -20.909 9.508 0.684 -5.914
1.500 -24.827 -20.993 9.759 0.682 -5.912
1.750 -24.555 -21.075 10.010 0.680 -5.910
2.000 -24.069 -21.157 10.261 0.679 -5.908
2.250 -23.372 -21.230 10.512 0.678 -5.907
2.500 -22.820 -21.289 10.762 0.677 -5.906
2.750 -22.449 -21.355 11.013 0.676 -5.904
3.000 -22.235 -21.427 11.263 0.675 -5.903
3.250 -22.184 -21.501 11.514 0.674 -5.902
3.500 -22.263 -21.571 11.764 0.674 -5.902
3.750 -22.419 -21.637 12.015 0.673 -5.901
4.000 -22.581 -21.698 12.265 0.672 -5.900
4.250 -22.636 -21.756 12.516 0.671 -5.899
4.500 -22.357 -21.810 12.766 0.671 -5.898
4.750 -21.972 -21.860 13.017 0.670 -5.897
5.000 -21.708 -21.910 13.267 0.670 -5.897
5.250 -21.474 -21.960 13.517 0.669 -5.896
5.500 -21.264 -22.013 13.768 0.668 -5.895
5.750 -21.127 -22.091 14.018 0.668 -5.894
6.000 -21.273 -22.295 14.269 0.667 -5.893
6.250 -21.529 -22.571 14.519 0.666 -5.892
6.500 -21.672 -22.803 14.770 0.665 -5.891
6.750 -21.681 -23.018 15.020 0.665 -5.891
7.000 -21.633 -23.258 15.271 0.664 -5.890
7.250 -21.621 -23.690 15.521 0.664 -5.889
7.500 -21.504 -24.002 15.771 0.663 -5.889
7.750 -21.304 -24.186 16.021 0.663 -5.889
8.000 -21.083 -24.377 16.271 0.663 -5.889
8.250 -20.851 -24.565 16.521 0.663 -5.889
8.500 -20.612 -24.690 16.771 0.663 -5.889
8.750 -20.369 -24.760 17.021 0.663 -5.889
9.000 -20.125 -24.799 17.271 0.663 -5.889
