# z = 1.250000e+00
# log(Z/Zsun) = 5.000000e-01
# log(nH) = 3.000000e+00
1.000 -28.369 -29.096 8.968 1.332 -1.208
1.250 -27.854 -29.149 9.218 1.333 -1.109
1.500 -27.468 -29.219 9.467 1.335 -1.007
1.750 -27.143 -29.263 9.718 1.333 -0.913
2.000 -26.801 -29.281 9.969 1.330 -0.829
2.250 -26.429 -29.292 10.219 1.329 -0.752
2.500 -26.103 -29.298 10.469 1.330 -0.697
2.750 -25.845 -29.305 10.719 1.330 -0.672
3.000 -25.518 -29.323 10.969 1.331 -0.680
3.250 -24.310 -29.226 11.218 1.332 -0.738
3.500 -23.797 -28.971 11.468 1.332 -0.754
3.750 -24.762 -28.985 11.719 1.330 -0.717
4.000 -24.927 -29.190 11.969 1.329 -0.292
4.250 -21.708 -27.069 12.451 0.779 2.891
4.500 -21.628 -27.256 12.766 0.671 3.035
4.750 -21.172 -27.029 13.021 0.663 3.045
5.000 -20.802 -26.266 13.288 0.638 3.078
5.250 -20.789 -26.194 13.541 0.634 3.083
5.500 -20.950 -26.172 13.792 0.632 3.085
5.750 -21.236 -26.374 14.042 0.632 3.086
6.000 -21.332 -26.530 14.293 0.631 3.086
6.250 -21.478 -26.622 14.543 0.630 3.087
6.500 -21.914 -26.727 14.794 0.630 3.088
6.750 -22.075 -26.804 15.044 0.629 3.089
7.000 -22.091 -26.870 15.294 0.629 3.089
7.250 -22.318 -27.067 15.544 0.629 3.089
7.500 -22.426 -27.143 15.794 0.629 3.089
7.750 -22.393 -27.238 16.044 0.629 3.089
8.000 -22.328 -27.340 16.294 0.629 3.089
8.250 -22.258 -27.642 16.544 0.629 3.090
8.500 -22.166 -27.905 16.794 0.629 3.090
8.750 -22.055 -28.133 17.044 0.629 3.090
9.000 -21.929 -28.339 17.294 0.629 3.090
