# z = 4.500000e+00
# log(Z/Zsun) = 1.000000e+00
# log(nH) = -2.000000e+00
1.000 -25.897 -22.103 9.116 0.948 -2.245
1.250 -24.889 -22.155 9.382 0.913 -2.198
1.500 -24.063 -22.216 9.648 0.880 -2.155
1.750 -23.576 -22.287 9.913 0.850 -2.117
2.000 -23.251 -22.371 10.178 0.823 -2.083
2.250 -22.969 -22.468 10.440 0.799 -2.054
2.500 -22.752 -22.574 10.701 0.779 -2.030
2.750 -22.614 -22.690 10.960 0.763 -2.010
3.000 -22.534 -22.814 11.218 0.750 -1.995
3.250 -22.496 -22.944 11.473 0.740 -1.982
3.500 -22.478 -23.080 11.728 0.733 -1.973
3.750 -22.417 -23.220 11.981 0.727 -1.967
4.000 -22.164 -23.364 12.233 0.723 -1.962
4.250 -21.665 -23.515 12.485 0.720 -1.958
4.500 -21.182 -23.898 12.738 0.716 -1.953
4.750 -20.677 -24.236 12.989 0.714 -1.950
5.000 -20.310 -24.504 13.257 0.685 -1.916
5.250 -20.285 -24.552 13.511 0.679 -1.908
5.500 -20.441 -24.578 13.764 0.675 -1.903
5.750 -20.726 -24.600 14.015 0.673 -1.900
6.000 -20.821 -24.608 14.266 0.671 -1.898
6.250 -20.966 -24.611 14.518 0.669 -1.895
6.500 -21.409 -24.615 14.769 0.666 -1.892
6.750 -21.579 -24.617 15.020 0.665 -1.891
7.000 -21.598 -24.619 15.270 0.664 -1.890
7.250 -21.849 -24.621 15.521 0.664 -1.889
7.500 -21.973 -24.622 15.771 0.663 -1.889
7.750 -21.918 -24.623 16.021 0.663 -1.889
8.000 -21.808 -24.623 16.271 0.663 -1.889
8.250 -21.672 -24.625 16.521 0.663 -1.889
8.500 -21.496 -24.625 16.771 0.663 -1.889
8.750 -21.294 -24.626 17.021 0.663 -1.889
9.000 -21.076 -24.626 17.271 0.663 -1.889
