# z = 0.000000e+00
# log(Z/Zsun) = 5.000000e-01
# log(nH) = -4.000000e+00
1.000 -25.498 -21.616 9.241 0.711 -4.018
1.250 -25.047 -21.719 9.499 0.699 -4.002
1.500 -24.457 -21.825 9.755 0.689 -3.989
1.750 -24.000 -21.934 10.010 0.681 -3.979
2.000 -23.609 -22.044 10.264 0.675 -3.970
2.250 -23.267 -22.154 10.517 0.669 -3.963
2.500 -23.032 -22.261 10.770 0.665 -3.957
2.750 -22.894 -22.366 11.023 0.661 -3.952
3.000 -22.821 -22.467 11.275 0.657 -3.947
3.250 -22.788 -22.567 11.528 0.653 -3.943
3.500 -22.777 -22.667 11.780 0.650 -3.938
3.750 -22.764 -22.768 12.032 0.647 -3.934
4.000 -22.660 -22.870 12.284 0.644 -3.930
4.250 -22.322 -22.972 12.536 0.641 -3.927
4.500 -21.753 -23.083 12.787 0.639 -3.924
4.750 -21.247 -23.196 13.038 0.638 -3.922
5.000 -20.920 -23.357 13.290 0.635 -3.919
5.250 -20.824 -23.633 13.541 0.633 -3.917
5.500 -20.992 -23.974 13.792 0.632 -3.915
5.750 -21.249 -24.221 14.042 0.632 -3.914
6.000 -21.342 -24.403 14.293 0.631 -3.914
6.250 -21.494 -24.623 14.543 0.630 -3.913
6.500 -21.943 -25.071 14.794 0.630 -3.912
6.750 -22.150 -25.398 15.044 0.629 -3.911
7.000 -22.204 -25.655 15.294 0.629 -3.911
7.250 -22.323 -26.031 15.544 0.629 -3.911
7.500 -22.404 -26.301 15.794 0.629 -3.911
7.750 -22.354 -26.438 16.044 0.629 -3.911
8.000 -22.268 -26.562 16.294 0.629 -3.911
8.250 -22.170 -26.697 16.544 0.629 -3.910
8.500 -22.043 -26.775 16.794 0.629 -3.910
8.750 -21.894 -26.816 17.044 0.629 -3.910
9.000 -21.725 -26.838 17.294 0.629 -3.910
