# z = 1.100000e+01
# log(Z/Zsun) = -2.000000e+00
# log(nH) = -4.000000e+00
1.000 -25.646 -21.805 9.204 0.775 -4.144
1.250 -25.413 -21.881 9.468 0.749 -4.108
1.500 -25.178 -21.968 9.731 0.727 -4.077
1.750 -24.928 -22.066 9.993 0.707 -4.050
2.000 -24.691 -22.175 10.253 0.691 -4.028
2.250 -24.461 -22.294 10.511 0.678 -4.010
2.500 -24.242 -22.423 10.768 0.668 -3.997
2.750 -24.024 -22.561 11.023 0.660 -3.986
3.000 -23.804 -22.707 11.277 0.654 -3.978
3.250 -23.579 -22.859 11.530 0.650 -3.972
3.500 -23.348 -23.018 11.782 0.647 -3.968
3.750 -23.111 -23.183 12.033 0.645 -3.965
4.000 -22.869 -23.353 12.284 0.643 -3.963
4.250 -22.536 -23.536 12.535 0.642 -3.961
4.500 -22.142 -23.999 12.786 0.641 -3.959
4.750 -21.965 -24.642 13.037 0.639 -3.958
5.000 -21.648 -25.234 13.304 0.615 -3.925
5.250 -21.553 -25.316 13.556 0.612 -3.921
5.500 -21.340 -25.327 13.806 0.612 -3.921
5.750 -21.100 -25.331 14.056 0.612 -3.921
6.000 -20.853 -25.332 14.306 0.612 -3.921
6.250 -20.604 -25.333 14.556 0.612 -3.921
6.500 -20.354 -25.334 14.806 0.612 -3.921
6.750 -20.105 -25.334 15.056 0.612 -3.921
7.000 -19.855 -25.334 15.306 0.612 -3.921
7.250 -19.605 -25.334 15.556 0.612 -3.921
7.500 -19.355 -25.334 15.806 0.612 -3.921
7.750 -19.105 -25.334 16.056 0.612 -3.921
8.000 -18.855 -25.334 16.306 0.612 -3.921
8.250 -18.606 -25.335 16.556 0.612 -3.921
8.500 -18.356 -25.335 16.806 0.612 -3.921
8.750 -18.106 -25.335 17.056 0.612 -3.921
9.000 -17.856 -25.335 17.306 0.612 -3.921
