# z = 1.750000e+00
# log(Z/Zsun) = -2.000000e+00
# log(nH) = 5.000000e+00
1.000 -32.757 -31.656 8.977 1.305 -0.117
1.250 -32.136 -31.656 9.224 1.313 -0.043
1.500 -31.396 -31.655 9.471 1.323 0.031
1.750 -30.610 -31.660 9.723 1.318 0.084
2.000 -29.848 -31.669 9.978 1.302 0.107
2.250 -29.262 -31.670 10.230 1.296 0.089
2.500 -28.806 -31.665 10.480 1.296 0.008
2.750 -28.262 -31.650 10.728 1.302 -0.130
3.000 -27.803 -31.631 10.981 1.293 -0.349
3.250 -26.949 -31.592 11.231 1.292 -0.548
3.500 -27.977 -31.639 11.485 1.280 0.546
3.750 -28.218 -31.642 11.735 1.280 0.769
4.000 -26.067 -31.297 11.986 1.278 2.246
4.250 -21.860 -28.144 12.469 0.747 4.895
4.500 -22.270 -27.327 12.784 0.644 5.036
4.750 -22.430 -27.994 13.037 0.639 5.042
5.000 -22.062 -28.326 13.304 0.615 5.075
5.250 -22.503 -27.850 13.556 0.612 5.079
5.500 -22.812 -27.794 13.806 0.612 5.079
5.750 -23.033 -27.739 14.056 0.612 5.079
6.000 -23.127 -27.796 14.306 0.612 5.079
6.250 -23.152 -28.189 14.556 0.612 5.079
6.500 -23.147 -28.621 14.806 0.612 5.079
6.750 -23.078 -29.050 15.056 0.612 5.079
7.000 -22.986 -29.343 15.306 0.612 5.079
7.250 -22.887 -29.552 15.556 0.612 5.079
7.500 -22.777 -29.949 15.806 0.612 5.079
7.750 -22.661 -30.122 16.056 0.612 5.079
8.000 -22.542 -30.230 16.306 0.612 5.079
8.250 -22.421 -30.423 16.556 0.612 5.079
8.500 -22.297 -30.571 16.806 0.612 5.079
8.750 -22.169 -30.635 17.056 0.612 5.079
9.000 -22.032 -30.652 17.306 0.612 5.079
