# z = 1.750000e+00
# log(Z/Zsun) = -1.000000e+00
# log(nH) = -4.000000e+00
1.000 -25.388 -21.295 9.294 0.630 -3.944
1.250 -25.222 -21.404 9.545 0.627 -3.940
1.500 -25.062 -21.517 9.797 0.625 -3.937
1.750 -24.896 -21.635 10.049 0.622 -3.933
2.000 -24.726 -21.759 10.300 0.620 -3.931
2.250 -24.535 -21.888 10.551 0.619 -3.928
2.500 -24.303 -22.024 10.802 0.617 -3.926
2.750 -24.074 -22.164 11.053 0.616 -3.925
3.000 -23.909 -22.310 11.304 0.615 -3.924
3.250 -23.828 -22.461 11.554 0.614 -3.923
3.500 -23.809 -22.616 11.805 0.614 -3.922
3.750 -23.806 -22.775 12.055 0.614 -3.922
4.000 -23.783 -22.938 12.305 0.613 -3.921
4.250 -23.707 -23.104 12.555 0.613 -3.921
4.500 -23.437 -23.272 12.805 0.613 -3.921
4.750 -23.063 -23.448 13.055 0.613 -3.921
5.000 -22.749 -23.648 13.305 0.613 -3.921
5.250 -22.563 -23.960 13.555 0.613 -3.921
5.500 -22.585 -24.353 13.805 0.613 -3.921
5.750 -22.647 -24.656 14.055 0.613 -3.921
6.000 -22.643 -24.884 14.305 0.613 -3.921
6.250 -22.669 -25.155 14.555 0.613 -3.921
6.500 -22.656 -25.514 14.805 0.613 -3.921
6.750 -22.498 -25.723 15.055 0.613 -3.921
7.000 -22.298 -25.843 15.305 0.613 -3.921
7.250 -22.083 -25.936 15.555 0.613 -3.920
7.500 -21.855 -25.976 15.805 0.613 -3.920
7.750 -21.620 -25.992 16.055 0.613 -3.920
8.000 -21.381 -26.002 16.305 0.613 -3.920
8.250 -21.139 -26.008 16.555 0.613 -3.920
8.500 -20.896 -26.012 16.805 0.613 -3.920
8.750 -20.650 -26.013 17.055 0.613 -3.920
9.000 -20.403 -26.014 17.305 0.613 -3.920
