# CIE
# log(Z/Zsun) = -2.000000e+00
# log(nH) = -4.000000e+00
1.000 -30.374 -37.530 8.985 1.280 -11.770
1.250 -29.830 -37.531 9.235 1.280 -11.684
1.500 -29.425 -37.531 9.485 1.280 -11.597
1.750 -29.131 -37.532 9.735 1.280 -11.508
2.000 -28.898 -37.533 9.985 1.280 -11.418
2.250 -28.653 -37.533 10.235 1.280 -11.327
2.500 -28.379 -37.534 10.485 1.280 -11.236
2.750 -28.148 -37.534 10.735 1.280 -11.148
3.000 -27.959 -37.533 10.985 1.280 -11.064
3.250 -27.803 -37.529 11.235 1.280 -10.989
3.500 -27.668 -37.523 11.485 1.280 -10.897
3.750 -27.541 -35.819 11.735 1.280 -9.928
4.000 -26.047 -32.054 11.986 1.278 -6.750
4.250 -21.862 -26.389 12.468 0.749 -4.107
4.500 -22.290 -25.138 12.780 0.649 -3.971
4.750 -22.581 -23.851 13.037 0.639 -3.957
5.000 -22.061 -27.207 13.304 0.615 -3.925
5.250 -22.528 -24.482 13.556 0.612 -3.921
5.500 -22.818 -25.323 13.806 0.612 -3.921
5.750 -23.034 -26.017 14.056 0.612 -3.921
6.000 -23.128 -26.611 14.306 0.612 -3.921
6.250 -23.154 -27.133 14.556 0.612 -3.921
6.500 -23.147 -27.714 14.806 0.612 -3.921
6.750 -23.078 -28.166 15.056 0.612 -3.921
7.000 -22.986 -28.526 15.306 0.612 -3.921
7.250 -22.886 -28.944 15.556 0.612 -3.921
7.500 -22.777 -29.471 15.806 0.612 -3.921
7.750 -22.661 -29.855 16.056 0.612 -3.921
8.000 -22.542 -30.197 16.306 0.612 -3.921
8.250 -22.421 -30.784 16.556 0.612 -3.921
8.500 -22.297 -31.397 16.806 0.612 -3.921
8.750 -22.169 -32.012 17.056 0.612 -3.921
9.000 -22.032 -32.616 17.306 0.612 -3.921
