# z = 4.000000e+00
# log(Z/Zsun) = -5.000000e-01
# log(nH) = -5.000000e+00
1.000 -25.410 -21.413 9.287 0.639 -4.954
1.250 -25.242 -21.522 9.538 0.638 -4.953
1.500 -25.020 -21.625 9.789 0.637 -4.951
1.750 -24.708 -21.724 10.040 0.635 -4.948
2.000 -24.416 -21.821 10.291 0.633 -4.946
2.250 -24.188 -21.917 10.543 0.631 -4.943
2.500 -23.979 -22.015 10.794 0.629 -4.939
2.750 -23.773 -22.117 11.046 0.626 -4.936
3.000 -23.592 -22.225 11.298 0.624 -4.933
3.250 -23.460 -22.340 11.549 0.622 -4.930
3.500 -23.373 -22.463 11.800 0.620 -4.928
3.750 -23.290 -22.593 12.052 0.618 -4.926
4.000 -23.161 -22.727 12.302 0.617 -4.924
4.250 -22.975 -22.864 12.553 0.616 -4.923
4.500 -22.712 -22.998 12.803 0.616 -4.922
4.750 -22.395 -23.123 13.054 0.615 -4.921
5.000 -22.050 -23.280 13.304 0.615 -4.921
5.250 -21.870 -23.570 13.554 0.614 -4.920
5.500 -21.742 -23.769 13.804 0.614 -4.920
5.750 -21.553 -23.931 14.055 0.614 -4.920
6.000 -21.334 -24.074 14.305 0.614 -4.920
6.250 -21.111 -24.347 14.555 0.614 -4.920
6.500 -20.870 -24.690 14.805 0.614 -4.920
6.750 -20.622 -24.926 15.055 0.614 -4.920
7.000 -20.373 -25.089 15.305 0.614 -4.920
7.250 -20.124 -25.247 15.555 0.614 -4.920
7.500 -19.874 -25.313 15.805 0.614 -4.920
7.750 -19.625 -25.336 16.055 0.614 -4.920
8.000 -19.375 -25.351 16.305 0.614 -4.920
8.250 -19.126 -25.362 16.555 0.614 -4.920
8.500 -18.878 -25.369 16.805 0.614 -4.920
8.750 -18.631 -25.374 17.055 0.614 -4.920
9.000 -18.384 -25.378 17.305 0.614 -4.920
