# z = 3.750000e+00
# log(Z/Zsun) = -1.000000e+00
# log(nH) = -4.000000e+00
1.000 -25.472 -21.525 9.285 0.642 -3.960
1.250 -25.313 -21.660 9.536 0.641 -3.959
1.500 -25.130 -21.793 9.786 0.640 -3.958
1.750 -24.896 -21.923 10.037 0.640 -3.957
2.000 -24.644 -22.049 10.287 0.639 -3.956
2.250 -24.441 -22.169 10.538 0.638 -3.954
2.500 -24.296 -22.285 10.789 0.636 -3.952
2.750 -24.179 -22.396 11.040 0.635 -3.950
3.000 -24.078 -22.503 11.292 0.633 -3.947
3.250 -23.989 -22.608 11.543 0.630 -3.944
3.500 -23.908 -22.716 11.795 0.628 -3.941
3.750 -23.828 -22.829 12.047 0.625 -3.937
4.000 -23.714 -22.950 12.298 0.623 -3.934
4.250 -23.519 -23.080 12.550 0.621 -3.931
4.500 -23.163 -23.222 12.801 0.619 -3.928
4.750 -22.686 -23.383 13.053 0.617 -3.926
5.000 -22.139 -23.747 13.304 0.614 -3.923
5.250 -22.152 -24.382 13.555 0.613 -3.921
5.500 -22.313 -24.774 13.805 0.613 -3.921
5.750 -22.367 -25.044 14.055 0.613 -3.921
6.000 -22.268 -25.255 14.305 0.613 -3.921
6.250 -22.117 -25.500 14.555 0.613 -3.921
6.500 -21.926 -25.861 14.805 0.613 -3.921
6.750 -21.693 -26.067 15.055 0.613 -3.921
7.000 -21.450 -26.184 15.305 0.613 -3.921
7.250 -21.205 -26.271 15.555 0.613 -3.920
7.500 -20.958 -26.311 15.805 0.613 -3.920
7.750 -20.710 -26.327 16.055 0.613 -3.920
8.000 -20.461 -26.337 16.305 0.613 -3.920
8.250 -20.212 -26.344 16.555 0.613 -3.920
8.500 -19.963 -26.347 16.805 0.613 -3.920
8.750 -19.714 -26.349 17.055 0.613 -3.920
9.000 -19.464 -26.349 17.305 0.613 -3.920
