# z = 2.000000e+00
# log(Z/Zsun) = -1.000000e+01
# log(nH) = -3.000000e+00
1.000 -25.482 -21.529 9.279 0.652 -2.974
1.250 -25.313 -21.650 9.532 0.647 -2.968
1.500 -25.160 -21.771 9.784 0.644 -2.963
1.750 -25.020 -21.890 10.036 0.640 -2.959
2.000 -24.879 -22.008 10.288 0.637 -2.955
2.250 -24.741 -22.123 10.540 0.635 -2.951
2.500 -24.618 -22.237 10.792 0.632 -2.947
2.750 -24.500 -22.353 11.044 0.629 -2.943
3.000 -24.388 -22.471 11.296 0.626 -2.940
3.250 -24.278 -22.594 11.548 0.623 -2.936
3.500 -24.173 -22.724 11.800 0.621 -2.933
3.750 -24.072 -22.863 12.051 0.619 -2.930
4.000 -23.974 -23.010 12.302 0.617 -2.927
4.250 -23.784 -23.167 12.553 0.616 -2.926
4.500 -23.234 -23.343 12.804 0.615 -2.924
4.750 -22.930 -23.575 13.055 0.614 -2.923
5.000 -22.554 -23.910 13.305 0.613 -2.922
5.250 -22.628 -24.799 13.556 0.612 -2.921
5.500 -22.923 -25.601 13.806 0.612 -2.921
5.750 -23.109 -26.124 14.056 0.612 -2.921
6.000 -23.180 -26.473 14.306 0.612 -2.921
6.250 -23.154 -26.704 14.556 0.612 -2.921
6.500 -23.071 -26.853 14.806 0.612 -2.921
6.750 -22.951 -26.947 15.056 0.612 -2.921
7.000 -22.808 -27.004 15.306 0.612 -2.921
7.250 -22.646 -27.038 15.556 0.612 -2.921
7.500 -22.469 -27.057 15.806 0.612 -2.921
7.750 -22.280 -27.069 16.056 0.612 -2.921
8.000 -22.079 -27.075 16.306 0.612 -2.921
8.250 -21.869 -27.079 16.556 0.612 -2.921
8.500 -21.651 -27.081 16.806 0.612 -2.921
8.750 -21.426 -27.082 17.056 0.612 -2.921
9.000 -21.194 -27.082 17.306 0.612 -2.921
