# z = 5.000000e-01
# log(Z/Zsun) = 5.000000e-01
# log(nH) = -6.000000e+00
1.000 -25.199 -20.884 9.290 0.634 -5.918
1.250 -25.072 -20.994 9.541 0.634 -5.917
1.500 -24.944 -21.103 9.791 0.633 -5.916
1.750 -24.817 -21.209 10.042 0.633 -5.916
2.000 -24.652 -21.311 10.292 0.632 -5.915
2.250 -24.390 -21.405 10.542 0.632 -5.915
2.500 -23.971 -21.482 10.792 0.632 -5.915
2.750 -23.529 -21.555 11.042 0.632 -5.914
3.000 -23.298 -21.624 11.292 0.632 -5.914
3.250 -23.299 -21.696 11.542 0.631 -5.914
3.500 -23.408 -21.769 11.793 0.631 -5.914
3.750 -23.415 -21.838 12.043 0.631 -5.913
4.000 -23.253 -21.898 12.293 0.631 -5.913
4.250 -23.065 -21.957 12.543 0.631 -5.913
4.500 -22.888 -22.019 12.793 0.630 -5.913
4.750 -22.715 -22.093 13.043 0.630 -5.912
5.000 -22.541 -22.198 13.293 0.630 -5.912
5.250 -22.310 -22.331 13.544 0.630 -5.912
5.500 -22.166 -22.503 13.794 0.630 -5.912
5.750 -22.156 -22.680 14.044 0.630 -5.911
6.000 -22.133 -22.826 14.294 0.629 -5.911
6.250 -22.021 -22.940 14.544 0.629 -5.911
6.500 -21.829 -23.034 14.794 0.629 -5.911
6.750 -21.615 -23.158 15.044 0.629 -5.911
7.000 -21.399 -23.390 15.294 0.629 -5.911
7.250 -21.178 -23.733 15.544 0.629 -5.911
7.500 -20.939 -23.920 15.794 0.629 -5.911
7.750 -20.694 -24.029 16.044 0.629 -5.911
8.000 -20.447 -24.130 16.294 0.629 -5.911
8.250 -20.200 -24.210 16.544 0.629 -5.910
8.500 -19.953 -24.255 16.794 0.629 -5.910
8.750 -19.707 -24.279 17.044 0.629 -5.910
9.000 -19.464 -24.297 17.294 0.629 -5.910
