# z = 3.250000e+00
# log(Z/Zsun) = -5.000000e-01
# log(nH) = -3.000000e+00
1.000 -25.514 -21.581 9.274 0.658 -2.980
1.250 -25.318 -21.713 9.527 0.654 -2.973
1.500 -25.070 -21.847 9.780 0.650 -2.969
1.750 -24.749 -21.983 10.031 0.648 -2.965
2.000 -24.395 -22.119 10.283 0.645 -2.962
2.250 -24.095 -22.254 10.534 0.644 -2.960
2.500 -23.903 -22.387 10.785 0.642 -2.958
2.750 -23.799 -22.517 11.036 0.641 -2.956
3.000 -23.747 -22.642 11.287 0.639 -2.954
3.250 -23.717 -22.762 11.538 0.637 -2.951
3.500 -23.696 -22.878 11.790 0.635 -2.949
3.750 -23.664 -22.992 12.041 0.633 -2.945
4.000 -23.536 -23.106 12.293 0.630 -2.942
4.250 -23.210 -23.225 12.545 0.628 -2.938
4.500 -22.648 -23.361 12.797 0.625 -2.934
4.750 -22.141 -23.549 13.049 0.622 -2.931
5.000 -21.739 -24.034 13.303 0.617 -2.923
5.250 -21.757 -24.675 13.554 0.614 -2.921
5.500 -21.939 -25.060 13.804 0.614 -2.920
5.750 -22.192 -25.360 14.054 0.614 -2.920
6.000 -22.274 -25.604 14.304 0.614 -2.920
6.250 -22.379 -25.891 14.555 0.614 -2.920
6.500 -22.608 -26.380 14.805 0.614 -2.920
6.750 -22.569 -26.698 15.055 0.614 -2.920
7.000 -22.420 -26.890 15.305 0.614 -2.920
7.250 -22.256 -27.057 15.555 0.614 -2.920
7.500 -22.054 -27.155 15.805 0.614 -2.920
7.750 -21.831 -27.201 16.055 0.614 -2.920
8.000 -21.601 -27.231 16.305 0.614 -2.920
8.250 -21.365 -27.261 16.555 0.614 -2.920
8.500 -21.126 -27.276 16.805 0.614 -2.920
8.750 -20.883 -27.283 17.055 0.614 -2.920
9.000 -20.639 -27.287 17.305 0.614 -2.920
