# z = 5.500000e+00
# log(Z/Zsun) = -1.000000e+01
# log(nH) = -1.000000e+00
1.000 -29.739 -25.614 8.989 1.271 -3.091
1.250 -29.468 -25.603 9.239 1.269 -3.019
1.500 -29.144 -25.593 9.490 1.267 -2.945
1.750 -28.854 -25.582 9.741 1.265 -2.871
2.000 -28.565 -25.571 9.992 1.262 -2.796
2.250 -28.262 -25.560 10.243 1.258 -2.721
2.500 -27.890 -25.548 10.494 1.254 -2.644
2.750 -27.337 -25.536 10.746 1.250 -2.567
3.000 -26.675 -25.524 10.998 1.244 -2.488
3.250 -26.101 -25.512 11.250 1.237 -2.409
3.500 -25.756 -25.500 11.503 1.229 -2.329
3.750 -25.906 -25.488 11.757 1.218 -2.249
4.000 -24.540 -25.474 12.012 1.204 -2.159
4.250 -21.865 -25.369 12.468 0.750 -1.109
4.500 -22.258 -25.342 12.780 0.649 -0.971
4.750 -22.441 -25.342 13.037 0.639 -0.958
5.000 -22.085 -25.326 13.304 0.615 -0.925
5.250 -22.573 -25.320 13.558 0.609 -0.917
5.500 -22.914 -25.320 13.808 0.609 -0.917
5.750 -23.120 -25.324 14.056 0.612 -0.921
6.000 -23.208 -25.324 14.306 0.612 -0.921
6.250 -23.204 -25.324 14.556 0.612 -0.921
6.500 -23.146 -25.324 14.806 0.612 -0.921
6.750 -23.056 -25.324 15.056 0.612 -0.921
7.000 -22.947 -25.325 15.306 0.612 -0.921
7.250 -22.824 -25.325 15.556 0.612 -0.921
7.500 -22.689 -25.325 15.806 0.612 -0.921
7.750 -22.545 -25.325 16.056 0.612 -0.921
8.000 -22.391 -25.325 16.306 0.612 -0.921
8.250 -22.227 -25.325 16.556 0.612 -0.921
8.500 -22.053 -25.325 16.806 0.612 -0.921
8.750 -21.869 -25.325 17.056 0.612 -0.921
9.000 -21.672 -25.325 17.306 0.612 -0.921
