# z = 4.500000e+00
# log(Z/Zsun) = -1.000000e+00
# log(nH) = -2.000000e+00
1.000 -26.058 -22.135 9.164 0.849 -2.251
1.250 -25.793 -22.189 9.430 0.818 -2.204
1.500 -25.460 -22.252 9.696 0.788 -2.162
1.750 -25.163 -22.326 9.962 0.761 -2.123
2.000 -24.911 -22.409 10.226 0.736 -2.089
2.250 -24.679 -22.505 10.488 0.715 -2.060
2.500 -24.491 -22.612 10.749 0.698 -2.036
2.750 -24.352 -22.729 11.008 0.683 -2.016
3.000 -24.250 -22.858 11.266 0.672 -2.000
3.250 -24.171 -22.996 11.521 0.663 -1.988
3.500 -24.103 -23.141 11.776 0.656 -1.979
3.750 -24.017 -23.293 12.029 0.651 -1.973
4.000 -23.825 -23.451 12.281 0.648 -1.968
4.250 -22.849 -23.626 12.533 0.645 -1.965
4.500 -22.343 -24.133 12.785 0.642 -1.960
4.750 -22.255 -24.545 13.037 0.640 -1.957
5.000 -21.888 -24.648 13.303 0.616 -1.925
5.250 -22.116 -24.654 13.555 0.613 -1.921
5.500 -22.329 -24.654 13.805 0.613 -1.921
5.750 -22.590 -24.655 14.055 0.613 -1.921
6.000 -22.678 -24.656 14.305 0.613 -1.921
6.250 -22.762 -24.657 14.555 0.613 -1.921
6.500 -22.910 -24.657 14.805 0.613 -1.921
6.750 -22.856 -24.657 15.055 0.613 -1.921
7.000 -22.734 -24.657 15.305 0.613 -1.921
7.250 -22.603 -24.657 15.555 0.613 -1.920
7.500 -22.434 -24.657 15.805 0.613 -1.920
7.750 -22.244 -24.657 16.055 0.613 -1.920
8.000 -22.042 -24.657 16.305 0.613 -1.920
8.250 -21.830 -24.657 16.555 0.613 -1.920
8.500 -21.609 -24.657 16.805 0.613 -1.920
8.750 -21.382 -24.657 17.055 0.613 -1.920
9.000 -21.149 -24.658 17.305 0.613 -1.920
