# z = 0.000000e+00
# log(Z/Zsun) = -1.000000e+00
# log(nH) = -3.000000e+00
1.000 -26.008 -22.139 9.162 0.852 -3.256
1.250 -25.759 -22.191 9.429 0.821 -3.209
1.500 -25.458 -22.252 9.695 0.791 -3.166
1.750 -25.169 -22.322 9.960 0.763 -3.126
2.000 -24.916 -22.402 10.224 0.738 -3.092
2.250 -24.681 -22.492 10.487 0.717 -3.062
2.500 -24.490 -22.592 10.749 0.698 -3.037
2.750 -24.348 -22.702 11.008 0.683 -3.016
3.000 -24.243 -22.820 11.266 0.671 -3.000
3.250 -24.161 -22.944 11.522 0.662 -2.987
3.500 -24.090 -23.072 11.777 0.654 -2.977
3.750 -24.000 -23.201 12.031 0.648 -2.968
4.000 -23.809 -23.331 12.284 0.643 -2.962
4.250 -22.825 -23.470 12.537 0.639 -2.956
4.500 -22.327 -23.789 12.791 0.633 -2.948
4.750 -22.306 -23.987 13.044 0.629 -2.943
5.000 -21.919 -24.737 13.303 0.616 -2.924
5.250 -22.119 -25.804 13.555 0.613 -2.921
5.500 -22.334 -26.264 13.805 0.613 -2.921
5.750 -22.596 -26.480 14.055 0.613 -2.921
6.000 -22.691 -26.688 14.305 0.613 -2.921
6.250 -22.791 -26.918 14.555 0.613 -2.921
6.500 -22.989 -27.332 14.805 0.613 -2.921
6.750 -22.992 -27.536 15.055 0.613 -2.921
7.000 -22.920 -27.616 15.305 0.613 -2.921
7.250 -22.852 -27.701 15.555 0.613 -2.920
7.500 -22.757 -27.801 15.805 0.613 -2.920
7.750 -22.643 -27.840 16.055 0.613 -2.920
8.000 -22.525 -27.862 16.305 0.613 -2.920
8.250 -22.402 -27.890 16.555 0.613 -2.920
8.500 -22.275 -27.904 16.805 0.613 -2.920
8.750 -22.141 -27.912 17.055 0.613 -2.920
9.000 -21.998 -27.915 17.305 0.613 -2.920
