# z = 2.750000e+00
# log(Z/Zsun) = -2.000000e+00
# log(nH) = -5.000000e+00
1.000 -25.353 -21.137 9.301 0.619 -4.929
1.250 -25.173 -21.263 9.552 0.617 -4.927
1.500 -25.016 -21.395 9.803 0.616 -4.926
1.750 -24.873 -21.531 10.054 0.615 -4.924
2.000 -24.734 -21.672 10.304 0.614 -4.923
2.250 -24.593 -21.817 10.555 0.614 -4.923
2.500 -24.452 -21.965 10.805 0.613 -4.922
2.750 -24.312 -22.117 11.055 0.613 -4.922
3.000 -24.178 -22.271 11.305 0.613 -4.921
3.250 -24.050 -22.429 11.556 0.613 -4.921
3.500 -23.918 -22.589 11.806 0.613 -4.921
3.750 -23.771 -22.753 12.056 0.612 -4.921
4.000 -23.607 -22.920 12.306 0.612 -4.921
4.250 -23.427 -23.091 12.556 0.612 -4.921
4.500 -23.227 -23.265 12.806 0.612 -4.921
4.750 -23.012 -23.445 13.056 0.612 -4.921
5.000 -22.779 -23.633 13.306 0.612 -4.921
5.250 -22.532 -23.861 13.556 0.612 -4.921
5.500 -22.308 -24.175 13.806 0.612 -4.921
5.750 -22.088 -24.484 14.056 0.612 -4.921
6.000 -21.855 -24.736 14.306 0.612 -4.921
6.250 -21.614 -24.928 14.556 0.612 -4.921
6.500 -21.368 -25.049 14.806 0.612 -4.921
6.750 -21.121 -25.123 15.056 0.612 -4.921
7.000 -20.872 -25.165 15.306 0.612 -4.921
7.250 -20.623 -25.190 15.556 0.612 -4.921
7.500 -20.375 -25.201 15.806 0.612 -4.921
7.750 -20.126 -25.208 16.056 0.612 -4.921
8.000 -19.879 -25.213 16.306 0.612 -4.921
8.250 -19.634 -25.219 16.556 0.612 -4.921
8.500 -19.384 -25.219 16.806 0.612 -4.921
8.750 -19.134 -25.220 17.056 0.612 -4.921
9.000 -18.884 -25.220 17.306 0.612 -4.921
