# CIE
# log(Z/Zsun) = -2.000000e+00
# log(nH) = 1.000000e+00
1.000 -30.363 -27.558 8.985 1.280 -2.107
1.250 -29.834 -27.541 9.235 1.281 -2.035
1.500 -29.449 -27.523 9.485 1.281 -1.963
1.750 -29.165 -27.504 9.735 1.281 -1.890
2.000 -28.751 -27.485 9.985 1.282 -1.816
2.250 -27.915 -27.464 10.234 1.283 -1.742
2.500 -26.949 -27.442 10.483 1.286 -1.667
2.750 -26.066 -27.419 10.732 1.292 -1.593
3.000 -25.325 -27.395 10.978 1.302 -1.519
3.250 -24.842 -27.372 11.226 1.309 -1.452
3.500 -24.927 -27.357 11.482 1.292 -1.401
3.750 -25.860 -27.329 11.737 1.275 -1.304
4.000 -25.474 -27.283 11.988 1.272 -1.154
4.250 -21.864 -26.740 12.467 0.751 0.890
4.500 -22.254 -26.617 12.780 0.649 1.029
4.750 -22.417 -26.658 13.037 0.639 1.042
5.000 -22.061 -26.651 13.304 0.615 1.075
5.250 -22.502 -26.632 13.556 0.612 1.079
5.500 -22.810 -26.627 13.806 0.612 1.079
5.750 -23.031 -26.632 14.056 0.612 1.079
6.000 -23.125 -26.633 14.306 0.612 1.079
6.250 -23.151 -26.645 14.556 0.612 1.079
6.500 -23.147 -26.653 14.806 0.612 1.079
6.750 -23.078 -26.656 15.056 0.612 1.079
7.000 -22.986 -26.657 15.306 0.612 1.079
7.250 -22.887 -26.657 15.556 0.612 1.079
7.500 -22.777 -26.658 15.806 0.612 1.079
7.750 -22.661 -26.658 16.056 0.612 1.079
8.000 -22.542 -26.658 16.306 0.612 1.079
8.250 -22.421 -26.658 16.556 0.612 1.079
8.500 -22.297 -26.658 16.806 0.612 1.079
8.750 -22.169 -26.658 17.056 0.612 1.079
9.000 -22.032 -26.658 17.306 0.612 1.079
