# z = 1.300000e+01
# log(Z/Zsun) = -2.000000e+00
# log(nH) = 3.000000e+00
1.000 -33.728 -29.490 8.983 1.287 -1.098
1.250 -30.806 -29.509 9.233 1.289 -1.025
1.500 -30.113 -29.507 9.482 1.291 -0.950
1.750 -29.775 -29.503 9.731 1.295 -0.876
2.000 -29.321 -29.498 9.979 1.298 -0.803
2.250 -28.511 -29.491 10.228 1.301 -0.735
2.500 -27.485 -29.475 10.476 1.307 -0.674
2.750 -26.522 -29.459 10.724 1.316 -0.627
3.000 -25.862 -29.446 10.974 1.316 -0.620
3.250 -25.455 -29.431 11.227 1.306 -0.665
3.500 -25.686 -29.373 11.483 1.288 -0.510
3.750 -26.804 -29.315 11.736 1.280 -0.263
4.000 -26.009 -29.217 11.986 1.278 0.294
4.250 -21.864 -28.262 12.467 0.751 2.890
4.500 -22.263 -27.367 12.782 0.646 3.033
4.750 -22.425 -27.925 13.037 0.639 3.042
5.000 -22.062 -28.133 13.304 0.615 3.075
5.250 -22.502 -27.804 13.556 0.612 3.079
5.500 -22.810 -27.734 13.806 0.612 3.079
5.750 -23.032 -27.802 14.056 0.612 3.079
6.000 -23.125 -27.825 14.306 0.612 3.079
6.250 -23.151 -28.064 14.556 0.612 3.079
6.500 -23.147 -28.340 14.806 0.612 3.079
6.750 -23.078 -28.513 15.056 0.612 3.079
7.000 -22.986 -28.580 15.306 0.612 3.079
7.250 -22.886 -28.609 15.556 0.612 3.079
7.500 -22.776 -28.640 15.806 0.612 3.079
7.750 -22.661 -28.647 16.056 0.612 3.079
8.000 -22.542 -28.651 16.306 0.612 3.079
8.250 -22.421 -28.655 16.556 0.612 3.079
8.500 -22.296 -28.657 16.806 0.612 3.079
8.750 -22.168 -28.657 17.056 0.612 3.079
9.000 -22.031 -28.658 17.306 0.612 3.079
