# z = 1.500000e+01
# log(Z/Zsun) = -5.000000e-01
# log(nH) = 2.000000e+00
1.000 -32.737 -28.027 8.984 1.285 -1.617
1.250 -31.037 -28.091 9.234 1.285 -1.544
1.500 -28.474 -28.081 9.484 1.286 -1.470
1.750 -28.057 -28.067 9.733 1.286 -1.396
2.000 -27.719 -28.054 9.983 1.286 -1.323
2.250 -27.342 -28.039 10.234 1.286 -1.252
2.500 -26.960 -27.994 10.483 1.286 -1.184
2.750 -26.574 -27.950 10.733 1.287 -1.123
3.000 -26.190 -27.898 10.983 1.288 -1.077
3.250 -26.007 -27.831 11.233 1.286 -1.058
3.500 -25.874 -27.738 11.484 1.286 -1.072
3.750 -25.907 -27.664 11.734 1.284 -0.904
4.000 -25.489 -27.620 11.985 1.282 -0.552
4.250 -21.845 -26.643 12.466 0.753 1.890
4.500 -22.134 -26.664 12.779 0.651 2.030
4.750 -22.000 -26.706 13.035 0.642 2.043
5.000 -21.636 -26.653 13.302 0.618 2.075
5.250 -21.733 -26.608 13.554 0.615 2.079
5.500 -21.914 -26.537 13.804 0.614 2.080
5.750 -22.193 -26.678 14.054 0.614 2.080
6.000 -22.290 -26.865 14.304 0.614 2.080
6.250 -22.418 -27.067 14.555 0.614 2.080
6.500 -22.743 -27.347 14.805 0.614 2.080
6.750 -22.807 -27.404 15.055 0.614 2.080
7.000 -22.767 -27.387 15.305 0.614 2.080
7.250 -22.785 -27.457 15.555 0.614 2.080
7.500 -22.725 -27.520 15.805 0.614 2.080
7.750 -22.623 -27.558 16.055 0.614 2.080
8.000 -22.510 -27.581 16.305 0.614 2.080
8.250 -22.394 -27.619 16.555 0.614 2.080
8.500 -22.271 -27.638 16.805 0.614 2.080
8.750 -22.141 -27.647 17.055 0.614 2.080
9.000 -22.001 -27.653 17.305 0.614 2.080
