# z = 2.500000e-01
# log(Z/Zsun) = -1.000000e+01
# log(nH) = 0.000000e+00
1.000 -30.925 -26.746 8.986 1.278 -2.724
1.250 -30.645 -26.728 9.236 1.278 -2.653
1.500 -30.358 -26.710 9.486 1.278 -2.581
1.750 -29.974 -26.691 9.736 1.277 -2.508
2.000 -29.186 -26.672 9.987 1.277 -2.435
2.250 -28.111 -26.652 10.237 1.277 -2.361
2.500 -27.077 -26.631 10.486 1.278 -2.287
2.750 -26.162 -26.610 10.736 1.280 -2.212
3.000 -25.379 -26.587 10.984 1.284 -2.137
3.250 -24.776 -26.562 11.231 1.292 -2.061
3.500 -24.784 -26.544 11.485 1.281 -1.997
3.750 -25.560 -26.523 11.740 1.267 -1.923
4.000 -25.126 -26.488 11.992 1.262 -1.807
4.250 -21.865 -26.073 12.467 0.751 -0.110
4.500 -22.258 -25.999 12.780 0.649 0.029
4.750 -22.441 -26.005 13.037 0.639 0.042
5.000 -22.086 -25.992 13.304 0.615 0.075
5.250 -22.573 -25.986 13.558 0.609 0.083
5.500 -22.920 -25.990 13.806 0.612 0.079
5.750 -23.124 -25.990 14.056 0.612 0.079
6.000 -23.217 -25.990 14.306 0.612 0.079
6.250 -23.219 -25.991 14.556 0.612 0.079
6.500 -23.169 -25.991 14.806 0.612 0.079
6.750 -23.091 -25.991 15.056 0.612 0.079
7.000 -22.996 -25.991 15.306 0.612 0.079
7.250 -22.890 -25.991 15.556 0.612 0.079
7.500 -22.778 -25.991 15.806 0.612 0.079
7.750 -22.662 -25.991 16.056 0.612 0.079
8.000 -22.543 -25.991 16.306 0.612 0.079
8.250 -22.422 -25.991 16.556 0.612 0.079
8.500 -22.297 -25.991 16.806 0.612 0.079
8.750 -22.169 -25.991 17.056 0.612 0.079
9.000 -22.032 -25.991 17.306 0.612 0.079
