# z = 2.500000e+00
# log(Z/Zsun) = 0.000000e+00
# log(nH) = 6.000000e+00
1.000 -30.704 -32.643 8.980 1.298 -0.141
1.250 -29.278 -32.407 9.229 1.298 -0.044
1.500 -28.630 -32.197 9.479 1.299 0.069
1.750 -28.379 -31.725 9.722 1.320 0.304
2.000 -28.087 -31.591 9.956 1.372 0.515
2.250 -27.618 -31.307 10.194 1.407 0.631
2.500 -27.162 -30.968 10.442 1.414 0.674
2.750 -26.394 -30.566 10.715 1.341 0.514
3.000 -26.070 -30.256 10.907 1.534 0.568
3.250 -25.619 -29.928 11.191 1.418 0.781
3.500 -25.655 -30.078 11.480 1.296 1.063
3.750 -25.843 -30.944 11.730 1.296 1.350
4.000 -25.811 -30.095 11.981 1.294 3.046
4.250 -21.826 -27.017 12.462 0.759 5.891
4.500 -22.015 -26.702 12.779 0.652 6.037
4.750 -21.649 -26.653 13.032 0.647 6.043
5.000 -21.266 -26.142 13.299 0.622 6.076
5.250 -21.284 -25.891 13.551 0.619 6.080
5.500 -21.467 -26.295 13.801 0.619 6.081
5.750 -21.741 -25.922 14.051 0.618 6.081
6.000 -21.844 -26.000 14.302 0.618 6.081
6.250 -21.968 -26.908 14.552 0.618 6.082
6.500 -22.370 -27.204 14.802 0.618 6.082
6.750 -22.498 -27.300 15.052 0.618 6.082
7.000 -22.492 -27.336 15.302 0.618 6.082
7.250 -22.623 -27.521 15.552 0.618 6.082
7.500 -22.636 -27.642 15.802 0.618 6.082
7.750 -22.559 -27.755 16.052 0.618 6.082
8.000 -22.464 -27.869 16.302 0.618 6.082
8.250 -22.364 -28.197 16.552 0.618 6.082
8.500 -22.252 -28.503 16.802 0.618 6.082
8.750 -22.130 -28.808 17.052 0.618 6.082
9.000 -21.997 -29.156 17.302 0.618 6.082
