# z = 5.500000e+00
# log(Z/Zsun) = 0.000000e+00
# log(nH) = -3.000000e+00
1.000 -25.548 -21.619 9.261 0.679 -3.000
1.250 -25.292 -21.744 9.516 0.671 -2.989
1.500 -24.863 -21.876 9.770 0.665 -2.981
1.750 -24.445 -22.013 10.023 0.660 -2.974
2.000 -24.040 -22.156 10.276 0.656 -2.970
2.250 -23.686 -22.304 10.527 0.654 -2.966
2.500 -23.453 -22.455 10.779 0.652 -2.964
2.750 -23.334 -22.611 11.029 0.651 -2.962
3.000 -23.298 -22.769 11.280 0.650 -2.961
3.250 -23.313 -22.931 11.531 0.649 -2.960
3.500 -23.351 -23.096 11.781 0.649 -2.959
3.750 -23.348 -23.265 12.031 0.648 -2.959
4.000 -23.149 -23.438 12.281 0.648 -2.958
4.250 -22.714 -23.614 12.531 0.648 -2.958
4.500 -22.143 -23.844 12.781 0.648 -2.958
4.750 -21.625 -24.268 13.032 0.647 -2.956
5.000 -21.257 -24.962 13.299 0.622 -2.924
5.250 -21.276 -25.468 13.551 0.619 -2.920
5.500 -21.440 -25.675 13.801 0.619 -2.919
5.750 -21.713 -25.841 14.051 0.618 -2.919
6.000 -21.791 -25.978 14.302 0.618 -2.919
6.250 -21.888 -26.141 14.552 0.618 -2.918
6.500 -22.098 -26.478 14.802 0.618 -2.918
6.750 -22.014 -26.691 15.052 0.618 -2.918
7.000 -21.824 -26.837 15.302 0.618 -2.918
7.250 -21.621 -26.993 15.552 0.618 -2.918
7.500 -21.391 -27.103 15.802 0.618 -2.918
7.750 -21.150 -27.160 16.052 0.618 -2.918
8.000 -20.905 -27.207 16.302 0.618 -2.918
8.250 -20.658 -27.276 16.552 0.618 -2.918
8.500 -20.410 -27.312 16.802 0.618 -2.918
8.750 -20.162 -27.330 17.052 0.618 -2.918
9.000 -19.913 -27.340 17.302 0.618 -2.918
