# z = 2.000000e+00
# log(Z/Zsun) = -1.000000e+01
# log(nH) = -4.000000e+00
1.000 -25.396 -21.300 9.294 0.629 -3.944
1.250 -25.226 -21.409 9.546 0.627 -3.940
1.500 -25.072 -21.522 9.797 0.624 -3.937
1.750 -24.931 -21.640 10.049 0.622 -3.934
2.000 -24.793 -21.763 10.301 0.620 -3.931
2.250 -24.660 -21.893 10.552 0.618 -3.929
2.500 -24.538 -22.029 10.803 0.617 -3.927
2.750 -24.425 -22.171 11.054 0.615 -3.925
3.000 -24.321 -22.318 11.304 0.615 -3.924
3.250 -24.220 -22.471 11.555 0.614 -3.923
3.500 -24.122 -22.628 11.805 0.613 -3.922
3.750 -24.027 -22.790 12.055 0.613 -3.922
4.000 -23.933 -22.957 12.305 0.613 -3.922
4.250 -23.830 -23.128 12.556 0.613 -3.921
4.500 -23.651 -23.306 12.806 0.613 -3.921
4.750 -23.408 -23.500 13.056 0.612 -3.921
5.000 -23.124 -23.726 13.306 0.612 -3.921
5.250 -22.879 -24.112 13.556 0.612 -3.921
5.500 -22.934 -24.688 13.806 0.612 -3.921
5.750 -22.994 -25.166 14.056 0.612 -3.921
6.000 -22.943 -25.498 14.306 0.612 -3.921
6.250 -22.804 -25.719 14.556 0.612 -3.921
6.500 -22.619 -25.859 14.806 0.612 -3.921
6.750 -22.411 -25.945 15.056 0.612 -3.921
7.000 -22.189 -25.996 15.306 0.612 -3.921
7.250 -21.958 -26.025 15.556 0.612 -3.921
7.500 -21.722 -26.042 15.806 0.612 -3.921
7.750 -21.483 -26.051 16.056 0.612 -3.921
8.000 -21.240 -26.056 16.306 0.612 -3.921
8.250 -20.996 -26.059 16.556 0.612 -3.921
8.500 -20.751 -26.061 16.806 0.612 -3.921
8.750 -20.504 -26.061 17.056 0.612 -3.921
9.000 -20.256 -26.062 17.306 0.612 -3.921
