# z = 3.000000e+00
# log(Z/Zsun) = -2.000000e+00
# log(nH) = -1.000000e+00
1.000 -29.579 -25.538 8.989 1.270 -3.034
1.250 -29.208 -25.529 9.240 1.268 -2.961
1.500 -28.805 -25.520 9.491 1.265 -2.887
1.750 -28.413 -25.511 9.741 1.263 -2.813
2.000 -28.022 -25.501 9.993 1.259 -2.738
2.250 -27.624 -25.491 10.244 1.256 -2.662
2.500 -27.285 -25.481 10.496 1.251 -2.586
2.750 -26.952 -25.471 10.747 1.245 -2.508
3.000 -26.505 -25.461 11.000 1.239 -2.429
3.250 -26.020 -25.451 11.253 1.231 -2.350
3.500 -25.715 -25.441 11.506 1.221 -2.269
3.750 -25.852 -25.431 11.760 1.209 -2.189
4.000 -24.477 -25.419 12.016 1.194 -2.100
4.250 -21.864 -25.356 12.468 0.750 -1.109
4.500 -22.254 -25.341 12.780 0.649 -0.971
4.750 -22.417 -25.342 13.037 0.639 -0.958
5.000 -22.061 -25.326 13.304 0.615 -0.925
5.250 -22.502 -25.323 13.556 0.612 -0.921
5.500 -22.810 -25.323 13.806 0.612 -0.921
5.750 -23.031 -25.323 14.056 0.612 -0.921
6.000 -23.124 -25.323 14.306 0.612 -0.921
6.250 -23.150 -25.324 14.556 0.612 -0.921
6.500 -23.144 -25.324 14.806 0.612 -0.921
6.750 -23.073 -25.324 15.056 0.612 -0.921
7.000 -22.979 -25.324 15.306 0.612 -0.921
7.250 -22.876 -25.324 15.556 0.612 -0.921
7.500 -22.758 -25.320 15.808 0.609 -0.916
7.750 -22.642 -25.325 16.056 0.612 -0.921
8.000 -22.517 -25.325 16.306 0.612 -0.921
8.250 -22.387 -25.325 16.556 0.612 -0.921
8.500 -22.252 -25.325 16.806 0.612 -0.921
8.750 -22.111 -25.325 17.056 0.612 -0.921
9.000 -21.958 -25.325 17.306 0.612 -0.921
