# z = 1.000000e+01
# log(Z/Zsun) = -1.000000e+00
# log(nH) = -4.000000e+00
1.000 -25.575 -21.670 9.232 0.726 -4.074
1.250 -25.360 -21.767 9.493 0.707 -4.048
1.500 -25.116 -21.874 9.753 0.691 -4.027
1.750 -24.849 -21.990 10.011 0.679 -4.010
2.000 -24.590 -22.116 10.268 0.669 -3.996
2.250 -24.333 -22.250 10.522 0.661 -3.986
2.500 -24.115 -22.391 10.776 0.655 -3.978
2.750 -23.937 -22.539 11.029 0.651 -3.972
3.000 -23.777 -22.692 11.281 0.648 -3.968
3.250 -23.612 -22.851 11.533 0.646 -3.965
3.500 -23.428 -23.014 11.784 0.644 -3.963
3.750 -23.218 -23.181 12.034 0.643 -3.962
4.000 -22.983 -23.354 12.285 0.642 -3.961
4.250 -22.669 -23.535 12.535 0.642 -3.960
4.500 -22.244 -23.896 12.786 0.641 -3.959
4.750 -21.981 -24.508 13.037 0.640 -3.957
5.000 -21.645 -25.241 13.303 0.616 -3.925
5.250 -21.599 -25.447 13.555 0.613 -3.921
5.500 -21.445 -25.477 13.805 0.613 -3.921
5.750 -21.237 -25.487 14.055 0.613 -3.921
6.000 -20.997 -25.498 14.305 0.613 -3.921
6.250 -20.752 -25.505 14.555 0.613 -3.921
6.500 -20.504 -25.511 14.805 0.613 -3.921
6.750 -20.255 -25.513 15.055 0.613 -3.921
7.000 -20.005 -25.514 15.305 0.613 -3.921
7.250 -19.756 -25.515 15.555 0.613 -3.920
7.500 -19.506 -25.516 15.805 0.613 -3.920
7.750 -19.256 -25.516 16.055 0.613 -3.920
8.000 -19.006 -25.517 16.305 0.613 -3.920
8.250 -18.756 -25.517 16.555 0.613 -3.920
8.500 -18.507 -25.518 16.805 0.613 -3.920
8.750 -18.257 -25.518 17.055 0.613 -3.920
9.000 -18.007 -25.518 17.305 0.613 -3.920
