# z = 2.500000e+00
# log(Z/Zsun) = -2.000000e+00
# log(nH) = 1.000000e+00
1.000 -30.449 -27.556 8.985 1.280 -2.106
1.250 -29.888 -27.539 9.235 1.281 -2.034
1.500 -29.492 -27.521 9.485 1.281 -1.961
1.750 -29.203 -27.502 9.735 1.281 -1.888
2.000 -28.772 -27.482 9.985 1.282 -1.814
2.250 -27.923 -27.462 10.234 1.283 -1.740
2.500 -26.954 -27.440 10.483 1.286 -1.665
2.750 -26.071 -27.417 10.732 1.292 -1.591
3.000 -25.329 -27.392 10.978 1.302 -1.518
3.250 -24.845 -27.369 11.226 1.308 -1.451
3.500 -24.928 -27.355 11.482 1.292 -1.399
3.750 -25.860 -27.326 11.737 1.275 -1.302
4.000 -25.473 -27.280 11.988 1.272 -1.152
4.250 -21.864 -26.740 12.467 0.751 0.890
4.500 -22.254 -26.617 12.780 0.649 1.029
4.750 -22.417 -26.658 13.037 0.639 1.042
5.000 -22.061 -26.651 13.304 0.615 1.075
5.250 -22.502 -26.632 13.556 0.612 1.079
5.500 -22.810 -26.627 13.806 0.612 1.079
5.750 -23.031 -26.632 14.056 0.612 1.079
6.000 -23.125 -26.633 14.306 0.612 1.079
6.250 -23.151 -26.645 14.556 0.612 1.079
6.500 -23.147 -26.653 14.806 0.612 1.079
6.750 -23.078 -26.656 15.056 0.612 1.079
7.000 -22.986 -26.657 15.306 0.612 1.079
7.250 -22.887 -26.657 15.556 0.612 1.079
7.500 -22.777 -26.658 15.806 0.612 1.079
7.750 -22.661 -26.658 16.056 0.612 1.079
8.000 -22.542 -26.658 16.306 0.612 1.079
8.250 -22.421 -26.658 16.556 0.612 1.079
8.500 -22.297 -26.658 16.806 0.612 1.079
8.750 -22.168 -26.658 17.056 0.612 1.079
9.000 -22.032 -26.658 17.306 0.612 1.079
