# z = 5.000000e+00
# log(Z/Zsun) = -3.000000e+00
# log(nH) = 0.000000e+00
1.000 -31.026 -26.796 8.986 1.279 -2.768
1.250 -30.607 -26.777 9.236 1.278 -2.697
1.500 -30.223 -26.758 9.486 1.278 -2.625
1.750 -29.857 -26.738 9.736 1.278 -2.553
2.000 -29.175 -26.718 9.986 1.277 -2.481
2.250 -28.161 -26.696 10.236 1.277 -2.407
2.500 -27.149 -26.675 10.486 1.278 -2.334
2.750 -26.242 -26.652 10.736 1.279 -2.260
3.000 -25.462 -26.628 10.985 1.283 -2.185
3.250 -24.861 -26.603 11.232 1.289 -2.110
3.500 -24.796 -26.583 11.485 1.282 -2.048
3.750 -25.550 -26.562 11.739 1.269 -1.975
4.000 -25.169 -26.525 11.991 1.264 -1.858
4.250 -21.864 -26.076 12.467 0.751 -0.110
4.500 -22.258 -25.999 12.780 0.649 0.029
4.750 -22.438 -26.005 13.037 0.639 0.042
5.000 -22.083 -25.992 13.304 0.615 0.075
5.250 -22.569 -25.990 13.556 0.612 0.079
5.500 -22.907 -25.990 13.806 0.612 0.079
5.750 -23.114 -25.990 14.056 0.612 0.079
6.000 -23.206 -25.990 14.306 0.612 0.079
6.250 -23.211 -25.991 14.556 0.612 0.079
6.500 -23.165 -25.991 14.806 0.612 0.079
6.750 -23.087 -25.991 15.056 0.612 0.079
7.000 -22.991 -25.991 15.306 0.612 0.079
7.250 -22.885 -25.991 15.556 0.612 0.079
7.500 -22.771 -25.991 15.806 0.612 0.079
7.750 -22.652 -25.991 16.056 0.612 0.079
8.000 -22.530 -25.991 16.306 0.612 0.079
8.250 -22.404 -25.991 16.556 0.612 0.079
8.500 -22.274 -25.991 16.806 0.612 0.079
8.750 -22.139 -25.991 17.056 0.612 0.079
9.000 -21.993 -25.991 17.306 0.612 0.079
