# z = 7.500000e-01
# log(Z/Zsun) = -5.000000e-01
# log(nH) = -3.000000e+00
1.000 -25.556 -21.655 9.252 0.692 -3.026
1.250 -25.340 -21.762 9.510 0.680 -3.009
1.500 -25.053 -21.875 9.767 0.670 -2.995
1.750 -24.758 -21.993 10.022 0.661 -2.984
2.000 -24.458 -22.113 10.277 0.655 -2.975
2.250 -24.166 -22.235 10.530 0.650 -2.968
2.500 -23.948 -22.356 10.783 0.646 -2.962
2.750 -23.814 -22.476 11.035 0.642 -2.957
3.000 -23.740 -22.594 11.288 0.638 -2.953
3.250 -23.702 -22.711 11.540 0.635 -2.948
3.500 -23.679 -22.829 11.792 0.632 -2.944
3.750 -23.642 -22.950 12.044 0.629 -2.940
4.000 -23.519 -23.078 12.296 0.626 -2.936
4.250 -23.129 -23.213 12.548 0.623 -2.932
4.500 -22.479 -23.393 12.800 0.621 -2.929
4.750 -22.115 -23.619 13.051 0.619 -2.926
5.000 -21.766 -24.012 13.303 0.616 -2.923
5.250 -21.754 -24.746 13.554 0.614 -2.921
5.500 -21.936 -25.216 13.804 0.614 -2.920
5.750 -22.198 -25.539 14.054 0.614 -2.920
6.000 -22.291 -25.774 14.304 0.614 -2.920
6.250 -22.420 -26.022 14.555 0.614 -2.920
6.500 -22.747 -26.446 14.805 0.614 -2.920
6.750 -22.826 -26.708 15.055 0.614 -2.920
7.000 -22.779 -26.865 15.305 0.614 -2.920
7.250 -22.759 -27.033 15.555 0.614 -2.920
7.500 -22.684 -27.131 15.805 0.614 -2.920
7.750 -22.566 -27.173 16.055 0.614 -2.920
8.000 -22.434 -27.201 16.305 0.614 -2.920
8.250 -22.293 -27.230 16.555 0.614 -2.920
8.500 -22.141 -27.244 16.805 0.614 -2.920
8.750 -21.976 -27.251 17.055 0.614 -2.920
9.000 -21.798 -27.255 17.305 0.614 -2.920
