# z = 2.250000e+00
# log(Z/Zsun) = 1.000000e+00
# log(nH) = -3.000000e+00
1.000 -25.414 -21.454 9.231 0.727 -2.966
1.250 -24.912 -21.559 9.484 0.722 -2.961
1.500 -24.194 -21.660 9.736 0.718 -2.956
1.750 -23.545 -21.761 9.989 0.715 -2.951
2.000 -23.060 -21.861 10.241 0.711 -2.947
2.250 -22.730 -21.958 10.493 0.708 -2.943
2.500 -22.528 -22.051 10.745 0.705 -2.939
2.750 -22.397 -22.140 10.997 0.701 -2.935
3.000 -22.299 -22.224 11.249 0.698 -2.931
3.250 -22.230 -22.306 11.501 0.694 -2.927
3.500 -22.197 -22.389 11.753 0.691 -2.923
3.750 -22.197 -22.471 12.005 0.688 -2.920
4.000 -22.157 -22.552 12.257 0.686 -2.917
4.250 -21.905 -22.630 12.508 0.684 -2.914
4.500 -21.361 -22.684 12.759 0.682 -2.912
4.750 -20.826 -22.712 13.009 0.682 -2.911
5.000 -20.488 -22.778 13.260 0.680 -2.910
5.250 -20.338 -22.974 13.512 0.678 -2.907
5.500 -20.506 -23.348 13.764 0.674 -2.902
5.750 -20.740 -23.670 14.015 0.672 -2.900
6.000 -20.825 -23.934 14.266 0.671 -2.898
6.250 -20.971 -24.244 14.518 0.668 -2.895
6.500 -21.425 -24.792 14.769 0.666 -2.892
6.750 -21.636 -25.203 15.020 0.665 -2.891
7.000 -21.659 -25.527 15.270 0.664 -2.890
7.250 -21.845 -25.910 15.521 0.664 -2.889
7.500 -21.955 -26.170 15.771 0.663 -2.889
7.750 -21.889 -26.317 16.021 0.663 -2.889
8.000 -21.769 -26.462 16.271 0.663 -2.889
8.250 -21.621 -26.687 16.521 0.663 -2.889
8.500 -21.437 -26.848 16.771 0.663 -2.889
8.750 -21.228 -26.951 17.021 0.663 -2.889
9.000 -21.006 -27.016 17.271 0.663 -2.889
