# z = 1.000000e+01
# log(Z/Zsun) = 5.000000e-01
# log(nH) = 2.000000e+00
1.000 -32.246 -27.273 8.969 1.329 -1.675
1.250 -27.999 -27.335 9.219 1.329 -1.578
1.500 -27.306 -27.326 9.469 1.329 -1.486
1.750 -26.940 -27.314 9.719 1.329 -1.401
2.000 -26.638 -27.302 9.969 1.329 -1.321
2.250 -26.320 -27.286 10.219 1.329 -1.245
2.500 -26.017 -27.229 10.469 1.329 -1.175
2.750 -25.777 -27.171 10.719 1.329 -1.116
3.000 -25.576 -27.128 10.969 1.329 -1.077
3.250 -25.364 -27.153 11.219 1.329 -1.064
3.500 -25.136 -27.180 11.469 1.329 -1.096
3.750 -25.002 -27.111 11.719 1.329 -1.060
4.000 -24.801 -26.908 11.970 1.328 -0.854
4.250 -21.703 -26.049 12.451 0.780 1.891
4.500 -21.618 -26.082 12.764 0.674 2.031
4.750 -21.169 -26.254 13.021 0.663 2.045
5.000 -20.800 -26.084 13.288 0.638 2.078
5.250 -20.789 -26.166 13.541 0.634 2.083
5.500 -20.950 -26.160 13.792 0.632 2.085
5.750 -21.236 -26.383 14.042 0.632 2.086
6.000 -21.332 -26.531 14.293 0.631 2.086
6.250 -21.478 -26.587 14.543 0.630 2.087
6.500 -21.914 -26.682 14.794 0.630 2.088
6.750 -22.075 -26.751 15.044 0.629 2.089
7.000 -22.091 -26.809 15.294 0.629 2.089
7.250 -22.317 -26.975 15.544 0.629 2.089
7.500 -22.426 -27.035 15.794 0.629 2.089
7.750 -22.392 -27.107 16.044 0.629 2.089
8.000 -22.327 -27.180 16.294 0.629 2.089
8.250 -22.257 -27.366 16.544 0.629 2.090
8.500 -22.164 -27.485 16.794 0.629 2.090
8.750 -22.052 -27.559 17.044 0.629 2.090
9.000 -21.925 -27.605 17.294 0.629 2.090
