# z = 1.100000e+01
# log(Z/Zsun) = 0.000000e+00
# log(nH) = -1.000000e+00
1.000 -30.238 -26.032 8.982 1.292 -3.454
1.250 -28.522 -26.014 9.232 1.291 -3.386
1.500 -27.615 -25.993 9.482 1.290 -3.316
1.750 -27.086 -25.972 9.732 1.289 -3.246
2.000 -26.618 -25.950 9.983 1.288 -3.175
2.250 -26.166 -25.927 10.233 1.287 -3.103
2.500 -25.829 -25.904 10.484 1.285 -3.031
2.750 -25.607 -25.880 10.735 1.283 -2.958
3.000 -25.440 -25.856 10.985 1.281 -2.884
3.250 -25.287 -25.833 11.236 1.278 -2.812
3.500 -25.146 -25.809 11.487 1.275 -2.742
3.750 -24.943 -25.786 11.738 1.271 -2.672
4.000 -24.413 -25.755 11.990 1.266 -2.581
4.250 -21.806 -25.299 12.462 0.760 -1.110
4.500 -21.945 -25.260 12.775 0.657 -0.971
4.750 -21.623 -25.310 13.032 0.647 -0.957
5.000 -21.255 -25.296 13.299 0.622 -0.924
5.250 -21.277 -25.289 13.551 0.619 -0.920
5.500 -21.443 -25.286 13.801 0.619 -0.919
5.750 -21.726 -25.299 14.051 0.618 -0.919
6.000 -21.821 -25.308 14.302 0.618 -0.919
6.250 -21.956 -25.312 14.552 0.618 -0.918
6.500 -22.327 -25.316 14.802 0.618 -0.918
6.750 -22.401 -25.316 15.052 0.618 -0.918
7.000 -22.335 -25.317 15.302 0.618 -0.918
7.250 -22.311 -25.318 15.552 0.618 -0.918
7.500 -22.170 -25.319 15.802 0.618 -0.918
7.750 -21.972 -25.319 16.052 0.618 -0.918
8.000 -21.757 -25.320 16.302 0.618 -0.918
8.250 -21.532 -25.320 16.552 0.618 -0.918
8.500 -21.300 -25.321 16.802 0.618 -0.918
8.750 -21.063 -25.321 17.052 0.618 -0.918
9.000 -20.822 -25.321 17.302 0.618 -0.918
