# z = 2.000000e+00
# log(Z/Zsun) = 0.000000e+00
# log(nH) = -3.000000e+00
1.000 -25.474 -21.520 9.274 0.659 -2.973
1.250 -25.251 -21.639 9.527 0.655 -2.967
1.500 -24.901 -21.758 9.779 0.651 -2.963
1.750 -24.439 -21.874 10.031 0.648 -2.958
2.000 -24.016 -21.989 10.283 0.645 -2.954
2.250 -23.706 -22.102 10.535 0.642 -2.950
2.500 -23.509 -22.213 10.787 0.639 -2.946
2.750 -23.375 -22.324 11.039 0.636 -2.942
3.000 -23.272 -22.437 11.291 0.633 -2.939
3.250 -23.197 -22.554 11.543 0.631 -2.935
3.500 -23.158 -22.675 11.795 0.628 -2.932
3.750 -23.149 -22.803 12.046 0.626 -2.929
4.000 -23.109 -22.935 12.298 0.624 -2.926
4.250 -22.871 -23.072 12.549 0.623 -2.924
4.500 -22.327 -23.211 12.799 0.622 -2.923
4.750 -21.814 -23.364 13.050 0.621 -2.922
5.000 -21.473 -23.557 13.300 0.620 -2.921
5.250 -21.332 -23.918 13.551 0.619 -2.919
5.500 -21.510 -24.329 13.801 0.619 -2.919
5.750 -21.743 -24.660 14.051 0.618 -2.919
6.000 -21.827 -24.927 14.302 0.618 -2.918
6.250 -21.969 -25.234 14.552 0.618 -2.918
6.500 -22.366 -25.756 14.802 0.618 -2.918
6.750 -22.498 -26.125 15.052 0.618 -2.918
7.000 -22.465 -26.388 15.302 0.618 -2.918
7.250 -22.475 -26.662 15.552 0.618 -2.918
7.500 -22.392 -26.823 15.802 0.618 -2.918
7.750 -22.233 -26.897 16.052 0.618 -2.918
8.000 -22.049 -26.954 16.302 0.618 -2.918
8.250 -21.850 -27.016 16.552 0.618 -2.918
8.500 -21.638 -27.048 16.802 0.618 -2.918
8.750 -21.416 -27.063 17.052 0.618 -2.918
9.000 -21.186 -27.072 17.302 0.618 -2.918
