# z = 1.300000e+01
# log(Z/Zsun) = -1.000000e+00
# log(nH) = -4.000000e+00
1.000 -25.828 -22.202 9.131 0.915 -4.356
1.250 -25.541 -22.243 9.397 0.882 -4.302
1.500 -25.230 -22.291 9.664 0.849 -4.251
1.750 -24.919 -22.347 9.930 0.817 -4.204
2.000 -24.627 -22.412 10.197 0.787 -4.160
2.250 -24.347 -22.488 10.462 0.759 -4.121
2.500 -24.086 -22.576 10.727 0.734 -4.086
2.750 -23.841 -22.676 10.990 0.713 -4.057
3.000 -23.602 -22.789 11.251 0.695 -4.032
3.250 -23.362 -22.913 11.510 0.681 -4.012
3.500 -23.119 -23.049 11.767 0.669 -3.997
3.750 -22.871 -23.196 12.023 0.661 -3.986
4.000 -22.614 -23.351 12.277 0.655 -3.977
4.250 -22.181 -23.547 12.530 0.649 -3.970
4.500 -21.902 -24.199 12.785 0.642 -3.960
4.750 -21.722 -24.781 13.037 0.640 -3.958
5.000 -21.414 -24.990 13.303 0.616 -3.925
5.250 -21.270 -24.997 13.555 0.613 -3.921
5.500 -21.063 -24.998 13.805 0.613 -3.921
5.750 -20.830 -24.998 14.055 0.613 -3.921
6.000 -20.584 -25.000 14.305 0.613 -3.921
6.250 -20.335 -25.002 14.555 0.613 -3.921
6.500 -20.086 -25.003 14.805 0.613 -3.921
6.750 -19.837 -25.003 15.055 0.613 -3.921
7.000 -19.587 -25.003 15.305 0.613 -3.921
7.250 -19.337 -25.004 15.555 0.613 -3.920
7.500 -19.087 -25.004 15.805 0.613 -3.920
7.750 -18.837 -25.004 16.055 0.613 -3.920
8.000 -18.587 -25.004 16.305 0.613 -3.920
8.250 -18.337 -25.004 16.555 0.613 -3.920
8.500 -18.088 -25.005 16.805 0.613 -3.920
8.750 -17.838 -25.005 17.055 0.613 -3.920
9.000 -17.588 -25.005 17.305 0.613 -3.920
