# z = 8.000000e+00
# log(Z/Zsun) = -1.000000e+00
# log(nH) = 4.000000e+00
1.000 -30.831 -29.780 8.983 1.289 -0.635
1.250 -30.142 -29.776 9.231 1.292 -0.555
1.500 -29.620 -29.809 9.480 1.297 -0.476
1.750 -29.111 -29.857 9.731 1.294 -0.408
2.000 -28.579 -29.897 9.983 1.287 -0.352
2.250 -28.090 -29.919 10.234 1.286 -0.312
2.500 -27.699 -29.919 10.483 1.287 -0.301
2.750 -27.349 -29.909 10.733 1.287 -0.336
3.000 -26.987 -29.922 10.983 1.286 -0.441
3.250 -26.432 -29.967 11.233 1.287 -0.587
3.500 -26.447 -29.929 11.485 1.283 -0.614
3.750 -26.754 -29.687 11.735 1.282 0.163
4.000 -25.929 -29.574 11.986 1.280 1.233
4.250 -21.859 -28.092 12.467 0.751 3.890
4.500 -22.233 -27.511 12.783 0.645 4.036
4.750 -22.260 -28.128 13.037 0.640 4.043
5.000 -21.890 -27.618 13.303 0.616 4.075
5.250 -22.116 -26.981 13.555 0.613 4.079
5.500 -22.333 -26.912 13.805 0.613 4.079
5.750 -22.596 -26.882 14.055 0.613 4.079
6.000 -22.692 -27.107 14.305 0.613 4.079
6.250 -22.791 -27.425 14.555 0.613 4.079
6.500 -22.985 -27.979 14.805 0.613 4.079
6.750 -22.980 -28.158 15.055 0.613 4.079
7.000 -22.910 -28.112 15.305 0.613 4.079
7.250 -22.855 -28.241 15.555 0.613 4.080
7.500 -22.762 -28.525 15.805 0.613 4.080
7.750 -22.651 -28.701 16.055 0.613 4.080
8.000 -22.535 -28.818 16.305 0.613 4.080
8.250 -22.416 -29.088 16.555 0.613 4.080
8.500 -22.293 -29.308 16.805 0.613 4.080
8.750 -22.165 -29.519 17.055 0.613 4.080
9.000 -22.029 -29.617 17.305 0.613 4.080
