# z = 3.500000e+00
# log(Z/Zsun) = -1.000000e+00
# log(nH) = -4.000000e+00
1.000 -25.469 -21.501 9.286 0.641 -3.959
1.250 -25.305 -21.628 9.537 0.640 -3.958
1.500 -25.124 -21.752 9.787 0.639 -3.956
1.750 -24.896 -21.871 10.038 0.638 -3.954
2.000 -24.652 -21.986 10.289 0.636 -3.952
2.250 -24.454 -22.097 10.540 0.635 -3.950
2.500 -24.304 -22.204 10.792 0.633 -3.947
2.750 -24.172 -22.310 11.043 0.630 -3.944
3.000 -24.054 -22.417 11.295 0.628 -3.941
3.250 -23.952 -22.529 11.547 0.625 -3.938
3.500 -23.870 -22.647 11.798 0.623 -3.934
3.750 -23.801 -22.773 12.050 0.621 -3.931
4.000 -23.711 -22.909 12.301 0.619 -3.929
4.250 -23.549 -23.054 12.552 0.617 -3.926
4.500 -23.214 -23.208 12.803 0.616 -3.925
4.750 -22.769 -23.376 13.054 0.615 -3.923
5.000 -22.252 -23.666 13.305 0.614 -3.922
5.250 -22.190 -24.263 13.555 0.613 -3.921
5.500 -22.357 -24.680 13.805 0.613 -3.921
5.750 -22.413 -24.957 14.055 0.613 -3.921
6.000 -22.326 -25.174 14.305 0.613 -3.921
6.250 -22.191 -25.430 14.555 0.613 -3.921
6.500 -22.011 -25.807 14.805 0.613 -3.921
6.750 -21.781 -26.026 15.055 0.613 -3.921
7.000 -21.540 -26.150 15.305 0.613 -3.921
7.250 -21.296 -26.242 15.555 0.613 -3.920
7.500 -21.050 -26.283 15.805 0.613 -3.920
7.750 -20.802 -26.300 16.055 0.613 -3.920
8.000 -20.554 -26.310 16.305 0.613 -3.920
8.250 -20.305 -26.317 16.555 0.613 -3.920
8.500 -20.057 -26.320 16.805 0.613 -3.920
8.750 -19.807 -26.322 17.055 0.613 -3.920
9.000 -19.558 -26.322 17.305 0.613 -3.920
