# z = 1.200000e+01
# log(Z/Zsun) = -5.000000e-01
# log(nH) = -2.000000e+00
1.000 -29.001 -24.912 8.990 1.268 -3.822
1.250 -28.078 -24.902 9.241 1.265 -3.750
1.500 -27.180 -24.891 9.492 1.261 -3.677
1.750 -26.634 -24.880 9.744 1.257 -3.604
2.000 -26.260 -24.868 9.995 1.252 -3.530
2.250 -25.928 -24.857 10.247 1.245 -3.456
2.500 -25.664 -24.847 10.500 1.238 -3.380
2.750 -25.487 -24.836 10.753 1.230 -3.304
3.000 -25.362 -24.825 11.007 1.219 -3.227
3.250 -25.255 -24.815 11.261 1.207 -3.149
3.500 -25.115 -24.805 11.516 1.193 -3.070
3.750 -24.882 -24.795 11.772 1.176 -2.990
4.000 -24.081 -24.783 12.030 1.155 -2.907
4.250 -21.845 -24.684 12.467 0.752 -2.108
4.500 -22.130 -24.667 12.779 0.652 -1.971
4.750 -21.996 -24.672 13.035 0.642 -1.957
5.000 -21.632 -24.656 13.302 0.618 -1.925
5.250 -21.725 -24.652 13.554 0.615 -1.921
5.500 -21.893 -24.651 13.804 0.614 -1.920
5.750 -22.126 -24.652 14.054 0.614 -1.920
6.000 -22.151 -24.654 14.304 0.614 -1.920
6.250 -22.140 -24.654 14.555 0.614 -1.920
6.500 -22.102 -24.655 14.805 0.614 -1.920
6.750 -21.907 -24.655 15.055 0.614 -1.920
7.000 -21.678 -24.655 15.305 0.614 -1.920
7.250 -21.445 -24.655 15.555 0.614 -1.920
7.500 -21.202 -24.655 15.805 0.614 -1.920
7.750 -20.956 -24.655 16.055 0.614 -1.920
8.000 -20.708 -24.655 16.305 0.614 -1.920
8.250 -20.460 -24.655 16.555 0.614 -1.920
8.500 -20.211 -24.655 16.805 0.614 -1.920
8.750 -19.962 -24.655 17.055 0.614 -1.920
9.000 -19.713 -24.655 17.305 0.614 -1.920
