# z = 1.000000e+01
# log(Z/Zsun) = -3.000000e+00
# log(nH) = -4.000000e+00
1.000 -25.575 -21.670 9.233 0.725 -4.074
1.250 -25.371 -21.767 9.494 0.706 -4.048
1.500 -25.162 -21.874 9.754 0.690 -4.027
1.750 -24.939 -21.991 10.012 0.678 -4.010
2.000 -24.729 -22.117 10.268 0.668 -3.996
2.250 -24.525 -22.251 10.523 0.660 -3.986
2.500 -24.328 -22.392 10.777 0.655 -3.978
2.750 -24.126 -22.540 11.030 0.650 -3.973
3.000 -23.918 -22.693 11.282 0.647 -3.968
3.250 -23.701 -22.851 11.533 0.645 -3.965
3.500 -23.477 -23.015 11.784 0.643 -3.963
3.750 -23.247 -23.182 12.035 0.642 -3.962
4.000 -23.010 -23.355 12.285 0.642 -3.961
4.250 -22.707 -23.536 12.536 0.641 -3.960
4.500 -22.294 -23.900 12.786 0.641 -3.959
4.750 -22.075 -24.526 13.037 0.639 -3.958
5.000 -21.745 -25.270 13.304 0.615 -3.925
5.250 -21.694 -25.468 13.556 0.612 -3.921
5.500 -21.489 -25.501 13.806 0.612 -3.921
5.750 -21.250 -25.511 14.056 0.612 -3.921
6.000 -21.003 -25.514 14.306 0.612 -3.921
6.250 -20.755 -25.516 14.556 0.612 -3.921
6.500 -20.505 -25.516 14.806 0.612 -3.921
6.750 -20.256 -25.517 15.056 0.612 -3.921
7.000 -20.006 -25.517 15.306 0.612 -3.921
7.250 -19.756 -25.517 15.556 0.612 -3.921
7.500 -19.506 -25.517 15.806 0.612 -3.921
7.750 -19.256 -25.517 16.056 0.612 -3.921
8.000 -19.006 -25.518 16.306 0.612 -3.921
8.250 -18.757 -25.518 16.556 0.612 -3.921
8.500 -18.507 -25.518 16.806 0.612 -3.921
8.750 -18.257 -25.518 17.056 0.612 -3.921
9.000 -18.007 -25.518 17.306 0.612 -3.921
