# z = 1.000000e+01
# log(Z/Zsun) = -1.000000e+01
# log(nH) = -2.000000e+00
1.000 -28.626 -24.527 8.996 1.249 -3.556
1.250 -28.351 -24.523 9.248 1.243 -3.484
1.500 -28.065 -24.519 9.501 1.237 -3.411
1.750 -27.753 -24.516 9.753 1.229 -3.337
2.000 -27.456 -24.513 10.007 1.220 -3.263
2.250 -27.170 -24.510 10.260 1.209 -3.188
2.500 -26.900 -24.508 10.515 1.196 -3.113
2.750 -26.634 -24.507 10.770 1.181 -3.037
3.000 -26.366 -24.507 11.027 1.164 -2.960
3.250 -26.096 -24.507 11.284 1.144 -2.883
3.500 -25.824 -24.508 11.543 1.121 -2.806
3.750 -25.548 -24.509 11.804 1.094 -2.728
4.000 -24.083 -24.511 12.066 1.063 -2.648
4.250 -21.867 -24.588 12.471 0.745 -2.102
4.500 -22.257 -24.660 12.781 0.649 -1.971
4.750 -22.435 -24.675 13.037 0.639 -1.958
5.000 -22.080 -24.659 13.304 0.615 -1.925
5.250 -22.545 -24.653 13.558 0.609 -1.917
5.500 -22.820 -24.657 13.806 0.612 -1.921
5.750 -22.884 -24.657 14.056 0.612 -1.921
6.000 -22.798 -24.657 14.306 0.612 -1.921
6.250 -22.628 -24.657 14.556 0.612 -1.921
6.500 -22.421 -24.657 14.806 0.612 -1.921
6.750 -22.197 -24.657 15.056 0.612 -1.921
7.000 -21.964 -24.657 15.306 0.612 -1.921
7.250 -21.725 -24.657 15.556 0.612 -1.921
7.500 -21.484 -24.657 15.806 0.612 -1.921
7.750 -21.239 -24.657 16.056 0.612 -1.921
8.000 -20.994 -24.657 16.306 0.612 -1.921
8.250 -20.747 -24.657 16.556 0.612 -1.921
8.500 -20.499 -24.657 16.806 0.612 -1.921
8.750 -20.251 -24.657 17.056 0.612 -1.921
9.000 -20.002 -24.657 17.306 0.612 -1.921
