# z = 1.000000e+01
# log(Z/Zsun) = -3.000000e+00
# log(nH) = -1.000000e+00
1.000 -30.414 -26.036 8.987 1.276 -3.446
1.250 -30.123 -26.016 9.237 1.275 -3.376
1.500 -29.786 -25.996 9.487 1.274 -3.305
1.750 -29.423 -25.975 9.738 1.273 -3.235
2.000 -29.061 -25.954 9.988 1.272 -3.164
2.250 -28.613 -25.933 10.239 1.271 -3.092
2.500 -27.983 -25.911 10.489 1.269 -3.019
2.750 -27.207 -25.889 10.740 1.267 -2.946
3.000 -26.457 -25.867 10.991 1.265 -2.873
3.250 -25.855 -25.845 11.241 1.263 -2.798
3.500 -25.472 -25.822 11.492 1.260 -2.724
3.750 -25.561 -25.801 11.744 1.256 -2.657
4.000 -24.899 -25.773 11.996 1.249 -2.561
4.250 -21.864 -25.409 12.467 0.751 -1.110
4.500 -22.258 -25.345 12.780 0.649 -0.971
4.750 -22.438 -25.342 13.037 0.639 -0.958
5.000 -22.082 -25.326 13.304 0.615 -0.925
5.250 -22.566 -25.324 13.556 0.612 -0.921
5.500 -22.897 -25.324 13.806 0.612 -0.921
5.750 -23.084 -25.324 14.056 0.612 -0.921
6.000 -23.143 -25.324 14.306 0.612 -0.921
6.250 -23.103 -25.324 14.556 0.612 -0.921
6.500 -23.003 -25.324 14.806 0.612 -0.921
6.750 -22.864 -25.324 15.056 0.612 -0.921
7.000 -22.699 -25.324 15.306 0.612 -0.921
7.250 -22.517 -25.324 15.556 0.612 -0.921
7.500 -22.320 -25.324 15.806 0.612 -0.921
7.750 -22.112 -25.324 16.056 0.612 -0.921
8.000 -21.895 -25.324 16.306 0.612 -0.921
8.250 -21.671 -25.324 16.556 0.612 -0.921
8.500 -21.441 -25.324 16.806 0.612 -0.921
8.750 -21.206 -25.324 17.056 0.612 -0.921
9.000 -20.967 -25.324 17.306 0.612 -0.921
