# z = 2.750000e+00
# log(Z/Zsun) = 0.000000e+00
# log(nH) = -6.000000e+00
1.000 -25.194 -20.949 9.301 0.619 -5.920
1.250 -25.012 -21.074 9.551 0.619 -5.920
1.500 -24.840 -21.199 9.801 0.619 -5.919
1.750 -24.671 -21.321 10.051 0.619 -5.919
2.000 -24.496 -21.441 10.301 0.619 -5.919
2.250 -24.314 -21.556 10.551 0.618 -5.919
2.500 -24.119 -21.651 10.802 0.618 -5.919
2.750 -23.907 -21.744 11.052 0.618 -5.919
3.000 -23.701 -21.836 11.302 0.618 -5.918
3.250 -23.492 -21.924 11.552 0.618 -5.918
3.500 -23.266 -22.012 11.802 0.618 -5.918
3.750 -23.030 -22.101 12.052 0.618 -5.918
4.000 -22.797 -22.207 12.302 0.618 -5.918
4.250 -22.572 -22.354 12.552 0.618 -5.918
4.500 -22.344 -22.551 12.802 0.618 -5.918
4.750 -22.104 -22.725 13.052 0.618 -5.918
5.000 -21.857 -22.858 13.302 0.618 -5.918
5.250 -21.609 -22.982 13.552 0.618 -5.918
5.500 -21.363 -23.113 13.802 0.618 -5.918
5.750 -21.116 -23.240 14.052 0.618 -5.918
6.000 -20.869 -23.348 14.302 0.618 -5.918
6.250 -20.620 -23.429 14.552 0.618 -5.918
6.500 -20.371 -23.489 14.802 0.618 -5.918
6.750 -20.121 -23.577 15.052 0.618 -5.918
7.000 -19.872 -23.764 15.302 0.618 -5.918
7.250 -19.623 -23.979 15.552 0.618 -5.918
7.500 -19.373 -24.073 15.802 0.618 -5.918
7.750 -19.123 -24.120 16.052 0.618 -5.918
8.000 -18.875 -24.160 16.302 0.618 -5.918
8.250 -18.627 -24.188 16.552 0.618 -5.918
8.500 -18.384 -24.207 16.802 0.618 -5.918
8.750 -18.139 -24.218 17.052 0.618 -5.918
9.000 -17.889 -24.221 17.302 0.618 -5.918
