# z = 1.500000e+00
# log(Z/Zsun) = 1.000000e+00
# log(nH) = -6.000000e+00
1.000 -24.998 -20.486 9.264 0.674 -5.902
1.250 -24.888 -20.575 9.515 0.673 -5.901
1.500 -24.771 -20.658 9.765 0.672 -5.900
1.750 -24.649 -20.734 10.015 0.672 -5.900
2.000 -24.520 -20.806 10.266 0.671 -5.899
2.250 -24.378 -20.871 10.516 0.671 -5.898
2.500 -24.181 -20.907 10.766 0.671 -5.898
2.750 -23.888 -20.948 11.016 0.670 -5.898
3.000 -23.683 -20.994 11.267 0.670 -5.897
3.250 -23.490 -21.043 11.517 0.669 -5.897
3.500 -23.224 -21.099 11.767 0.669 -5.896
3.750 -22.935 -21.162 12.018 0.668 -5.895
4.000 -22.731 -21.247 12.268 0.668 -5.895
4.250 -22.642 -21.380 12.519 0.667 -5.894
4.500 -22.626 -21.567 12.769 0.667 -5.893
4.750 -22.513 -21.727 13.019 0.666 -5.892
5.000 -22.273 -21.844 13.270 0.666 -5.892
5.250 -22.024 -21.953 13.520 0.665 -5.892
5.500 -21.833 -22.069 13.770 0.665 -5.891
5.750 -21.662 -22.184 14.020 0.665 -5.891
6.000 -21.463 -22.285 14.270 0.665 -5.891
6.250 -21.242 -22.369 14.520 0.664 -5.890
6.500 -21.008 -22.437 14.770 0.664 -5.890
6.750 -20.769 -22.546 15.021 0.664 -5.890
7.000 -20.532 -22.822 15.271 0.664 -5.889
7.250 -20.290 -23.152 15.521 0.663 -5.889
7.500 -20.043 -23.350 15.771 0.663 -5.889
7.750 -19.794 -23.494 16.021 0.663 -5.889
8.000 -19.545 -23.649 16.271 0.663 -5.889
8.250 -19.296 -23.785 16.521 0.663 -5.889
8.500 -19.047 -23.870 16.771 0.663 -5.889
8.750 -18.798 -23.916 17.021 0.663 -5.889
9.000 -18.551 -23.943 17.271 0.663 -5.889
