# z = 1.200000e+01
# log(Z/Zsun) = -3.000000e+00
# log(nH) = -1.000000e+00
1.000 -30.412 -26.053 8.987 1.276 -3.461
1.250 -30.126 -26.033 9.237 1.276 -3.391
1.500 -29.795 -26.012 9.487 1.275 -3.321
1.750 -29.435 -25.991 9.738 1.274 -3.251
2.000 -29.066 -25.970 9.988 1.273 -3.180
2.250 -28.602 -25.948 10.239 1.271 -3.108
2.500 -27.948 -25.926 10.489 1.270 -3.036
2.750 -27.159 -25.904 10.740 1.268 -2.964
3.000 -26.406 -25.881 10.990 1.266 -2.890
3.250 -25.804 -25.858 11.241 1.264 -2.816
3.500 -25.424 -25.835 11.492 1.261 -2.743
3.750 -25.538 -25.815 11.744 1.257 -2.677
4.000 -24.915 -25.785 11.996 1.250 -2.581
4.250 -21.864 -25.409 12.467 0.751 -1.110
4.500 -22.257 -25.345 12.780 0.649 -0.971
4.750 -22.437 -25.341 13.037 0.639 -0.958
5.000 -22.082 -25.326 13.304 0.615 -0.925
5.250 -22.564 -25.324 13.556 0.612 -0.921
5.500 -22.887 -25.324 13.806 0.612 -0.921
5.750 -23.057 -25.324 14.056 0.612 -0.921
6.000 -23.090 -25.324 14.306 0.612 -0.921
6.250 -23.019 -25.324 14.556 0.612 -0.921
6.500 -22.890 -25.324 14.806 0.612 -0.921
6.750 -22.722 -25.324 15.056 0.612 -0.921
7.000 -22.532 -25.324 15.306 0.612 -0.921
7.250 -22.327 -25.324 15.556 0.612 -0.921
7.500 -22.111 -25.324 15.806 0.612 -0.921
7.750 -21.886 -25.324 16.056 0.612 -0.921
8.000 -21.656 -25.324 16.306 0.612 -0.921
8.250 -21.420 -25.324 16.556 0.612 -0.921
8.500 -21.181 -25.324 16.806 0.612 -0.921
8.750 -20.940 -25.324 17.056 0.612 -0.921
9.000 -20.695 -25.324 17.306 0.612 -0.921
