# z = 1.300000e+01
# log(Z/Zsun) = 5.000000e-01
# log(nH) = -1.000000e+00
1.000 -30.055 -26.003 8.971 1.325 -3.459
1.250 -28.329 -25.988 9.221 1.324 -3.391
1.500 -27.200 -25.966 9.471 1.324 -3.322
1.750 -26.665 -25.943 9.721 1.323 -3.252
2.000 -26.185 -25.918 9.972 1.321 -3.182
2.250 -25.716 -25.892 10.222 1.320 -3.110
2.500 -25.365 -25.863 10.473 1.318 -3.038
2.750 -25.137 -25.834 10.723 1.316 -2.965
3.000 -24.981 -25.805 10.974 1.314 -2.891
3.250 -24.857 -25.777 11.225 1.312 -2.819
3.500 -24.720 -25.748 11.476 1.308 -2.750
3.750 -24.498 -25.720 11.727 1.305 -2.681
4.000 -24.034 -25.689 11.979 1.300 -2.603
4.250 -21.702 -25.058 12.451 0.780 -1.109
4.500 -21.619 -25.048 12.764 0.674 -0.970
4.750 -21.170 -25.206 13.021 0.663 -0.955
5.000 -20.800 -25.223 13.288 0.638 -0.922
5.250 -20.789 -25.260 13.541 0.634 -0.917
5.500 -20.949 -25.261 13.792 0.632 -0.915
5.750 -21.235 -25.283 14.042 0.632 -0.914
6.000 -21.330 -25.293 14.293 0.631 -0.914
6.250 -21.472 -25.295 14.543 0.630 -0.913
6.500 -21.885 -25.298 14.794 0.630 -0.912
6.750 -22.005 -25.300 15.044 0.629 -0.911
7.000 -21.968 -25.302 15.294 0.629 -0.911
7.250 -22.021 -25.306 15.544 0.629 -0.911
7.500 -21.917 -25.307 15.794 0.629 -0.911
7.750 -21.723 -25.308 16.044 0.629 -0.911
8.000 -21.506 -25.309 16.294 0.629 -0.911
8.250 -21.279 -25.311 16.544 0.629 -0.910
8.500 -21.043 -25.312 16.794 0.629 -0.910
8.750 -20.802 -25.313 17.044 0.629 -0.910
9.000 -20.558 -25.313 17.294 0.629 -0.910
