# z = 1.200000e+01
# log(Z/Zsun) = -2.000000e+00
# log(nH) = 0.000000e+00
1.000 -31.109 -26.813 8.986 1.279 -2.783
1.250 -30.534 -26.794 9.236 1.278 -2.712
1.500 -29.789 -26.774 9.486 1.278 -2.641
1.750 -29.389 -26.754 9.736 1.278 -2.569
2.000 -28.852 -26.733 9.986 1.278 -2.497
2.250 -28.048 -26.711 10.236 1.278 -2.424
2.500 -27.148 -26.689 10.486 1.278 -2.350
2.750 -26.279 -26.666 10.736 1.279 -2.277
3.000 -25.514 -26.642 10.985 1.282 -2.202
3.250 -24.941 -26.617 11.233 1.287 -2.129
3.500 -24.856 -26.597 11.485 1.281 -2.068
3.750 -25.544 -26.574 11.739 1.270 -1.994
4.000 -25.175 -26.536 11.991 1.265 -1.876
4.250 -21.864 -26.070 12.467 0.751 -0.110
4.500 -22.254 -25.996 12.780 0.649 0.029
4.750 -22.417 -26.004 13.037 0.639 0.042
5.000 -22.061 -25.990 13.304 0.615 0.075
5.250 -22.502 -25.985 13.556 0.612 0.079
5.500 -22.808 -25.984 13.806 0.612 0.079
5.750 -23.026 -25.985 14.056 0.612 0.079
6.000 -23.114 -25.986 14.306 0.612 0.079
6.250 -23.131 -25.988 14.556 0.612 0.079
6.500 -23.111 -25.990 14.806 0.612 0.079
6.750 -23.026 -25.991 15.056 0.612 0.079
7.000 -22.912 -25.991 15.306 0.612 0.079
7.250 -22.785 -25.991 15.556 0.612 0.079
7.500 -22.642 -25.991 15.806 0.612 0.079
7.750 -22.486 -25.991 16.056 0.612 0.079
8.000 -22.319 -25.991 16.306 0.612 0.079
8.250 -22.142 -25.991 16.556 0.612 0.079
8.500 -21.954 -25.991 16.806 0.612 0.079
8.750 -21.755 -25.991 17.056 0.612 0.079
9.000 -21.545 -25.991 17.306 0.612 0.079
