# z = 2.500000e-01
# log(Z/Zsun) = -1.000000e+01
# log(nH) = -1.000000e+00
1.000 -29.836 -25.727 8.988 1.272 -3.171
1.250 -29.558 -25.715 9.239 1.271 -3.098
1.500 -29.280 -25.702 9.489 1.269 -3.025
1.750 -29.003 -25.688 9.740 1.267 -2.952
2.000 -28.698 -25.675 9.991 1.265 -2.877
2.250 -28.258 -25.661 10.242 1.262 -2.802
2.500 -27.537 -25.646 10.493 1.259 -2.726
2.750 -26.689 -25.632 10.744 1.256 -2.649
3.000 -25.909 -25.617 10.995 1.252 -2.571
3.250 -25.301 -25.602 11.247 1.247 -2.492
3.500 -25.197 -25.587 11.500 1.240 -2.413
3.750 -25.788 -25.572 11.753 1.229 -2.334
4.000 -24.615 -25.554 12.008 1.217 -2.242
4.250 -21.865 -25.383 12.468 0.750 -1.110
4.500 -22.258 -25.343 12.780 0.649 -0.971
4.750 -22.441 -25.341 13.037 0.639 -0.958
5.000 -22.086 -25.326 13.304 0.615 -0.925
5.250 -22.577 -25.324 13.556 0.612 -0.921
5.500 -22.915 -25.320 13.808 0.609 -0.917
5.750 -23.124 -25.324 14.056 0.612 -0.921
6.000 -23.217 -25.324 14.306 0.612 -0.921
6.250 -23.219 -25.324 14.556 0.612 -0.921
6.500 -23.169 -25.324 14.806 0.612 -0.921
6.750 -23.091 -25.325 15.056 0.612 -0.921
7.000 -22.996 -25.325 15.306 0.612 -0.921
7.250 -22.890 -25.325 15.556 0.612 -0.921
7.500 -22.778 -25.325 15.806 0.612 -0.921
7.750 -22.662 -25.325 16.056 0.612 -0.921
8.000 -22.543 -25.325 16.306 0.612 -0.921
8.250 -22.421 -25.325 16.556 0.612 -0.921
8.500 -22.297 -25.325 16.806 0.612 -0.921
8.750 -22.169 -25.325 17.056 0.612 -0.921
9.000 -22.032 -25.325 17.306 0.612 -0.921
