# z = 1.500000e+01
# log(Z/Zsun) = 1.000000e+00
# log(nH) = -2.000000e+00
1.000 -28.492 -25.017 8.940 1.422 -4.005
1.250 -26.881 -25.012 9.190 1.420 -3.948
1.500 -25.919 -25.006 9.441 1.418 -3.888
1.750 -25.372 -24.998 9.692 1.415 -3.827
2.000 -25.002 -24.990 9.943 1.413 -3.764
2.250 -24.673 -24.980 10.194 1.409 -3.699
2.500 -24.414 -24.969 10.445 1.405 -3.632
2.750 -24.243 -24.956 10.697 1.400 -3.564
3.000 -24.129 -24.942 10.948 1.394 -3.494
3.250 -24.036 -24.927 11.201 1.387 -3.423
3.500 -23.913 -24.909 11.453 1.379 -3.351
3.750 -23.700 -24.889 11.706 1.370 -3.278
4.000 -23.267 -24.870 11.959 1.360 -3.214
4.250 -21.477 -24.409 12.418 0.842 -2.107
4.500 -21.189 -24.402 12.731 0.728 -1.967
4.750 -20.681 -24.534 12.989 0.714 -1.951
5.000 -20.309 -24.556 13.257 0.685 -1.916
5.250 -20.284 -24.606 13.511 0.679 -1.908
5.500 -20.439 -24.611 13.764 0.675 -1.903
5.750 -20.720 -24.620 14.015 0.673 -1.900
6.000 -20.808 -24.620 14.266 0.671 -1.898
6.250 -20.934 -24.617 14.518 0.669 -1.895
6.500 -21.270 -24.615 14.769 0.666 -1.892
6.750 -21.279 -24.615 15.020 0.665 -1.891
7.000 -21.143 -24.616 15.270 0.664 -1.890
7.250 -21.012 -24.618 15.521 0.664 -1.889
7.500 -20.800 -24.618 15.771 0.663 -1.889
7.750 -20.560 -24.619 16.021 0.663 -1.889
8.000 -20.315 -24.620 16.271 0.663 -1.889
8.250 -20.069 -24.621 16.521 0.663 -1.889
8.500 -19.820 -24.622 16.771 0.663 -1.889
8.750 -19.571 -24.622 17.021 0.663 -1.889
9.000 -19.322 -24.622 17.271 0.663 -1.889
