# z = 6.000000e+00
# log(Z/Zsun) = -1.000000e+01
# log(nH) = 3.000000e+00
1.000 -33.736 -29.681 8.983 1.288 -1.096
1.250 -33.439 -29.678 9.232 1.290 -1.022
1.500 -32.605 -29.676 9.482 1.292 -0.947
1.750 -31.403 -29.666 9.730 1.296 -0.872
2.000 -29.896 -29.652 9.978 1.303 -0.797
2.250 -28.428 -29.635 10.222 1.320 -0.722
2.500 -27.119 -29.612 10.462 1.350 -0.647
2.750 -26.021 -29.581 10.695 1.404 -0.575
3.000 -25.169 -29.543 10.921 1.486 -0.511
3.250 -24.584 -29.527 11.161 1.521 -0.484
3.500 -25.544 -29.566 11.482 1.291 -0.358
3.750 -26.860 -29.544 11.736 1.280 -0.245
4.000 -26.029 -29.428 11.986 1.278 0.296
4.250 -21.864 -28.357 12.467 0.750 2.890
4.500 -22.267 -27.340 12.783 0.646 3.033
4.750 -22.449 -27.924 13.037 0.639 3.042
5.000 -22.086 -28.290 13.304 0.615 3.075
5.250 -22.577 -28.315 13.556 0.612 3.079
5.500 -22.920 -28.292 13.806 0.612 3.079
5.750 -23.124 -28.325 14.056 0.612 3.079
6.000 -23.217 -28.403 14.306 0.612 3.079
6.250 -23.219 -28.483 14.556 0.612 3.079
6.500 -23.169 -28.549 14.806 0.612 3.079
6.750 -23.091 -28.599 15.056 0.612 3.079
7.000 -22.996 -28.628 15.306 0.612 3.079
7.250 -22.890 -28.644 15.556 0.612 3.079
7.500 -22.778 -28.652 15.806 0.612 3.079
7.750 -22.662 -28.655 16.056 0.612 3.079
8.000 -22.543 -28.657 16.306 0.612 3.079
8.250 -22.422 -28.657 16.556 0.612 3.079
8.500 -22.297 -28.658 16.806 0.612 3.079
8.750 -22.169 -28.658 17.056 0.612 3.079
9.000 -22.032 -28.658 17.306 0.612 3.079
