# z = 2.500000e-01
# log(Z/Zsun) = -5.000000e-01
# log(nH) = 3.000000e+00
1.000 -29.430 -29.696 8.984 1.285 -1.132
1.250 -28.916 -29.698 9.234 1.286 -1.052
1.500 -28.529 -29.699 9.483 1.286 -0.974
1.750 -28.203 -29.696 9.733 1.288 -0.898
2.000 -27.845 -29.688 9.983 1.287 -0.828
2.250 -27.451 -29.679 10.233 1.287 -0.766
2.500 -27.100 -29.671 10.483 1.287 -0.716
2.750 -26.783 -29.666 10.733 1.288 -0.688
3.000 -26.482 -29.666 10.983 1.287 -0.708
3.250 -26.211 -29.665 11.233 1.287 -0.761
3.500 -26.052 -29.635 11.484 1.286 -0.860
3.750 -26.085 -29.626 11.734 1.285 -0.593
4.000 -25.642 -29.407 11.985 1.283 0.228
4.250 -21.846 -27.905 12.466 0.753 2.890
4.500 -22.142 -28.162 12.781 0.649 3.033
4.750 -22.004 -28.016 13.035 0.642 3.043
5.000 -21.637 -27.111 13.302 0.618 3.075
5.250 -21.733 -26.666 13.554 0.615 3.079
5.500 -21.915 -26.567 13.804 0.614 3.080
5.750 -22.193 -26.714 14.054 0.614 3.080
6.000 -22.290 -26.926 14.304 0.614 3.080
6.250 -22.418 -27.182 14.555 0.614 3.080
6.500 -22.743 -27.600 14.805 0.614 3.080
6.750 -22.808 -27.707 15.055 0.614 3.080
7.000 -22.768 -27.675 15.305 0.614 3.080
7.250 -22.787 -27.823 15.555 0.614 3.080
7.500 -22.728 -27.984 15.805 0.614 3.080
7.750 -22.627 -28.106 16.055 0.614 3.080
8.000 -22.517 -28.193 16.305 0.614 3.080
8.250 -22.403 -28.380 16.555 0.614 3.080
8.500 -22.283 -28.500 16.805 0.614 3.080
8.750 -22.157 -28.574 17.055 0.614 3.080
9.000 -22.021 -28.624 17.305 0.614 3.080
