# z = 7.000000e+00
# log(Z/Zsun) = 1.000000e+00
# log(nH) = -2.000000e+00
1.000 -27.758 -24.156 8.954 1.376 -3.325
1.250 -26.222 -24.156 9.207 1.366 -3.254
1.500 -25.255 -24.158 9.461 1.354 -3.183
1.750 -24.690 -24.160 9.715 1.341 -3.111
2.000 -24.300 -24.163 9.970 1.325 -3.039
2.250 -23.959 -24.167 10.226 1.307 -2.966
2.500 -23.694 -24.172 10.484 1.286 -2.892
2.750 -23.521 -24.179 10.742 1.262 -2.819
3.000 -23.406 -24.187 11.001 1.234 -2.745
3.250 -23.317 -24.196 11.262 1.203 -2.671
3.500 -23.199 -24.207 11.525 1.169 -2.598
3.750 -22.970 -24.220 11.789 1.131 -2.525
4.000 -22.501 -24.233 12.055 1.090 -2.455
4.250 -21.474 -24.390 12.425 0.827 -2.089
4.500 -21.191 -24.568 12.731 0.727 -1.966
4.750 -20.682 -24.639 12.989 0.714 -1.951
5.000 -20.309 -24.617 13.257 0.685 -1.916
5.250 -20.285 -24.614 13.511 0.679 -1.908
5.500 -20.441 -24.615 13.764 0.675 -1.903
5.750 -20.726 -24.623 14.015 0.673 -1.900
6.000 -20.820 -24.624 14.266 0.671 -1.898
6.250 -20.964 -24.620 14.518 0.669 -1.895
6.500 -21.401 -24.618 14.769 0.666 -1.892
6.750 -21.559 -24.619 15.020 0.665 -1.891
7.000 -21.561 -24.619 15.270 0.664 -1.890
7.250 -21.739 -24.622 15.521 0.664 -1.889
7.500 -21.747 -24.622 15.771 0.663 -1.889
7.750 -21.602 -24.623 16.021 0.663 -1.889
8.000 -21.413 -24.623 16.271 0.663 -1.889
8.250 -21.206 -24.625 16.521 0.663 -1.889
8.500 -20.980 -24.625 16.771 0.663 -1.889
8.750 -20.744 -24.626 17.021 0.663 -1.889
9.000 -20.502 -24.626 17.271 0.663 -1.889
