# z = 6.000000e+00
# log(Z/Zsun) = -1.000000e+00
# log(nH) = 0.000000e+00
1.000 -30.351 -26.800 8.986 1.280 -2.775
1.250 -29.101 -26.782 9.236 1.280 -2.705
1.500 -28.625 -26.762 9.486 1.280 -2.633
1.750 -28.314 -26.742 9.736 1.279 -2.561
2.000 -27.948 -26.722 9.986 1.279 -2.489
2.250 -27.438 -26.700 10.236 1.279 -2.416
2.500 -26.899 -26.678 10.486 1.279 -2.342
2.750 -26.287 -26.656 10.736 1.279 -2.269
3.000 -25.651 -26.633 10.985 1.281 -2.196
3.250 -25.224 -26.610 11.235 1.281 -2.127
3.500 -25.181 -26.589 11.487 1.277 -2.065
3.750 -25.504 -26.564 11.739 1.271 -1.988
4.000 -25.083 -26.525 11.990 1.266 -1.867
4.250 -21.858 -26.063 12.467 0.751 -0.110
4.500 -22.215 -26.007 12.780 0.650 0.029
4.750 -22.249 -26.006 13.037 0.640 0.042
5.000 -21.888 -25.983 13.303 0.616 0.075
5.250 -22.116 -25.949 13.555 0.613 0.079
5.500 -22.331 -25.942 13.805 0.613 0.079
5.750 -22.595 -25.942 14.055 0.613 0.079
6.000 -22.691 -25.962 14.305 0.613 0.079
6.250 -22.790 -25.975 14.555 0.613 0.079
6.500 -22.983 -25.987 14.805 0.613 0.079
6.750 -22.977 -25.988 15.055 0.613 0.079
7.000 -22.905 -25.988 15.305 0.613 0.079
7.250 -22.846 -25.989 15.555 0.613 0.080
7.500 -22.749 -25.990 15.805 0.613 0.080
7.750 -22.633 -25.990 16.055 0.613 0.080
8.000 -22.511 -25.990 16.305 0.613 0.080
8.250 -22.384 -25.991 16.555 0.613 0.080
8.500 -22.251 -25.991 16.805 0.613 0.080
8.750 -22.111 -25.991 17.055 0.613 0.080
9.000 -21.960 -25.991 17.305 0.613 0.080
