# z = 9.000000e+00
# log(Z/Zsun) = -5.000000e-01
# log(nH) = -6.000000e+00
1.000 -24.187 -21.445 9.285 0.643 -5.959
1.250 -23.942 -21.591 9.535 0.643 -5.959
1.500 -23.693 -21.739 9.785 0.643 -5.959
1.750 -23.435 -21.887 10.035 0.643 -5.959
2.000 -23.180 -22.037 10.285 0.643 -5.958
2.250 -22.931 -22.187 10.535 0.643 -5.958
2.500 -22.687 -22.338 10.785 0.642 -5.958
2.750 -22.444 -22.488 11.035 0.642 -5.958
3.000 -22.200 -22.636 11.285 0.642 -5.958
3.250 -21.954 -22.782 11.535 0.642 -5.958
3.500 -21.706 -22.922 11.785 0.642 -5.958
3.750 -21.457 -23.056 12.035 0.642 -5.958
4.000 -21.208 -23.179 12.285 0.642 -5.958
4.250 -20.957 -23.290 12.535 0.642 -5.958
4.500 -20.704 -23.384 12.785 0.642 -5.958
4.750 -20.448 -23.460 13.036 0.641 -5.957
5.000 -20.162 -23.535 13.302 0.617 -5.925
5.250 -19.915 -23.594 13.554 0.615 -5.921
5.500 -19.669 -23.627 13.804 0.614 -5.920
5.750 -19.420 -23.643 14.054 0.614 -5.920
6.000 -19.171 -23.654 14.304 0.614 -5.920
6.250 -18.921 -23.667 14.555 0.614 -5.920
6.500 -18.671 -23.685 14.805 0.614 -5.920
6.750 -18.421 -23.693 15.055 0.614 -5.920
7.000 -18.171 -23.699 15.305 0.614 -5.920
7.250 -17.923 -23.707 15.555 0.614 -5.920
7.500 -17.674 -23.712 15.805 0.614 -5.920
7.750 -17.425 -23.714 16.055 0.614 -5.920
8.000 -17.178 -23.718 16.305 0.614 -5.920
8.250 -16.936 -23.727 16.555 0.614 -5.920
8.500 -16.688 -23.728 16.805 0.614 -5.920
8.750 -16.438 -23.728 17.055 0.614 -5.920
9.000 -16.188 -23.729 17.305 0.614 -5.920
