# z = 8.000000e+00
# log(Z/Zsun) = 1.000000e+00
# log(nH) = 5.000000e+00
1.000 -32.146 -27.661 8.933 1.443 -0.455
1.250 -29.857 -27.940 9.183 1.445 -0.333
1.500 -27.904 -29.089 9.430 1.456 -0.143
1.750 -27.167 -29.146 9.669 1.492 -0.001
2.000 -26.654 -29.221 9.908 1.530 0.106
2.250 -26.212 -29.190 10.143 1.583 0.209
2.500 -25.816 -29.151 10.406 1.537 0.269
2.750 -25.414 -29.105 10.684 1.443 0.314
3.000 -24.922 -28.861 10.926 1.468 0.302
3.250 -24.158 -28.613 11.156 1.538 0.360
3.500 -24.028 -28.508 11.435 1.439 0.574
3.750 -24.364 -28.556 11.685 1.438 0.945
4.000 -24.876 -28.472 11.936 1.433 1.907
4.250 -21.554 -26.245 12.418 0.841 4.894
4.500 -21.284 -25.757 12.735 0.721 5.041
4.750 -20.699 -25.796 12.989 0.714 5.049
5.000 -20.316 -25.588 13.257 0.685 5.085
5.250 -20.287 -25.785 13.511 0.679 5.092
5.500 -20.452 -25.832 13.764 0.675 5.097
5.750 -20.732 -25.206 14.015 0.673 5.100
6.000 -20.830 -25.307 14.266 0.671 5.102
6.250 -20.967 -26.149 14.518 0.669 5.105
6.500 -21.412 -26.228 14.769 0.666 5.108
6.750 -21.585 -26.297 15.020 0.665 5.109
7.000 -21.610 -26.374 15.270 0.664 5.110
7.250 -21.886 -26.583 15.521 0.664 5.111
7.500 -22.067 -26.643 15.771 0.663 5.111
7.750 -22.077 -26.736 16.021 0.663 5.111
8.000 -22.049 -26.840 16.271 0.663 5.111
8.250 -22.022 -27.164 16.521 0.663 5.111
8.500 -21.961 -27.467 16.771 0.663 5.111
8.750 -21.869 -27.766 17.021 0.663 5.111
9.000 -21.755 -28.103 17.271 0.663 5.111
