# z = 2.750000e+00
# log(Z/Zsun) = -5.000000e-01
# log(nH) = 0.000000e+00
1.000 -28.982 -26.774 8.984 1.283 -2.754
1.250 -28.402 -26.756 9.235 1.283 -2.683
1.500 -27.995 -26.738 9.485 1.283 -2.612
1.750 -27.705 -26.718 9.735 1.282 -2.540
2.000 -27.386 -26.699 9.985 1.282 -2.467
2.250 -26.955 -26.678 10.235 1.281 -2.394
2.500 -26.559 -26.657 10.485 1.281 -2.319
2.750 -26.202 -26.635 10.735 1.280 -2.245
3.000 -25.793 -26.612 10.985 1.280 -2.173
3.250 -25.484 -26.590 11.236 1.279 -2.103
3.500 -25.421 -26.569 11.487 1.277 -2.039
3.750 -25.396 -26.545 11.738 1.273 -1.965
4.000 -24.909 -26.505 11.989 1.269 -1.843
4.250 -21.845 -26.064 12.466 0.753 -0.110
4.500 -22.133 -26.013 12.779 0.652 0.029
4.750 -22.000 -26.005 13.035 0.642 0.043
5.000 -21.635 -25.962 13.302 0.618 0.075
5.250 -21.733 -25.908 13.554 0.615 0.079
5.500 -21.914 -25.888 13.804 0.614 0.080
5.750 -22.193 -25.917 14.054 0.614 0.080
6.000 -22.290 -25.945 14.304 0.614 0.080
6.250 -22.418 -25.964 14.555 0.614 0.080
6.500 -22.743 -25.981 14.805 0.614 0.080
6.750 -22.808 -25.983 15.055 0.614 0.080
7.000 -22.768 -25.982 15.305 0.614 0.080
7.250 -22.787 -25.985 15.555 0.614 0.080
7.500 -22.727 -25.987 15.805 0.614 0.080
7.750 -22.626 -25.988 16.055 0.614 0.080
8.000 -22.515 -25.988 16.305 0.614 0.080
8.250 -22.400 -25.989 16.555 0.614 0.080
8.500 -22.279 -25.990 16.805 0.614 0.080
8.750 -22.152 -25.990 17.055 0.614 0.080
9.000 -22.015 -25.990 17.305 0.614 0.080
