# z = 2.250000e+00
# log(Z/Zsun) = -5.000000e-01
# log(nH) = 2.000000e+00
1.000 -29.026 -28.543 8.984 1.285 -1.617
1.250 -28.474 -28.533 9.234 1.285 -1.544
1.500 -28.089 -28.518 9.484 1.286 -1.470
1.750 -27.822 -28.505 9.733 1.286 -1.396
2.000 -27.577 -28.494 9.983 1.286 -1.323
2.250 -27.269 -28.482 10.234 1.286 -1.251
2.500 -26.926 -28.463 10.483 1.286 -1.183
2.750 -26.559 -28.444 10.733 1.287 -1.122
3.000 -26.185 -28.427 10.983 1.288 -1.077
3.250 -26.003 -28.417 11.233 1.286 -1.058
3.500 -25.870 -28.424 11.484 1.286 -1.071
3.750 -25.903 -28.383 11.734 1.284 -0.904
4.000 -25.489 -28.289 11.985 1.282 -0.551
4.250 -21.845 -27.543 12.466 0.753 1.890
4.500 -22.134 -27.602 12.779 0.651 2.030
4.750 -22.000 -27.532 13.035 0.642 2.043
5.000 -21.636 -27.014 13.302 0.618 2.075
5.250 -21.733 -26.627 13.554 0.615 2.079
5.500 -21.914 -26.537 13.804 0.614 2.080
5.750 -22.193 -26.678 14.054 0.614 2.080
6.000 -22.290 -26.865 14.304 0.614 2.080
6.250 -22.418 -27.067 14.555 0.614 2.080
6.500 -22.743 -27.348 14.805 0.614 2.080
6.750 -22.808 -27.404 15.055 0.614 2.080
7.000 -22.768 -27.388 15.305 0.614 2.080
7.250 -22.787 -27.458 15.555 0.614 2.080
7.500 -22.728 -27.520 15.805 0.614 2.080
7.750 -22.627 -27.558 16.055 0.614 2.080
8.000 -22.517 -27.581 16.305 0.614 2.080
8.250 -22.403 -27.620 16.555 0.614 2.080
8.500 -22.283 -27.638 16.805 0.614 2.080
8.750 -22.156 -27.648 17.055 0.614 2.080
9.000 -22.021 -27.653 17.305 0.614 2.080
