# z = 1.100000e+01
# log(Z/Zsun) = -3.000000e+00
# log(nH) = -5.000000e+00
1.000 -24.830 -21.498 9.271 0.663 -4.990
1.250 -24.592 -21.629 9.525 0.657 -4.982
1.500 -24.352 -21.765 9.778 0.653 -4.975
1.750 -24.106 -21.906 10.031 0.649 -4.971
2.000 -23.862 -22.052 10.282 0.646 -4.967
2.250 -23.618 -22.200 10.534 0.645 -4.965
2.500 -23.375 -22.353 10.784 0.643 -4.963
2.750 -23.130 -22.507 11.035 0.642 -4.962
3.000 -22.884 -22.665 11.286 0.642 -4.961
3.250 -22.636 -22.824 11.536 0.641 -4.960
3.500 -22.388 -22.985 11.786 0.641 -4.960
3.750 -22.140 -23.147 12.036 0.641 -4.959
4.000 -21.891 -23.310 12.286 0.640 -4.959
4.250 -21.640 -23.471 12.536 0.640 -4.959
4.500 -21.385 -23.669 12.786 0.640 -4.959
4.750 -21.125 -23.996 13.037 0.639 -4.957
5.000 -20.834 -24.256 13.304 0.615 -4.925
5.250 -20.600 -24.318 13.556 0.612 -4.921
5.500 -20.354 -24.329 13.806 0.612 -4.921
5.750 -20.105 -24.332 14.056 0.612 -4.921
6.000 -19.855 -24.333 14.306 0.612 -4.921
6.250 -19.605 -24.334 14.556 0.612 -4.921
6.500 -19.355 -24.334 14.806 0.612 -4.921
6.750 -19.105 -24.334 15.056 0.612 -4.921
7.000 -18.855 -24.334 15.306 0.612 -4.921
7.250 -18.606 -24.335 15.556 0.612 -4.921
7.500 -18.356 -24.335 15.806 0.612 -4.921
7.750 -18.107 -24.336 16.056 0.612 -4.921
8.000 -17.859 -24.338 16.306 0.612 -4.921
8.250 -17.612 -24.342 16.556 0.612 -4.921
8.500 -17.365 -24.344 16.806 0.612 -4.921
8.750 -17.115 -24.344 17.056 0.612 -4.921
9.000 -16.865 -24.344 17.306 0.612 -4.921
