# z = 1.200000e+01
# log(Z/Zsun) = -1.000000e+00
# log(nH) = 2.000000e+00
1.000 -32.748 -28.393 8.984 1.283 -1.607
1.250 -29.780 -28.422 9.234 1.284 -1.535
1.500 -28.901 -28.410 9.484 1.285 -1.462
1.750 -28.539 -28.397 9.734 1.286 -1.388
2.000 -28.209 -28.383 9.984 1.286 -1.315
2.250 -27.760 -28.368 10.234 1.286 -1.243
2.500 -27.196 -28.333 10.483 1.287 -1.173
2.750 -26.541 -28.296 10.733 1.289 -1.109
3.000 -25.984 -28.259 10.982 1.290 -1.060
3.250 -25.766 -28.217 11.233 1.287 -1.039
3.500 -25.673 -28.168 11.484 1.285 -1.038
3.750 -26.133 -28.103 11.735 1.280 -0.821
4.000 -25.692 -28.045 11.986 1.278 -0.523
4.250 -21.858 -27.212 12.467 0.751 1.890
4.500 -22.216 -27.210 12.780 0.649 2.030
4.750 -22.250 -27.292 13.037 0.640 2.042
5.000 -21.888 -27.196 13.303 0.616 2.075
5.250 -22.116 -26.891 13.555 0.613 2.079
5.500 -22.331 -26.839 13.805 0.613 2.079
5.750 -22.596 -26.841 14.055 0.613 2.079
6.000 -22.691 -27.029 14.305 0.613 2.079
6.250 -22.791 -27.227 14.555 0.613 2.079
6.500 -22.985 -27.491 14.805 0.613 2.079
6.750 -22.980 -27.542 15.055 0.613 2.079
7.000 -22.910 -27.530 15.305 0.613 2.079
7.250 -22.854 -27.560 15.555 0.613 2.080
7.500 -22.760 -27.606 15.805 0.613 2.080
7.750 -22.649 -27.624 16.055 0.613 2.080
8.000 -22.532 -27.632 16.305 0.613 2.080
8.250 -22.412 -27.646 16.555 0.613 2.080
8.500 -22.288 -27.652 16.805 0.613 2.080
8.750 -22.158 -27.656 17.055 0.613 2.080
9.000 -22.020 -27.657 17.305 0.613 2.080
