# z = 3.000000e+00
# log(Z/Zsun) = -1.000000e+00
# log(nH) = 3.000000e+00
1.000 -29.946 -29.465 8.984 1.285 -1.114
1.250 -29.407 -29.477 9.234 1.286 -1.040
1.500 -29.034 -29.495 9.483 1.288 -0.965
1.750 -28.732 -29.514 9.732 1.289 -0.891
2.000 -28.375 -29.524 9.983 1.287 -0.823
2.250 -27.949 -29.527 10.233 1.286 -0.760
2.500 -27.509 -29.524 10.483 1.287 -0.707
2.750 -26.975 -29.518 10.733 1.289 -0.671
3.000 -26.504 -29.516 10.983 1.288 -0.677
3.250 -26.155 -29.527 11.234 1.286 -0.725
3.500 -26.177 -29.552 11.484 1.284 -0.821
3.750 -26.481 -29.479 11.735 1.281 -0.414
4.000 -25.861 -29.335 11.986 1.280 0.275
4.250 -21.859 -28.157 12.467 0.751 2.890
4.500 -22.223 -27.957 12.782 0.647 3.033
4.750 -22.255 -28.327 13.037 0.640 3.042
5.000 -21.889 -27.595 13.303 0.616 3.075
5.250 -22.116 -26.971 13.555 0.613 3.079
5.500 -22.331 -26.904 13.805 0.613 3.079
5.750 -22.596 -26.902 14.055 0.613 3.079
6.000 -22.691 -27.128 14.305 0.613 3.079
6.250 -22.791 -27.403 14.555 0.613 3.079
6.500 -22.985 -27.904 14.805 0.613 3.079
6.750 -22.980 -28.049 15.055 0.613 3.079
7.000 -22.910 -28.013 15.305 0.613 3.079
7.250 -22.855 -28.113 15.555 0.613 3.080
7.500 -22.762 -28.304 15.805 0.613 3.080
7.750 -22.651 -28.401 16.055 0.613 3.080
8.000 -22.535 -28.456 16.305 0.613 3.080
8.250 -22.416 -28.553 16.555 0.613 3.080
8.500 -22.293 -28.607 16.805 0.613 3.080
8.750 -22.165 -28.642 17.055 0.613 3.080
9.000 -22.029 -28.653 17.305 0.613 3.080
