# z = 1.000000e+01
# log(Z/Zsun) = 1.000000e+00
# log(nH) = -2.000000e+00
1.000 -27.981 -24.443 8.948 1.397 -3.526
1.250 -26.382 -24.441 9.200 1.391 -3.457
1.500 -25.416 -24.440 9.452 1.383 -3.387
1.750 -24.864 -24.438 9.705 1.375 -3.316
2.000 -24.490 -24.437 9.958 1.364 -3.244
2.250 -24.158 -24.437 10.212 1.352 -3.171
2.500 -23.898 -24.436 10.466 1.338 -3.097
2.750 -23.726 -24.437 10.722 1.321 -3.022
3.000 -23.610 -24.437 10.978 1.302 -2.947
3.250 -23.518 -24.438 11.236 1.279 -2.871
3.500 -23.396 -24.439 11.495 1.253 -2.794
3.750 -23.171 -24.440 11.755 1.223 -2.717
4.000 -22.704 -24.439 12.017 1.190 -2.643
4.250 -21.475 -24.435 12.421 0.835 -2.099
4.500 -21.191 -24.507 12.731 0.727 -1.967
4.750 -20.682 -24.611 12.989 0.714 -1.951
5.000 -20.309 -24.606 13.257 0.685 -1.916
5.250 -20.285 -24.613 13.511 0.679 -1.908
5.500 -20.441 -24.614 13.764 0.675 -1.903
5.750 -20.725 -24.623 14.015 0.673 -1.900
6.000 -20.818 -24.623 14.266 0.671 -1.898
6.250 -20.959 -24.620 14.518 0.669 -1.895
6.500 -21.376 -24.618 14.769 0.666 -1.892
6.750 -21.496 -24.618 15.020 0.665 -1.891
7.000 -21.454 -24.619 15.270 0.664 -1.890
7.250 -21.497 -24.621 15.521 0.664 -1.889
7.500 -21.376 -24.622 15.771 0.663 -1.889
7.750 -21.168 -24.622 16.021 0.663 -1.889
8.000 -20.939 -24.623 16.271 0.663 -1.889
8.250 -20.703 -24.624 16.521 0.663 -1.889
8.500 -20.460 -24.625 16.771 0.663 -1.889
8.750 -20.215 -24.625 17.021 0.663 -1.889
9.000 -19.967 -24.625 17.271 0.663 -1.889
