# z = 1.300000e+01
# log(Z/Zsun) = 5.000000e-01
# log(nH) = -3.000000e+00
1.000 -26.900 -23.032 9.030 1.155 -3.777
1.250 -26.048 -23.046 9.290 1.130 -3.710
1.500 -25.164 -23.061 9.551 1.102 -3.643
1.750 -24.630 -23.080 9.813 1.072 -3.577
2.000 -24.261 -23.103 10.076 1.040 -3.512
2.250 -23.930 -23.130 10.341 1.005 -3.449
2.500 -23.673 -23.163 10.607 0.969 -3.387
2.750 -23.503 -23.203 10.874 0.932 -3.327
3.000 -23.389 -23.250 11.141 0.894 -3.270
3.250 -23.304 -23.307 11.410 0.857 -3.216
3.500 -23.202 -23.374 11.678 0.822 -3.167
3.750 -23.011 -23.455 11.945 0.789 -3.122
4.000 -22.611 -23.549 12.212 0.760 -3.083
4.250 -21.782 -23.805 12.492 0.709 -3.016
4.500 -21.604 -24.476 12.768 0.669 -2.962
4.750 -21.160 -25.251 13.021 0.663 -2.955
5.000 -20.793 -25.611 13.288 0.638 -2.922
5.250 -20.777 -25.756 13.541 0.634 -2.917
5.500 -20.919 -25.765 13.792 0.632 -2.915
5.750 -21.138 -25.843 14.042 0.632 -2.914
6.000 -21.138 -25.881 14.293 0.631 -2.914
6.250 -21.096 -25.893 14.543 0.630 -2.913
6.500 -21.020 -25.926 14.794 0.630 -2.912
6.750 -20.806 -25.943 15.044 0.629 -2.911
7.000 -20.566 -25.955 15.294 0.629 -2.911
7.250 -20.323 -25.957 15.544 0.629 -2.911
7.500 -20.075 -25.964 15.794 0.629 -2.911
7.750 -19.826 -25.970 16.044 0.629 -2.911
8.000 -19.576 -25.975 16.294 0.629 -2.911
8.250 -19.326 -25.985 16.544 0.629 -2.910
8.500 -19.077 -25.989 16.794 0.629 -2.910
8.750 -18.827 -25.992 17.044 0.629 -2.910
9.000 -18.577 -25.993 17.294 0.629 -2.910
