# z = 3.250000e+00
# log(Z/Zsun) = 5.000000e-01
# log(nH) = -1.000000e+00
1.000 -28.094 -25.533 8.973 1.318 -3.035
1.250 -27.385 -25.524 9.223 1.316 -2.963
1.500 -26.724 -25.515 9.474 1.314 -2.890
1.750 -26.198 -25.506 9.725 1.311 -2.816
2.000 -25.732 -25.497 9.976 1.308 -2.742
2.250 -25.285 -25.488 10.228 1.304 -2.666
2.500 -24.951 -25.478 10.479 1.299 -2.589
2.750 -24.736 -25.469 10.731 1.293 -2.511
3.000 -24.592 -25.459 10.983 1.286 -2.432
3.250 -24.480 -25.449 11.236 1.278 -2.353
3.500 -24.342 -25.438 11.490 1.268 -2.273
3.750 -24.100 -25.427 11.744 1.256 -2.192
4.000 -23.589 -25.413 11.999 1.242 -2.110
4.250 -21.702 -25.330 12.451 0.779 -1.108
4.500 -21.620 -25.332 12.764 0.674 -0.970
4.750 -21.170 -25.328 13.021 0.663 -0.955
5.000 -20.800 -25.276 13.288 0.638 -0.922
5.250 -20.789 -25.265 13.541 0.634 -0.917
5.500 -20.950 -25.262 13.792 0.632 -0.915
5.750 -21.236 -25.284 14.042 0.632 -0.914
6.000 -21.332 -25.294 14.293 0.631 -0.914
6.250 -21.478 -25.296 14.543 0.630 -0.913
6.500 -21.914 -25.299 14.794 0.630 -0.912
6.750 -22.075 -25.301 15.044 0.629 -0.911
7.000 -22.090 -25.303 15.294 0.629 -0.911
7.250 -22.314 -25.307 15.544 0.629 -0.911
7.500 -22.419 -25.308 15.794 0.629 -0.911
7.750 -22.381 -25.309 16.044 0.629 -0.911
8.000 -22.308 -25.310 16.294 0.629 -0.911
8.250 -22.228 -25.312 16.544 0.629 -0.910
8.500 -22.123 -25.313 16.794 0.629 -0.910
8.750 -21.997 -25.314 17.044 0.629 -0.910
9.000 -21.853 -25.314 17.294 0.629 -0.910
