# CIE
# log(Z/Zsun) = 0.000000e+00
# log(nH) = -2.000000e+00
1.000 -28.359 -25.299 8.983 1.288 -4.158
1.250 -27.820 -25.279 9.233 1.286 -4.090
1.500 -27.422 -25.258 9.484 1.285 -4.022
1.750 -27.112 -25.237 9.735 1.283 -3.954
2.000 -26.655 -25.216 9.985 1.281 -3.884
2.250 -26.097 -25.194 10.236 1.278 -3.814
2.500 -25.697 -25.173 10.487 1.275 -3.743
2.750 -25.444 -25.152 10.738 1.271 -3.672
3.000 -25.254 -25.131 10.990 1.267 -3.600
3.250 -25.077 -25.110 11.242 1.262 -3.528
3.500 -24.938 -25.090 11.494 1.256 -3.457
3.750 -24.739 -25.070 11.746 1.249 -3.385
4.000 -24.150 -25.047 11.999 1.240 -3.304
4.250 -21.806 -24.742 12.462 0.760 -2.110
4.500 -21.945 -24.681 12.775 0.657 -1.971
4.750 -21.624 -24.674 13.032 0.647 -1.957
5.000 -21.255 -24.654 13.299 0.622 -1.924
5.250 -21.277 -24.649 13.551 0.619 -1.920
5.500 -21.444 -24.648 13.801 0.619 -1.919
5.750 -21.728 -24.651 14.051 0.618 -1.919
6.000 -21.825 -24.652 14.302 0.618 -1.919
6.250 -21.966 -24.653 14.552 0.618 -1.918
6.500 -22.370 -24.654 14.802 0.618 -1.918
6.750 -22.498 -24.654 15.052 0.618 -1.918
7.000 -22.492 -24.654 15.302 0.618 -1.918
7.250 -22.623 -24.654 15.552 0.618 -1.918
7.500 -22.636 -24.654 15.802 0.618 -1.918
7.750 -22.560 -24.654 16.052 0.618 -1.918
8.000 -22.464 -24.654 16.302 0.618 -1.918
8.250 -22.364 -24.654 16.552 0.618 -1.918
8.500 -22.252 -24.655 16.802 0.618 -1.918
8.750 -22.130 -24.655 17.052 0.618 -1.918
9.000 -21.997 -24.655 17.302 0.618 -1.918
