# z = 2.750000e+00
# log(Z/Zsun) = -1.000000e+00
# log(nH) = -4.000000e+00
1.000 -25.438 -21.370 9.290 0.635 -3.950
1.250 -25.258 -21.478 9.542 0.632 -3.947
1.500 -25.087 -21.585 9.793 0.630 -3.944
1.750 -24.896 -21.694 10.045 0.627 -3.940
2.000 -24.699 -21.806 10.297 0.625 -3.937
2.250 -24.511 -21.923 10.549 0.623 -3.934
2.500 -24.309 -22.047 10.800 0.621 -3.931
2.750 -24.104 -22.177 11.051 0.619 -3.929
3.000 -23.940 -22.313 11.302 0.617 -3.927
3.250 -23.840 -22.456 11.553 0.616 -3.925
3.500 -23.801 -22.605 11.804 0.615 -3.924
3.750 -23.784 -22.760 12.054 0.615 -3.923
4.000 -23.747 -22.919 12.305 0.614 -3.922
4.250 -23.649 -23.083 12.555 0.614 -3.922
4.500 -23.365 -23.249 12.805 0.613 -3.921
4.750 -22.974 -23.422 13.055 0.613 -3.921
5.000 -22.595 -23.627 13.305 0.613 -3.921
5.250 -22.412 -24.019 13.555 0.613 -3.921
5.500 -22.494 -24.444 13.805 0.613 -3.921
5.750 -22.542 -24.741 14.055 0.613 -3.921
6.000 -22.489 -24.969 14.305 0.613 -3.921
6.250 -22.415 -25.248 14.555 0.613 -3.921
6.500 -22.283 -25.644 14.805 0.613 -3.921
6.750 -22.070 -25.884 15.055 0.613 -3.921
7.000 -21.838 -26.024 15.305 0.613 -3.921
7.250 -21.600 -26.124 15.555 0.613 -3.920
7.500 -21.357 -26.168 15.805 0.613 -3.920
7.750 -21.112 -26.186 16.055 0.613 -3.920
8.000 -20.866 -26.198 16.305 0.613 -3.920
8.250 -20.618 -26.205 16.555 0.613 -3.920
8.500 -20.371 -26.208 16.805 0.613 -3.920
8.750 -20.122 -26.210 17.055 0.613 -3.920
9.000 -19.873 -26.211 17.305 0.613 -3.920
