# z = 1.500000e+01
# log(Z/Zsun) = -1.000000e+01
# log(nH) = 0.000000e+00
1.000 -31.094 -26.813 8.986 1.279 -2.783
1.250 -30.820 -26.794 9.236 1.278 -2.712
1.500 -30.531 -26.775 9.486 1.278 -2.641
1.750 -30.086 -26.754 9.736 1.278 -2.569
2.000 -29.243 -26.733 9.986 1.278 -2.497
2.250 -28.165 -26.712 10.236 1.278 -2.424
2.500 -27.137 -26.690 10.486 1.278 -2.350
2.750 -26.227 -26.666 10.736 1.280 -2.277
3.000 -25.446 -26.642 10.984 1.284 -2.202
3.250 -24.842 -26.616 11.232 1.290 -2.127
3.500 -24.778 -26.597 11.484 1.283 -2.066
3.750 -25.547 -26.575 11.739 1.269 -1.994
4.000 -25.186 -26.537 11.991 1.265 -1.876
4.250 -21.865 -26.076 12.467 0.751 -0.110
4.500 -22.258 -25.999 12.780 0.649 0.029
4.750 -22.440 -26.004 13.037 0.639 0.042
5.000 -22.085 -25.991 13.304 0.615 0.075
5.250 -22.572 -25.985 13.558 0.609 0.083
5.500 -22.915 -25.989 13.806 0.612 0.079
5.750 -23.110 -25.989 14.056 0.612 0.079
6.000 -23.186 -25.990 14.306 0.612 0.079
6.250 -23.166 -25.990 14.556 0.612 0.079
6.500 -23.088 -25.990 14.806 0.612 0.079
6.750 -22.975 -25.990 15.056 0.612 0.079
7.000 -22.838 -25.990 15.306 0.612 0.079
7.250 -22.684 -25.990 15.556 0.612 0.079
7.500 -22.514 -25.990 15.806 0.612 0.079
7.750 -22.332 -25.990 16.056 0.612 0.079
8.000 -22.138 -25.990 16.306 0.612 0.079
8.250 -21.934 -25.990 16.556 0.612 0.079
8.500 -21.721 -25.990 16.806 0.612 0.079
8.750 -21.500 -25.990 17.056 0.612 0.079
9.000 -21.272 -25.990 17.306 0.612 0.079
