# z = 3.500000e+00
# log(Z/Zsun) = 5.000000e-01
# log(nH) = 4.000000e+00
1.000 -30.342 -28.666 8.966 1.338 -0.724
1.250 -28.294 -29.848 9.215 1.342 -0.623
1.500 -27.645 -29.893 9.463 1.349 -0.514
1.750 -27.206 -29.916 9.708 1.364 -0.410
2.000 -26.825 -29.833 9.953 1.380 -0.317
2.250 -26.453 -29.653 10.197 1.399 -0.232
2.500 -26.117 -29.597 10.439 1.426 -0.171
2.750 -25.807 -29.326 10.715 1.343 -0.222
3.000 -25.281 -29.242 10.962 1.350 -0.247
3.250 -24.100 -28.955 11.191 1.417 -0.243
3.500 -24.008 -28.867 11.467 1.335 -0.090
3.750 -24.819 -28.933 11.719 1.330 0.021
4.000 -25.083 -29.238 11.969 1.329 0.672
4.250 -21.725 -27.104 12.451 0.779 3.891
4.500 -21.664 -26.340 12.767 0.669 4.037
4.750 -21.180 -26.605 13.021 0.663 4.045
5.000 -20.804 -26.247 13.288 0.638 4.078
5.250 -20.790 -26.195 13.541 0.634 4.083
5.500 -20.953 -26.171 13.792 0.632 4.085
5.750 -21.237 -26.161 14.042 0.632 4.086
6.000 -21.334 -26.318 14.293 0.631 4.086
6.250 -21.478 -26.623 14.543 0.630 4.087
6.500 -21.914 -26.731 14.794 0.630 4.088
6.750 -22.075 -26.810 15.044 0.629 4.089
7.000 -22.091 -26.877 15.294 0.629 4.089
7.250 -22.318 -27.078 15.544 0.629 4.089
7.500 -22.426 -27.155 15.794 0.629 4.089
7.750 -22.393 -27.253 16.044 0.629 4.089
8.000 -22.328 -27.359 16.294 0.629 4.089
8.250 -22.258 -27.682 16.544 0.629 4.090
8.500 -22.166 -27.982 16.794 0.629 4.090
8.750 -22.055 -28.273 17.044 0.629 4.090
9.000 -21.929 -28.593 17.294 0.629 4.090
