# z = 0.000000e+00
# log(Z/Zsun) = -3.000000e+00
# log(nH) = -2.000000e+00
1.000 -28.867 -24.802 8.994 1.257 -3.686
1.250 -28.590 -24.794 9.245 1.252 -3.614
1.500 -28.310 -24.785 9.497 1.248 -3.540
1.750 -28.032 -24.776 9.749 1.242 -3.467
2.000 -27.744 -24.768 10.001 1.235 -3.393
2.250 -27.446 -24.759 10.254 1.227 -3.318
2.500 -27.153 -24.751 10.508 1.217 -3.242
2.750 -26.805 -24.744 10.762 1.205 -3.165
3.000 -26.346 -24.737 11.016 1.192 -3.088
3.250 -25.874 -24.730 11.272 1.176 -3.011
3.500 -25.648 -24.724 11.529 1.158 -2.932
3.750 -25.780 -24.718 11.788 1.135 -2.853
4.000 -24.195 -24.712 12.048 1.109 -2.771
4.250 -21.867 -24.681 12.469 0.748 -2.107
4.500 -22.258 -24.674 12.780 0.649 -1.971
4.750 -22.438 -24.674 13.037 0.639 -1.958
5.000 -22.083 -24.660 13.304 0.615 -1.925
5.250 -22.569 -24.658 13.556 0.612 -1.921
5.500 -22.907 -24.658 13.806 0.612 -1.921
5.750 -23.114 -24.658 14.056 0.612 -1.921
6.000 -23.207 -24.658 14.306 0.612 -1.921
6.250 -23.212 -24.658 14.556 0.612 -1.921
6.500 -23.167 -24.658 14.806 0.612 -1.921
6.750 -23.089 -24.658 15.056 0.612 -1.921
7.000 -22.994 -24.658 15.306 0.612 -1.921
7.250 -22.889 -24.658 15.556 0.612 -1.921
7.500 -22.778 -24.658 15.806 0.612 -1.921
7.750 -22.661 -24.658 16.056 0.612 -1.921
8.000 -22.542 -24.658 16.306 0.612 -1.921
8.250 -22.420 -24.658 16.556 0.612 -1.921
8.500 -22.296 -24.658 16.806 0.612 -1.921
8.750 -22.167 -24.658 17.056 0.612 -1.921
9.000 -22.029 -24.658 17.306 0.612 -1.921
