# z = 5.000000e+00
# log(Z/Zsun) = -3.000000e+00
# log(nH) = -2.000000e+00
1.000 -26.082 -22.155 9.161 0.855 -2.262
1.250 -25.853 -22.208 9.427 0.823 -2.214
1.500 -25.599 -22.269 9.693 0.793 -2.171
1.750 -25.381 -22.340 9.959 0.766 -2.131
2.000 -25.177 -22.422 10.223 0.741 -2.096
2.250 -24.987 -22.515 10.486 0.719 -2.066
2.500 -24.829 -22.619 10.748 0.700 -2.040
2.750 -24.688 -22.735 11.007 0.685 -2.020
3.000 -24.559 -22.862 11.265 0.673 -2.003
3.250 -24.441 -22.999 11.521 0.664 -1.990
3.500 -24.331 -23.143 11.775 0.657 -1.981
3.750 -24.229 -23.295 12.029 0.651 -1.974
4.000 -24.075 -23.452 12.281 0.648 -1.969
4.250 -22.887 -23.629 12.533 0.645 -1.965
4.500 -22.397 -24.150 12.786 0.641 -1.960
4.750 -22.449 -24.569 13.037 0.639 -1.958
5.000 -22.083 -24.652 13.304 0.615 -1.925
5.250 -22.567 -24.657 13.556 0.612 -1.921
5.500 -22.898 -24.657 13.806 0.612 -1.921
5.750 -23.087 -24.658 14.056 0.612 -1.921
6.000 -23.150 -24.658 14.306 0.612 -1.921
6.250 -23.114 -24.658 14.556 0.612 -1.921
6.500 -23.019 -24.658 14.806 0.612 -1.921
6.750 -22.885 -24.658 15.056 0.612 -1.921
7.000 -22.725 -24.658 15.306 0.612 -1.921
7.250 -22.547 -24.658 15.556 0.612 -1.921
7.500 -22.354 -24.658 15.806 0.612 -1.921
7.750 -22.150 -24.658 16.056 0.612 -1.921
8.000 -21.936 -24.658 16.306 0.612 -1.921
8.250 -21.714 -24.658 16.556 0.612 -1.921
8.500 -21.486 -24.658 16.806 0.612 -1.921
8.750 -21.253 -24.658 17.056 0.612 -1.921
9.000 -21.015 -24.658 17.306 0.612 -1.921
