# z = 6.000000e+00
# log(Z/Zsun) = -1.000000e+01
# log(nH) = 5.000000e+00
1.000 -35.635 -31.653 8.976 1.308 -0.099
1.250 -34.866 -31.652 9.224 1.316 -0.027
1.500 -33.423 -31.650 9.470 1.327 0.045
1.750 -32.468 -31.646 9.713 1.348 0.117
2.000 -31.239 -31.637 9.954 1.378 0.185
2.250 -29.831 -31.621 10.188 1.428 0.248
2.500 -28.562 -31.599 10.418 1.495 0.300
2.750 -27.463 -31.572 10.642 1.586 0.335
3.000 -26.552 -31.544 10.864 1.694 0.339
3.250 -25.784 -31.594 11.168 1.497 0.201
3.500 -28.122 -31.645 11.485 1.280 0.688
3.750 -30.117 -31.640 11.736 1.280 0.774
4.000 -26.076 -31.439 11.986 1.278 2.248
4.250 -21.864 -28.180 12.468 0.750 4.890
4.500 -22.274 -27.319 12.784 0.644 5.036
4.750 -22.454 -28.032 13.037 0.639 5.042
5.000 -22.086 -28.605 13.304 0.615 5.075
5.250 -22.577 -28.594 13.556 0.612 5.079
5.500 -22.920 -28.539 13.806 0.612 5.079
5.750 -23.124 -28.595 14.056 0.612 5.079
6.000 -23.217 -28.752 14.306 0.612 5.079
6.250 -23.219 -28.954 14.556 0.612 5.079
6.500 -23.169 -29.188 14.806 0.612 5.079
6.750 -23.091 -29.466 15.056 0.612 5.079
7.000 -22.996 -29.743 15.306 0.612 5.079
7.250 -22.890 -30.029 15.556 0.612 5.079
7.500 -22.778 -30.277 15.806 0.612 5.079
7.750 -22.662 -30.456 16.056 0.612 5.079
8.000 -22.543 -30.564 16.306 0.612 5.079
8.250 -22.422 -30.622 16.556 0.612 5.079
8.500 -22.298 -30.649 16.806 0.612 5.079
8.750 -22.169 -30.656 17.056 0.612 5.079
9.000 -22.033 -30.657 17.306 0.612 5.079
