# z = 7.500000e-01
# log(Z/Zsun) = -2.000000e+00
# log(nH) = -6.000000e+00
1.000 -25.286 -21.092 9.305 0.613 -5.922
1.250 -25.142 -21.234 9.555 0.613 -5.922
1.500 -25.003 -21.378 9.805 0.613 -5.921
1.750 -24.872 -21.524 10.056 0.613 -5.921
2.000 -24.742 -21.672 10.306 0.613 -5.921
2.250 -24.614 -21.822 10.556 0.613 -5.921
2.500 -24.490 -21.974 10.806 0.612 -5.921
2.750 -24.370 -22.127 11.056 0.612 -5.921
3.000 -24.256 -22.281 11.306 0.612 -5.921
3.250 -24.141 -22.437 11.556 0.612 -5.921
3.500 -24.020 -22.594 11.806 0.612 -5.921
3.750 -23.891 -22.751 12.056 0.612 -5.921
4.000 -23.751 -22.909 12.306 0.612 -5.921
4.250 -23.600 -23.066 12.556 0.612 -5.921
4.500 -23.433 -23.223 12.806 0.612 -5.921
4.750 -23.250 -23.380 13.056 0.612 -5.921
5.000 -23.051 -23.533 13.306 0.612 -5.921
5.250 -22.837 -23.678 13.556 0.612 -5.921
5.500 -22.617 -23.817 13.806 0.612 -5.921
5.750 -22.394 -23.939 14.056 0.612 -5.921
6.000 -22.163 -24.027 14.306 0.612 -5.921
6.250 -21.925 -24.081 14.556 0.612 -5.921
6.500 -21.683 -24.112 14.806 0.612 -5.921
6.750 -21.439 -24.131 15.056 0.612 -5.921
7.000 -21.195 -24.149 15.306 0.612 -5.921
7.250 -20.953 -24.163 15.556 0.612 -5.921
7.500 -20.709 -24.171 15.806 0.612 -5.921
7.750 -20.460 -24.173 16.056 0.612 -5.921
8.000 -20.210 -24.174 16.306 0.612 -5.921
8.250 -19.961 -24.174 16.556 0.612 -5.921
8.500 -19.711 -24.174 16.806 0.612 -5.921
8.750 -19.462 -24.175 17.056 0.612 -5.921
9.000 -19.212 -24.175 17.306 0.612 -5.921
