# z = 1.300000e+01
# log(Z/Zsun) = 1.000000e+00
# log(nH) = -3.000000e+00
1.000 -26.802 -22.996 8.998 1.244 -3.770
1.250 -25.618 -23.009 9.257 1.217 -3.703
1.500 -24.676 -23.024 9.518 1.188 -3.637
1.750 -24.135 -23.042 9.780 1.155 -3.571
2.000 -23.763 -23.064 10.044 1.120 -3.506
2.250 -23.432 -23.092 10.308 1.083 -3.443
2.500 -23.175 -23.124 10.574 1.043 -3.381
2.750 -23.007 -23.163 10.841 1.003 -3.321
3.000 -22.898 -23.209 11.109 0.963 -3.264
3.250 -22.821 -23.264 11.378 0.923 -3.211
3.500 -22.729 -23.329 11.646 0.885 -3.161
3.750 -22.544 -23.406 11.913 0.850 -3.117
4.000 -22.145 -23.496 12.180 0.818 -3.078
4.250 -21.497 -23.724 12.460 0.764 -3.011
4.500 -21.177 -24.272 12.735 0.721 -2.959
4.750 -20.677 -24.854 12.989 0.714 -2.951
5.000 -20.307 -25.279 13.257 0.685 -2.916
5.250 -20.281 -25.548 13.511 0.679 -2.908
5.500 -20.431 -25.604 13.764 0.675 -2.903
5.750 -20.692 -25.715 14.015 0.673 -2.900
6.000 -20.749 -25.747 14.266 0.671 -2.898
6.250 -20.804 -25.741 14.518 0.669 -2.895
6.500 -20.903 -25.794 14.769 0.666 -2.892
6.750 -20.748 -25.831 15.020 0.665 -2.891
7.000 -20.525 -25.864 15.270 0.664 -2.890
7.250 -20.295 -25.871 15.521 0.664 -2.889
7.500 -20.051 -25.886 15.771 0.663 -2.889
7.750 -19.803 -25.901 16.021 0.663 -2.889
8.000 -19.554 -25.915 16.271 0.663 -2.889
8.250 -19.305 -25.944 16.521 0.663 -2.889
8.500 -19.055 -25.958 16.771 0.663 -2.889
8.750 -18.805 -25.965 17.021 0.663 -2.889
9.000 -18.555 -25.969 17.271 0.663 -2.889
