# z = 1.000000e+01
# log(Z/Zsun) = 5.000000e-01
# log(nH) = 6.000000e+00
1.000 -33.680 -28.005 8.968 1.334 -0.147
1.250 -31.360 -28.152 9.217 1.335 -0.049
1.500 -29.097 -30.464 9.467 1.336 0.061
1.750 -28.125 -30.554 9.703 1.379 0.334
2.000 -27.655 -30.450 9.932 1.449 0.498
2.250 -27.147 -30.286 10.167 1.499 0.611
2.500 -26.671 -30.256 10.434 1.443 0.688
2.750 -26.008 -30.126 10.715 1.343 0.610
3.000 -25.559 -29.847 10.932 1.448 0.626
3.250 -25.140 -29.409 11.186 1.436 0.840
3.500 -25.043 -29.347 11.469 1.331 1.092
3.750 -25.287 -29.724 11.719 1.330 1.539
4.000 -25.664 -29.463 11.969 1.329 2.721
4.250 -21.752 -26.537 12.451 0.779 5.892
4.500 -21.720 -26.193 12.768 0.668 6.038
4.750 -21.197 -26.152 13.021 0.663 6.045
5.000 -20.812 -25.665 13.288 0.638 6.078
5.250 -20.796 -25.445 13.541 0.634 6.083
5.500 -20.973 -26.014 13.792 0.632 6.085
5.750 -21.249 -25.468 14.042 0.632 6.086
6.000 -21.352 -25.528 14.293 0.631 6.086
6.250 -21.480 -26.538 14.543 0.630 6.087
6.500 -21.914 -26.730 14.794 0.630 6.088
6.750 -22.075 -26.810 15.044 0.629 6.089
7.000 -22.091 -26.877 15.294 0.629 6.089
7.250 -22.318 -27.079 15.544 0.629 6.089
7.500 -22.426 -27.156 15.794 0.629 6.089
7.750 -22.393 -27.255 16.044 0.629 6.089
8.000 -22.328 -27.362 16.294 0.629 6.089
8.250 -22.258 -27.687 16.544 0.629 6.090
8.500 -22.166 -27.991 16.794 0.629 6.090
8.750 -22.055 -28.292 17.044 0.629 6.090
9.000 -21.929 -28.633 17.294 0.629 6.090
