# z = 7.000000e+00
# log(Z/Zsun) = 5.000000e-01
# log(nH) = 0.000000e+00
1.000 -30.977 -26.718 8.970 1.327 -2.797
1.250 -27.687 -26.705 9.220 1.327 -2.725
1.500 -27.157 -26.687 9.470 1.327 -2.651
1.750 -26.821 -26.668 9.720 1.326 -2.578
2.000 -26.508 -26.649 9.970 1.326 -2.505
2.250 -26.123 -26.629 10.221 1.325 -2.432
2.500 -25.754 -26.601 10.471 1.324 -2.358
2.750 -25.469 -26.570 10.721 1.323 -2.286
3.000 -25.249 -26.538 10.971 1.322 -2.214
3.250 -25.090 -26.502 11.222 1.321 -2.145
3.500 -24.942 -26.463 11.472 1.320 -2.080
3.750 -24.723 -26.424 11.723 1.318 -2.017
4.000 -24.283 -26.375 11.974 1.315 -1.925
4.250 -21.702 -25.689 12.451 0.780 -0.109
4.500 -21.620 -25.714 12.764 0.674 0.030
4.750 -21.170 -25.882 13.021 0.663 0.045
5.000 -20.800 -25.796 13.288 0.638 0.078
5.250 -20.789 -25.776 13.541 0.634 0.083
5.500 -20.950 -25.768 13.792 0.632 0.085
5.750 -21.236 -25.846 14.042 0.632 0.086
6.000 -21.332 -25.883 14.293 0.631 0.086
6.250 -21.478 -25.894 14.543 0.630 0.087
6.500 -21.913 -25.911 14.794 0.630 0.088
6.750 -22.075 -25.921 15.044 0.629 0.089
7.000 -22.090 -25.929 15.294 0.629 0.089
7.250 -22.313 -25.948 15.544 0.629 0.089
7.500 -22.416 -25.953 15.794 0.629 0.089
7.750 -22.376 -25.958 16.044 0.629 0.089
8.000 -22.303 -25.963 16.294 0.629 0.089
8.250 -22.221 -25.972 16.544 0.629 0.090
8.500 -22.113 -25.977 16.794 0.629 0.090
8.750 -21.983 -25.979 17.044 0.629 0.090
9.000 -21.835 -25.980 17.294 0.629 0.090
