# z = 5.500000e+00
# log(Z/Zsun) = 5.000000e-01
# log(nH) = 3.000000e+00
1.000 -28.769 -27.876 8.968 1.332 -1.209
1.250 -28.026 -28.021 9.218 1.333 -1.109
1.500 -27.507 -28.034 9.467 1.335 -1.008
1.750 -27.146 -28.047 9.718 1.333 -0.913
2.000 -26.797 -28.056 9.969 1.330 -0.829
2.250 -26.427 -28.067 10.219 1.329 -0.752
2.500 -26.101 -28.061 10.469 1.330 -0.697
2.750 -25.844 -28.065 10.719 1.330 -0.673
3.000 -25.520 -28.606 10.969 1.331 -0.681
3.250 -24.347 -28.920 11.218 1.332 -0.738
3.500 -23.829 -28.855 11.468 1.332 -0.754
3.750 -24.774 -28.733 11.719 1.330 -0.718
4.000 -24.927 -27.953 11.969 1.329 -0.293
4.250 -21.708 -26.999 12.451 0.779 2.891
4.500 -21.628 -27.169 12.766 0.671 3.035
4.750 -21.172 -27.003 13.021 0.663 3.045
5.000 -20.802 -26.264 13.288 0.638 3.078
5.250 -20.789 -26.194 13.541 0.634 3.083
5.500 -20.950 -26.172 13.792 0.632 3.085
5.750 -21.236 -26.374 14.042 0.632 3.086
6.000 -21.332 -26.530 14.293 0.631 3.086
6.250 -21.478 -26.622 14.543 0.630 3.087
6.500 -21.914 -26.727 14.794 0.630 3.088
6.750 -22.075 -26.804 15.044 0.629 3.089
7.000 -22.091 -26.870 15.294 0.629 3.089
7.250 -22.318 -27.067 15.544 0.629 3.089
7.500 -22.426 -27.143 15.794 0.629 3.089
7.750 -22.393 -27.238 16.044 0.629 3.089
8.000 -22.328 -27.340 16.294 0.629 3.089
8.250 -22.258 -27.642 16.544 0.629 3.090
8.500 -22.166 -27.905 16.794 0.629 3.090
8.750 -22.055 -28.133 17.044 0.629 3.090
9.000 -21.929 -28.339 17.294 0.629 3.090
