# z = 4.500000e+00
# log(Z/Zsun) = -1.000000e+01
# log(nH) = -6.000000e+00
1.000 -25.027 -21.283 9.291 0.633 -5.949
1.250 -24.810 -21.377 9.542 0.631 -5.947
1.500 -24.582 -21.472 9.794 0.629 -5.944
1.750 -24.357 -21.568 10.045 0.627 -5.941
2.000 -24.129 -21.669 10.297 0.625 -5.938
2.250 -23.897 -21.776 10.549 0.622 -5.935
2.500 -23.662 -21.891 10.800 0.620 -5.932
2.750 -23.425 -22.014 11.051 0.618 -5.929
3.000 -23.185 -22.146 11.303 0.617 -5.927
3.250 -22.942 -22.285 11.553 0.616 -5.925
3.500 -22.698 -22.431 11.804 0.615 -5.924
3.750 -22.451 -22.583 12.055 0.614 -5.923
4.000 -22.204 -22.741 12.305 0.613 -5.922
4.250 -21.956 -22.904 12.555 0.613 -5.922
4.500 -21.707 -23.070 12.805 0.613 -5.922
4.750 -21.458 -23.240 13.056 0.613 -5.921
5.000 -21.205 -23.435 13.306 0.612 -5.921
5.250 -20.954 -23.824 13.556 0.612 -5.921
5.500 -20.708 -24.147 13.806 0.612 -5.921
5.750 -20.459 -24.273 14.056 0.612 -5.921
6.000 -20.210 -24.331 14.306 0.612 -5.921
6.250 -19.960 -24.361 14.556 0.612 -5.921
6.500 -19.711 -24.377 14.806 0.612 -5.921
6.750 -19.462 -24.386 15.056 0.612 -5.921
7.000 -19.213 -24.392 15.306 0.612 -5.921
7.250 -18.966 -24.397 15.556 0.612 -5.921
7.500 -18.721 -24.403 15.806 0.612 -5.921
7.750 -18.477 -24.410 16.056 0.612 -5.921
8.000 -18.227 -24.410 16.306 0.612 -5.921
8.250 -17.977 -24.410 16.556 0.612 -5.921
8.500 -17.727 -24.410 16.806 0.612 -5.921
8.750 -17.477 -24.410 17.056 0.612 -5.921
9.000 -17.227 -24.410 17.306 0.612 -5.921
