# z = 5.500000e+00
# log(Z/Zsun) = -5.000000e-01
# log(nH) = 1.000000e+00
1.000 -29.559 -27.521 8.984 1.285 -2.115
1.250 -28.574 -27.506 9.234 1.285 -2.044
1.500 -28.115 -27.489 9.484 1.285 -1.972
1.750 -27.818 -27.472 9.734 1.285 -1.900
2.000 -27.527 -27.453 9.984 1.285 -1.826
2.250 -27.137 -27.434 10.234 1.284 -1.753
2.500 -26.740 -27.409 10.484 1.285 -1.678
2.750 -26.354 -27.383 10.734 1.285 -1.606
3.000 -25.934 -27.357 10.984 1.286 -1.538
3.250 -25.704 -27.331 11.234 1.284 -1.480
3.500 -25.626 -27.310 11.485 1.283 -1.435
3.750 -25.639 -27.274 11.735 1.280 -1.341
4.000 -25.200 -27.208 11.986 1.277 -1.168
4.250 -21.845 -26.640 12.466 0.753 0.890
4.500 -22.133 -26.613 12.779 0.652 1.029
4.750 -22.000 -26.642 13.035 0.642 1.043
5.000 -21.635 -26.530 13.302 0.618 1.075
5.250 -21.733 -26.362 13.554 0.615 1.079
5.500 -21.914 -26.311 13.804 0.614 1.080
5.750 -22.193 -26.389 14.054 0.614 1.080
6.000 -22.290 -26.476 14.304 0.614 1.080
6.250 -22.418 -26.547 14.555 0.614 1.080
6.500 -22.743 -26.614 14.805 0.614 1.080
6.750 -22.808 -26.624 15.055 0.614 1.080
7.000 -22.768 -26.621 15.305 0.614 1.080
7.250 -22.787 -26.632 15.555 0.614 1.080
7.500 -22.727 -26.641 15.805 0.614 1.080
7.750 -22.626 -26.646 16.055 0.614 1.080
8.000 -22.515 -26.649 16.305 0.614 1.080
8.250 -22.400 -26.653 16.555 0.614 1.080
8.500 -22.280 -26.655 16.805 0.614 1.080
8.750 -22.152 -26.656 17.055 0.614 1.080
9.000 -22.016 -26.656 17.305 0.614 1.080
