# z = 2.500000e+00
# log(Z/Zsun) = 1.000000e+00
# log(nH) = -6.000000e+00
1.000 -24.965 -20.463 9.264 0.674 -5.902
1.250 -24.843 -20.554 9.515 0.673 -5.901
1.500 -24.712 -20.643 9.765 0.673 -5.900
1.750 -24.572 -20.722 10.015 0.672 -5.900
2.000 -24.420 -20.798 10.266 0.671 -5.899
2.250 -24.250 -20.866 10.516 0.671 -5.898
2.500 -24.034 -20.902 10.766 0.671 -5.898
2.750 -23.749 -20.946 11.016 0.670 -5.898
3.000 -23.534 -20.994 11.267 0.670 -5.897
3.250 -23.329 -21.046 11.517 0.669 -5.896
3.500 -23.071 -21.106 11.767 0.669 -5.896
3.750 -22.798 -21.176 12.018 0.668 -5.895
4.000 -22.587 -21.274 12.268 0.668 -5.894
4.250 -22.450 -21.430 12.519 0.667 -5.894
4.500 -22.323 -21.633 12.769 0.666 -5.893
4.750 -22.125 -21.798 13.019 0.666 -5.892
5.000 -21.875 -21.921 13.270 0.666 -5.892
5.250 -21.623 -22.038 13.520 0.665 -5.892
5.500 -21.395 -22.162 13.770 0.665 -5.891
5.750 -21.173 -22.285 14.020 0.665 -5.891
6.000 -20.941 -22.393 14.270 0.665 -5.891
6.250 -20.699 -22.477 14.520 0.664 -5.890
6.500 -20.454 -22.542 14.770 0.664 -5.890
6.750 -20.206 -22.645 15.021 0.664 -5.890
7.000 -19.959 -22.898 15.271 0.664 -5.890
7.250 -19.712 -23.265 15.521 0.663 -5.889
7.500 -19.462 -23.491 15.771 0.663 -5.889
7.750 -19.213 -23.642 16.021 0.663 -5.889
8.000 -18.963 -23.802 16.271 0.663 -5.889
8.250 -18.713 -23.944 16.521 0.663 -5.889
8.500 -18.464 -24.033 16.771 0.663 -5.889
8.750 -18.215 -24.082 17.021 0.663 -5.889
9.000 -17.967 -24.109 17.271 0.663 -5.889
