# z = 5.000000e-01
# log(Z/Zsun) = 5.000000e-01
# log(nH) = -2.000000e+00
1.000 -27.523 -23.844 8.998 1.244 -3.123
1.250 -26.648 -23.848 9.253 1.230 -3.052
1.500 -25.761 -23.853 9.508 1.214 -2.981
1.750 -25.173 -23.859 9.765 1.196 -2.910
2.000 -24.725 -23.867 10.023 1.175 -2.838
2.250 -24.325 -23.876 10.282 1.151 -2.767
2.500 -24.028 -23.888 10.542 1.124 -2.696
2.750 -23.840 -23.902 10.804 1.094 -2.625
3.000 -23.717 -23.919 11.067 1.061 -2.555
3.250 -23.625 -23.939 11.332 1.026 -2.486
3.500 -23.509 -23.964 11.598 0.988 -2.418
3.750 -23.281 -23.994 11.866 0.948 -2.352
4.000 -22.800 -24.028 12.135 0.907 -2.290
4.250 -21.720 -24.259 12.466 0.753 -2.073
4.500 -21.620 -24.570 12.765 0.673 -1.968
4.750 -21.170 -24.634 13.021 0.663 -1.955
5.000 -20.800 -24.637 13.288 0.638 -1.922
5.250 -20.789 -24.637 13.541 0.634 -1.917
5.500 -20.950 -24.638 13.792 0.632 -1.915
5.750 -21.236 -24.643 14.042 0.632 -1.914
6.000 -21.332 -24.645 14.293 0.631 -1.914
6.250 -21.478 -24.645 14.543 0.630 -1.913
6.500 -21.914 -24.645 14.794 0.630 -1.912
6.750 -22.075 -24.645 15.044 0.629 -1.911
7.000 -22.091 -24.645 15.294 0.629 -1.911
7.250 -22.317 -24.646 15.544 0.629 -1.911
7.500 -22.426 -24.646 15.794 0.629 -1.911
7.750 -22.392 -24.647 16.044 0.629 -1.911
8.000 -22.325 -24.647 16.294 0.629 -1.911
8.250 -22.254 -24.647 16.544 0.629 -1.910
8.500 -22.159 -24.647 16.794 0.629 -1.910
8.750 -22.045 -24.647 17.044 0.629 -1.910
9.000 -21.916 -24.647 17.294 0.629 -1.910
