# z = 1.200000e+01
# log(Z/Zsun) = 5.000000e-01
# log(nH) = -1.000000e+00
1.000 -30.036 -26.002 8.971 1.325 -3.455
1.250 -28.165 -25.987 9.221 1.324 -3.387
1.500 -27.163 -25.965 9.471 1.324 -3.317
1.750 -26.633 -25.943 9.721 1.323 -3.248
2.000 -26.158 -25.919 9.972 1.321 -3.178
2.250 -25.696 -25.893 10.222 1.320 -3.106
2.500 -25.351 -25.865 10.473 1.318 -3.034
2.750 -25.127 -25.837 10.723 1.316 -2.960
3.000 -24.973 -25.810 10.974 1.314 -2.887
3.250 -24.850 -25.783 11.225 1.311 -2.815
3.500 -24.714 -25.755 11.476 1.308 -2.746
3.750 -24.493 -25.728 11.727 1.305 -2.677
4.000 -24.030 -25.698 11.979 1.300 -2.598
4.250 -21.702 -25.091 12.451 0.780 -1.109
4.500 -21.619 -25.079 12.764 0.674 -0.970
4.750 -21.170 -25.228 13.021 0.663 -0.955
5.000 -20.800 -25.236 13.288 0.638 -0.922
5.250 -20.789 -25.261 13.541 0.634 -0.917
5.500 -20.950 -25.261 13.792 0.632 -0.915
5.750 -21.235 -25.284 14.042 0.632 -0.914
6.000 -21.330 -25.293 14.293 0.631 -0.914
6.250 -21.473 -25.295 14.543 0.630 -0.913
6.500 -21.892 -25.298 14.794 0.630 -0.912
6.750 -22.022 -25.301 15.044 0.629 -0.911
7.000 -21.997 -25.302 15.294 0.629 -0.911
7.250 -22.080 -25.306 15.544 0.629 -0.911
7.500 -22.002 -25.308 15.794 0.629 -0.911
7.750 -21.821 -25.309 16.044 0.629 -0.911
8.000 -21.613 -25.310 16.294 0.629 -0.911
8.250 -21.392 -25.312 16.544 0.629 -0.910
8.500 -21.160 -25.313 16.794 0.629 -0.910
8.750 -20.922 -25.313 17.044 0.629 -0.910
9.000 -20.680 -25.313 17.294 0.629 -0.910
