# z = 1.400000e+01
# log(Z/Zsun) = -1.000000e+01
# log(nH) = -3.000000e+00
1.000 -27.148 -23.340 9.029 1.157 -3.931
1.250 -26.857 -23.349 9.287 1.138 -3.862
1.500 -26.563 -23.361 9.545 1.116 -3.792
1.750 -26.257 -23.374 9.804 1.092 -3.723
2.000 -25.951 -23.390 10.065 1.066 -3.655
2.250 -25.653 -23.409 10.327 1.036 -3.587
2.500 -25.365 -23.432 10.591 1.004 -3.520
2.750 -25.079 -23.460 10.856 0.970 -3.454
3.000 -24.792 -23.494 11.122 0.934 -3.390
3.250 -24.505 -23.535 11.390 0.897 -3.328
3.500 -24.218 -23.585 11.658 0.860 -3.269
3.750 -23.932 -23.646 11.927 0.823 -3.214
4.000 -23.471 -23.719 12.196 0.788 -3.163
4.250 -21.929 -24.012 12.498 0.700 -3.040
4.500 -22.204 -24.752 12.783 0.646 -2.966
4.750 -22.269 -25.765 13.037 0.639 -2.958
5.000 -21.936 -25.854 13.304 0.615 -2.925
5.250 -22.060 -25.854 13.556 0.612 -2.921
5.500 -21.921 -25.854 13.806 0.612 -2.921
5.750 -21.701 -25.854 14.056 0.612 -2.921
6.000 -21.460 -25.855 14.306 0.612 -2.921
6.250 -21.213 -25.855 14.556 0.612 -2.921
6.500 -20.965 -25.855 14.806 0.612 -2.921
6.750 -20.716 -25.855 15.056 0.612 -2.921
7.000 -20.466 -25.855 15.306 0.612 -2.921
7.250 -20.216 -25.855 15.556 0.612 -2.921
7.500 -19.967 -25.855 15.806 0.612 -2.921
7.750 -19.717 -25.855 16.056 0.612 -2.921
8.000 -19.467 -25.855 16.306 0.612 -2.921
8.250 -19.217 -25.855 16.556 0.612 -2.921
8.500 -18.967 -25.855 16.806 0.612 -2.921
8.750 -18.717 -25.855 17.056 0.612 -2.921
9.000 -18.467 -25.855 17.306 0.612 -2.921
