# z = 3.500000e+00
# log(Z/Zsun) = -1.000000e+01
# log(nH) = -2.000000e+00
1.000 -26.009 -22.089 9.173 0.831 -2.226
1.250 -25.764 -22.147 9.439 0.801 -2.181
1.500 -25.532 -22.215 9.705 0.772 -2.141
1.750 -25.329 -22.293 9.970 0.747 -2.105
2.000 -25.134 -22.382 10.233 0.724 -2.074
2.250 -24.954 -22.483 10.495 0.705 -2.047
2.500 -24.804 -22.594 10.755 0.689 -2.025
2.750 -24.669 -22.716 11.013 0.676 -2.008
3.000 -24.546 -22.847 11.269 0.666 -1.994
3.250 -24.431 -22.986 11.524 0.659 -1.984
3.500 -24.325 -23.133 11.778 0.653 -1.976
3.750 -24.226 -23.284 12.031 0.649 -1.970
4.000 -24.086 -23.438 12.283 0.646 -1.966
4.250 -22.981 -23.605 12.534 0.643 -1.963
4.500 -22.423 -24.048 12.786 0.640 -1.959
4.750 -22.462 -24.384 13.038 0.638 -1.956
5.000 -22.089 -24.621 13.304 0.615 -1.925
5.250 -22.577 -24.655 13.556 0.612 -1.921
5.500 -22.917 -24.657 13.806 0.612 -1.921
5.750 -23.115 -24.658 14.056 0.612 -1.921
6.000 -23.198 -24.658 14.306 0.612 -1.921
6.250 -23.185 -24.658 14.556 0.612 -1.921
6.500 -23.117 -24.658 14.806 0.612 -1.921
6.750 -23.015 -24.658 15.056 0.612 -1.921
7.000 -22.891 -24.658 15.306 0.612 -1.921
7.250 -22.750 -24.658 15.556 0.612 -1.921
7.500 -22.595 -24.658 15.806 0.612 -1.921
7.750 -22.428 -24.658 16.056 0.612 -1.921
8.000 -22.246 -24.654 16.308 0.609 -1.916
8.250 -22.061 -24.658 16.556 0.612 -1.921
8.500 -21.861 -24.658 16.806 0.612 -1.921
8.750 -21.652 -24.658 17.056 0.612 -1.921
9.000 -21.433 -24.658 17.306 0.612 -1.921
