# z = 1.200000e+01
# log(Z/Zsun) = 5.000000e-01
# log(nH) = -5.000000e+00
1.000 -24.740 -21.524 9.243 0.708 -5.014
1.250 -24.464 -21.641 9.500 0.697 -4.999
1.500 -24.116 -21.765 9.755 0.688 -4.988
1.750 -23.719 -21.896 10.009 0.682 -4.979
2.000 -23.334 -22.034 10.262 0.677 -4.973
2.250 -23.007 -22.178 10.515 0.673 -4.968
2.500 -22.774 -22.326 10.767 0.670 -4.964
2.750 -22.614 -22.478 11.018 0.668 -4.962
3.000 -22.483 -22.631 11.269 0.667 -4.960
3.250 -22.339 -22.785 11.519 0.666 -4.959
3.500 -22.162 -22.941 11.770 0.665 -4.958
3.750 -21.950 -23.097 12.020 0.665 -4.957
4.000 -21.705 -23.250 12.270 0.664 -4.957
4.250 -21.429 -23.397 12.521 0.664 -4.956
4.500 -21.110 -23.570 12.771 0.664 -4.956
4.750 -20.774 -23.775 13.021 0.663 -4.955
5.000 -20.459 -23.993 13.288 0.638 -4.922
5.250 -20.295 -24.101 13.541 0.634 -4.917
5.500 -20.140 -24.112 13.792 0.632 -4.915
5.750 -19.938 -24.117 14.042 0.632 -4.914
6.000 -19.699 -24.119 14.293 0.631 -4.914
6.250 -19.454 -24.123 14.543 0.630 -4.913
6.500 -19.206 -24.132 14.794 0.630 -4.912
6.750 -18.956 -24.137 15.044 0.629 -4.911
7.000 -18.706 -24.140 15.294 0.629 -4.911
7.250 -18.456 -24.146 15.544 0.629 -4.911
7.500 -18.206 -24.149 15.794 0.629 -4.911
7.750 -17.956 -24.151 16.044 0.629 -4.911
8.000 -17.706 -24.152 16.294 0.629 -4.911
8.250 -17.456 -24.152 16.544 0.629 -4.910
8.500 -17.206 -24.153 16.794 0.629 -4.910
8.750 -16.956 -24.154 17.044 0.629 -4.910
9.000 -16.707 -24.154 17.294 0.629 -4.910
