# z = 5.000000e+00
# log(Z/Zsun) = -1.000000e+01
# log(nH) = -3.000000e+00
1.000 -25.546 -21.617 9.269 0.667 -2.995
1.250 -25.393 -21.745 9.524 0.660 -2.985
1.500 -25.213 -21.880 9.777 0.654 -2.978
1.750 -25.065 -22.020 10.030 0.650 -2.972
2.000 -24.923 -22.165 10.282 0.647 -2.968
2.250 -24.789 -22.314 10.533 0.645 -2.966
2.500 -24.676 -22.466 10.784 0.644 -2.963
2.750 -24.571 -22.622 11.035 0.643 -2.962
3.000 -24.470 -22.781 11.285 0.642 -2.961
3.250 -24.370 -22.943 11.536 0.641 -2.960
3.500 -24.273 -23.108 11.786 0.641 -2.960
3.750 -24.175 -23.276 12.036 0.641 -2.959
4.000 -24.074 -23.447 12.286 0.640 -2.959
4.250 -23.779 -23.623 12.537 0.640 -2.959
4.500 -23.075 -23.851 12.787 0.640 -2.958
4.750 -22.537 -24.300 13.037 0.639 -2.957
5.000 -22.086 -25.137 13.304 0.615 -2.925
5.250 -22.554 -25.879 13.556 0.612 -2.921
5.500 -22.831 -26.352 13.806 0.612 -2.921
5.750 -22.906 -26.696 14.056 0.612 -2.921
6.000 -22.830 -26.942 14.306 0.612 -2.921
6.250 -22.666 -27.109 14.556 0.612 -2.921
6.500 -22.464 -27.218 14.806 0.612 -2.921
6.750 -22.243 -27.287 15.056 0.612 -2.921
7.000 -22.012 -27.329 15.306 0.612 -2.921
7.250 -21.774 -27.354 15.556 0.612 -2.921
7.500 -21.534 -27.368 15.806 0.612 -2.921
7.750 -21.290 -27.377 16.056 0.612 -2.921
8.000 -21.045 -27.382 16.306 0.612 -2.921
8.250 -20.799 -27.384 16.556 0.612 -2.921
8.500 -20.551 -27.386 16.806 0.612 -2.921
8.750 -20.303 -27.386 17.056 0.612 -2.921
9.000 -20.055 -27.387 17.306 0.612 -2.921
