# z = 5.000000e+00
# log(Z/Zsun) = -1.000000e+01
# log(nH) = -6.000000e+00
1.000 -24.939 -21.429 9.288 0.638 -5.956
1.250 -24.719 -21.542 9.539 0.637 -5.954
1.500 -24.486 -21.648 9.789 0.636 -5.953
1.750 -24.255 -21.749 10.040 0.635 -5.951
2.000 -24.021 -21.846 10.291 0.633 -5.949
2.250 -23.783 -21.940 10.543 0.631 -5.946
2.500 -23.543 -22.034 10.794 0.629 -5.943
2.750 -23.300 -22.132 11.046 0.627 -5.940
3.000 -23.054 -22.237 11.298 0.624 -5.937
3.250 -22.807 -22.349 11.549 0.622 -5.934
3.500 -22.558 -22.471 11.801 0.620 -5.931
3.750 -22.309 -22.603 12.052 0.618 -5.928
4.000 -22.059 -22.744 12.303 0.616 -5.926
4.250 -21.809 -22.893 12.554 0.615 -5.925
4.500 -21.559 -23.050 12.804 0.614 -5.924
4.750 -21.308 -23.214 13.055 0.614 -5.923
5.000 -21.050 -23.458 13.305 0.613 -5.922
5.250 -20.804 -23.973 13.556 0.612 -5.921
5.500 -20.557 -24.199 13.806 0.612 -5.921
5.750 -20.309 -24.285 14.056 0.612 -5.921
6.000 -20.059 -24.331 14.306 0.612 -5.921
6.250 -19.809 -24.358 14.556 0.612 -5.921
6.500 -19.560 -24.372 14.806 0.612 -5.921
6.750 -19.311 -24.381 15.056 0.612 -5.921
7.000 -19.062 -24.386 15.306 0.612 -5.921
7.250 -18.815 -24.391 15.556 0.612 -5.921
7.500 -18.570 -24.397 15.806 0.612 -5.921
7.750 -18.326 -24.403 16.056 0.612 -5.921
8.000 -18.076 -24.403 16.306 0.612 -5.921
8.250 -17.826 -24.403 16.556 0.612 -5.921
8.500 -17.576 -24.403 16.806 0.612 -5.921
8.750 -17.326 -24.403 17.056 0.612 -5.921
9.000 -17.076 -24.403 17.306 0.612 -5.921
