# z = 5.000000e-01
# log(Z/Zsun) = -3.000000e+00
# log(nH) = 0.000000e+00
1.000 -30.739 -26.696 8.986 1.278 -2.684
1.250 -30.381 -26.680 9.236 1.278 -2.612
1.500 -30.053 -26.663 9.486 1.277 -2.539
1.750 -29.724 -26.646 9.737 1.277 -2.466
2.000 -29.121 -26.627 9.987 1.277 -2.393
2.250 -28.144 -26.608 10.237 1.276 -2.319
2.500 -27.132 -26.589 10.487 1.277 -2.244
2.750 -26.220 -26.568 10.736 1.278 -2.168
3.000 -25.436 -26.547 10.985 1.282 -2.092
3.250 -24.835 -26.524 11.233 1.288 -2.016
3.500 -24.830 -26.506 11.486 1.279 -1.950
3.750 -25.574 -26.485 11.740 1.266 -1.875
4.000 -25.085 -26.452 11.992 1.260 -1.760
4.250 -21.864 -26.070 12.467 0.751 -0.110
4.500 -22.258 -25.999 12.780 0.649 0.029
4.750 -22.438 -26.005 13.037 0.639 0.042
5.000 -22.083 -25.992 13.304 0.615 0.075
5.250 -22.569 -25.990 13.556 0.612 0.079
5.500 -22.907 -25.990 13.806 0.612 0.079
5.750 -23.114 -25.990 14.056 0.612 0.079
6.000 -23.207 -25.990 14.306 0.612 0.079
6.250 -23.212 -25.991 14.556 0.612 0.079
6.500 -23.167 -25.991 14.806 0.612 0.079
6.750 -23.090 -25.991 15.056 0.612 0.079
7.000 -22.995 -25.991 15.306 0.612 0.079
7.250 -22.890 -25.991 15.556 0.612 0.079
7.500 -22.778 -25.991 15.806 0.612 0.079
7.750 -22.662 -25.991 16.056 0.612 0.079
8.000 -22.543 -25.991 16.306 0.612 0.079
8.250 -22.422 -25.991 16.556 0.612 0.079
8.500 -22.297 -25.991 16.806 0.612 0.079
8.750 -22.169 -25.991 17.056 0.612 0.079
9.000 -22.032 -25.991 17.306 0.612 0.079
