# z = 4.000000e+00
# log(Z/Zsun) = 1.000000e+00
# log(nH) = -5.000000e+00
1.000 -25.338 -21.190 9.242 0.709 -4.945
1.250 -25.123 -21.259 9.493 0.708 -4.943
1.500 -24.365 -21.321 9.744 0.706 -4.941
1.750 -23.600 -21.379 9.995 0.704 -4.938
2.000 -23.162 -21.432 10.247 0.701 -4.935
2.250 -22.889 -21.483 10.499 0.698 -4.932
2.500 -22.655 -21.530 10.750 0.696 -4.928
2.750 -22.432 -21.577 11.002 0.693 -4.925
3.000 -22.249 -21.625 11.254 0.689 -4.921
3.250 -22.141 -21.680 11.506 0.686 -4.917
3.500 -22.126 -21.746 11.758 0.683 -4.913
3.750 -22.176 -21.816 12.010 0.681 -4.910
4.000 -22.219 -21.880 12.261 0.679 -4.908
4.250 -22.149 -21.945 12.512 0.677 -4.906
4.500 -21.773 -21.993 12.763 0.676 -4.904
4.750 -21.299 -22.021 13.014 0.675 -4.903
5.000 -20.935 -22.065 13.264 0.674 -4.902
5.250 -20.814 -22.179 13.515 0.672 -4.900
5.500 -20.846 -22.321 13.766 0.671 -4.898
5.750 -20.835 -22.471 14.017 0.670 -4.897
6.000 -20.775 -22.612 14.268 0.668 -4.895
6.250 -20.835 -22.899 14.519 0.667 -4.894
6.500 -20.767 -23.309 14.770 0.666 -4.892
6.750 -20.563 -23.637 15.020 0.665 -4.891
7.000 -20.329 -23.923 15.271 0.664 -4.890
7.250 -20.088 -24.349 15.521 0.664 -4.889
7.500 -19.842 -24.662 15.771 0.663 -4.889
7.750 -19.593 -24.828 16.021 0.663 -4.889
8.000 -19.343 -24.990 16.271 0.663 -4.889
8.250 -19.093 -25.143 16.521 0.663 -4.889
8.500 -18.844 -25.236 16.771 0.663 -4.889
8.750 -18.594 -25.285 17.021 0.663 -4.889
9.000 -18.344 -25.310 17.271 0.663 -4.889
