# z = 2.750000e+00
# log(Z/Zsun) = -5.000000e-01
# log(nH) = -1.000000e+00
1.000 -28.902 -25.366 8.989 1.271 -2.924
1.250 -28.267 -25.360 9.239 1.269 -2.851
1.500 -27.599 -25.354 9.490 1.266 -2.777
1.750 -27.064 -25.347 9.742 1.262 -2.703
2.000 -26.598 -25.341 9.993 1.258 -2.628
2.250 -26.157 -25.334 10.245 1.253 -2.552
2.500 -25.829 -25.328 10.497 1.247 -2.475
2.750 -25.616 -25.322 10.749 1.240 -2.397
3.000 -25.465 -25.315 11.002 1.232 -2.318
3.250 -25.326 -25.309 11.256 1.221 -2.239
3.500 -25.170 -25.303 11.510 1.209 -2.159
3.750 -24.960 -25.297 11.766 1.194 -2.078
4.000 -24.154 -25.290 12.022 1.176 -1.991
4.250 -21.846 -25.315 12.466 0.753 -1.109
4.500 -22.133 -25.339 12.779 0.652 -0.971
4.750 -22.000 -25.341 13.035 0.642 -0.957
5.000 -21.635 -25.319 13.302 0.618 -0.925
5.250 -21.733 -25.305 13.554 0.615 -0.921
5.500 -21.914 -25.300 13.804 0.614 -0.920
5.750 -22.193 -25.307 14.054 0.614 -0.920
6.000 -22.290 -25.313 14.304 0.614 -0.920
6.250 -22.418 -25.318 14.555 0.614 -0.920
6.500 -22.742 -25.322 14.805 0.614 -0.920
6.750 -22.806 -25.322 15.055 0.614 -0.920
7.000 -22.765 -25.322 15.305 0.614 -0.920
7.250 -22.781 -25.322 15.555 0.614 -0.920
7.500 -22.719 -25.323 15.805 0.614 -0.920
7.750 -22.614 -25.323 16.055 0.614 -0.920
8.000 -22.498 -25.323 16.305 0.614 -0.920
8.250 -22.377 -25.323 16.555 0.614 -0.920
8.500 -22.249 -25.323 16.805 0.614 -0.920
8.750 -22.112 -25.323 17.055 0.614 -0.920
9.000 -21.964 -25.323 17.305 0.614 -0.920
