# z = 2.500000e+00
# log(Z/Zsun) = -5.000000e-01
# log(nH) = -6.000000e+00
1.000 -25.236 -21.033 9.304 0.615 -5.921
1.250 -25.054 -21.169 9.554 0.615 -5.921
1.500 -24.885 -21.306 9.804 0.615 -5.921
1.750 -24.721 -21.442 10.054 0.614 -5.920
2.000 -24.554 -21.578 10.304 0.614 -5.920
2.250 -24.380 -21.713 10.554 0.614 -5.920
2.500 -24.199 -21.836 10.804 0.614 -5.920
2.750 -24.009 -21.957 11.054 0.614 -5.920
3.000 -23.813 -22.075 11.304 0.614 -5.920
3.250 -23.607 -22.190 11.555 0.614 -5.920
3.500 -23.389 -22.305 11.805 0.614 -5.920
3.750 -23.162 -22.423 12.055 0.614 -5.920
4.000 -22.934 -22.558 12.305 0.614 -5.920
4.250 -22.704 -22.727 12.555 0.614 -5.920
4.500 -22.468 -22.908 12.805 0.614 -5.920
4.750 -22.227 -23.064 13.055 0.614 -5.920
5.000 -21.981 -23.199 13.305 0.614 -5.920
5.250 -21.734 -23.327 13.555 0.614 -5.920
5.500 -21.487 -23.455 13.805 0.614 -5.920
5.750 -21.240 -23.575 14.055 0.614 -5.920
6.000 -20.991 -23.674 14.305 0.614 -5.920
6.250 -20.742 -23.746 14.555 0.614 -5.920
6.500 -20.493 -23.797 14.805 0.614 -5.920
6.750 -20.243 -23.859 15.055 0.614 -5.920
7.000 -19.994 -23.975 15.305 0.614 -5.920
7.250 -19.747 -24.080 15.555 0.614 -5.920
7.500 -19.498 -24.119 15.805 0.614 -5.920
7.750 -19.249 -24.139 16.055 0.614 -5.920
8.000 -19.003 -24.156 16.305 0.614 -5.920
8.250 -18.761 -24.173 16.555 0.614 -5.920
8.500 -18.511 -24.177 16.805 0.614 -5.920
8.750 -18.261 -24.179 17.055 0.614 -5.920
9.000 -18.011 -24.180 17.305 0.614 -5.920
