# z = 8.000000e+00
# log(Z/Zsun) = -1.000000e+01
# log(nH) = -6.000000e+00
1.000 -24.358 -21.462 9.286 0.640 -5.959
1.250 -24.117 -21.609 9.536 0.640 -5.959
1.500 -23.872 -21.757 9.786 0.640 -5.959
1.750 -23.626 -21.907 10.036 0.640 -5.959
2.000 -23.380 -22.058 10.286 0.640 -5.959
2.250 -23.133 -22.210 10.537 0.640 -5.959
2.500 -22.885 -22.362 10.787 0.640 -5.959
2.750 -22.637 -22.515 11.037 0.640 -5.959
3.000 -22.389 -22.668 11.287 0.640 -5.959
3.250 -22.140 -22.820 11.537 0.640 -5.959
3.500 -21.891 -22.969 11.787 0.640 -5.959
3.750 -21.641 -23.114 12.037 0.640 -5.959
4.000 -21.392 -23.252 12.287 0.640 -5.958
4.250 -21.142 -23.379 12.537 0.640 -5.958
4.500 -20.892 -23.494 12.787 0.640 -5.958
4.750 -20.638 -23.592 13.037 0.639 -5.957
5.000 -20.351 -23.727 13.304 0.615 -5.925
5.250 -20.104 -23.815 13.556 0.612 -5.921
5.500 -19.854 -23.863 13.806 0.612 -5.921
5.750 -19.605 -23.889 14.056 0.612 -5.921
6.000 -19.355 -23.902 14.306 0.612 -5.921
6.250 -19.105 -23.910 14.556 0.612 -5.921
6.500 -18.856 -23.914 14.806 0.612 -5.921
6.750 -18.606 -23.916 15.056 0.612 -5.921
7.000 -18.358 -23.919 15.306 0.612 -5.921
7.250 -18.111 -23.922 15.556 0.612 -5.921
7.500 -17.866 -23.927 15.806 0.612 -5.921
7.750 -17.622 -23.934 16.056 0.612 -5.921
8.000 -17.368 -23.929 16.308 0.609 -5.916
8.250 -17.118 -23.929 16.558 0.609 -5.916
8.500 -16.868 -23.929 16.808 0.609 -5.916
8.750 -16.618 -23.929 17.058 0.609 -5.916
9.000 -16.372 -23.934 17.306 0.612 -5.921
