# z = 7.000000e+00
# log(Z/Zsun) = 5.000000e-01
# log(nH) = 5.000000e+00
1.000 -32.430 -28.338 8.968 1.334 -0.452
1.250 -30.257 -28.714 9.217 1.335 -0.337
1.500 -28.307 -29.768 9.465 1.343 -0.145
1.750 -27.654 -29.834 9.702 1.381 0.017
2.000 -27.149 -29.908 9.941 1.418 0.125
2.250 -26.708 -29.864 10.177 1.463 0.219
2.500 -26.334 -29.792 10.427 1.465 0.252
2.750 -25.885 -29.721 10.715 1.344 0.191
3.000 -25.387 -29.465 10.952 1.383 0.180
3.250 -24.645 -29.173 11.175 1.472 0.267
3.500 -24.556 -29.070 11.469 1.331 0.534
3.750 -25.061 -29.190 11.719 1.330 0.794
4.000 -25.417 -29.157 11.969 1.329 1.693
4.250 -21.741 -26.737 12.451 0.779 4.891
4.500 -21.699 -26.252 12.768 0.668 5.038
4.750 -21.187 -26.291 13.021 0.663 5.045
5.000 -20.806 -26.038 13.288 0.638 5.078
5.250 -20.791 -26.154 13.541 0.634 5.083
5.500 -20.961 -26.143 13.792 0.632 5.085
5.750 -21.242 -25.692 14.042 0.632 5.086
6.000 -21.341 -25.807 14.293 0.631 5.086
6.250 -21.478 -26.600 14.543 0.630 5.087
6.500 -21.914 -26.731 14.794 0.630 5.088
6.750 -22.075 -26.810 15.044 0.629 5.089
7.000 -22.091 -26.877 15.294 0.629 5.089
7.250 -22.318 -27.079 15.544 0.629 5.089
7.500 -22.426 -27.156 15.794 0.629 5.089
7.750 -22.393 -27.255 16.044 0.629 5.089
8.000 -22.328 -27.361 16.294 0.629 5.089
8.250 -22.258 -27.687 16.544 0.629 5.090
8.500 -22.166 -27.990 16.794 0.629 5.090
8.750 -22.055 -28.290 17.044 0.629 5.090
9.000 -21.929 -28.629 17.294 0.629 5.090
