# z = 3.000000e+00
# log(Z/Zsun) = -5.000000e-01
# log(nH) = -6.000000e+00
1.000 -25.192 -21.013 9.304 0.616 -5.922
1.250 -25.002 -21.147 9.554 0.615 -5.921
1.500 -24.819 -21.283 9.804 0.615 -5.921
1.750 -24.640 -21.419 10.054 0.615 -5.921
2.000 -24.456 -21.556 10.304 0.615 -5.921
2.250 -24.264 -21.692 10.554 0.614 -5.920
2.500 -24.063 -21.820 10.804 0.614 -5.920
2.750 -23.851 -21.946 11.054 0.614 -5.920
3.000 -23.639 -22.070 11.304 0.614 -5.920
3.250 -23.424 -22.191 11.554 0.614 -5.920
3.500 -23.197 -22.310 11.804 0.614 -5.920
3.750 -22.962 -22.425 12.055 0.614 -5.920
4.000 -22.724 -22.543 12.305 0.614 -5.920
4.250 -22.486 -22.681 12.555 0.614 -5.920
4.500 -22.245 -22.862 12.805 0.614 -5.920
4.750 -22.001 -23.045 13.055 0.614 -5.920
5.000 -21.754 -23.193 13.305 0.614 -5.920
5.250 -21.506 -23.331 13.555 0.614 -5.920
5.500 -21.257 -23.475 13.805 0.614 -5.920
5.750 -21.009 -23.615 14.055 0.614 -5.920
6.000 -20.761 -23.728 14.305 0.614 -5.920
6.250 -20.511 -23.806 14.555 0.614 -5.920
6.500 -20.262 -23.859 14.805 0.614 -5.920
6.750 -20.012 -23.927 15.055 0.614 -5.920
7.000 -19.763 -24.046 15.305 0.614 -5.920
7.250 -19.515 -24.163 15.555 0.614 -5.920
7.500 -19.266 -24.206 15.805 0.614 -5.920
7.750 -19.017 -24.226 16.055 0.614 -5.920
8.000 -18.771 -24.243 16.305 0.614 -5.920
8.250 -18.529 -24.261 16.555 0.614 -5.920
8.500 -18.279 -24.265 16.805 0.614 -5.920
8.750 -18.029 -24.267 17.055 0.614 -5.920
9.000 -17.779 -24.268 17.305 0.614 -5.920
