# z = 2.000000e+00
# log(Z/Zsun) = 1.000000e+00
# log(nH) = 6.000000e+00
1.000 -29.000 -31.731 8.932 1.447 -0.146
1.250 -28.127 -31.375 9.182 1.448 -0.046
1.500 -27.643 -31.090 9.431 1.451 0.117
1.750 -27.488 -30.684 9.656 1.536 0.377
2.000 -27.110 -30.557 9.881 1.627 0.499
2.250 -26.654 -30.255 10.108 1.719 0.599
2.500 -26.157 -29.930 10.410 1.523 0.701
2.750 -25.616 -29.593 10.683 1.446 0.719
3.000 -25.108 -29.232 10.919 1.493 0.715
3.250 -24.648 -28.927 11.160 1.524 0.893
3.500 -24.523 -28.908 11.435 1.439 1.139
3.750 -24.591 -29.156 11.685 1.438 1.830
4.000 -25.084 -30.054 11.936 1.433 2.919
4.250 -21.577 -26.041 12.418 0.841 5.894
4.500 -21.309 -25.698 12.735 0.721 6.041
4.750 -20.709 -25.656 12.989 0.714 6.050
5.000 -20.322 -25.176 13.257 0.685 6.085
5.250 -20.292 -24.953 13.511 0.679 6.092
5.500 -20.465 -25.638 13.764 0.675 6.097
5.750 -20.740 -24.974 14.015 0.673 6.100
6.000 -20.841 -25.023 14.266 0.671 6.102
6.250 -20.968 -26.076 14.518 0.669 6.105
6.500 -21.412 -26.227 14.769 0.666 6.108
6.750 -21.585 -26.297 15.020 0.665 6.109
7.000 -21.610 -26.374 15.270 0.664 6.110
7.250 -21.886 -26.583 15.521 0.664 6.111
7.500 -22.067 -26.643 15.771 0.663 6.111
7.750 -22.077 -26.736 16.021 0.663 6.111
8.000 -22.049 -26.840 16.271 0.663 6.111
8.250 -22.022 -27.164 16.521 0.663 6.111
8.500 -21.961 -27.468 16.771 0.663 6.111
8.750 -21.869 -27.766 17.021 0.663 6.111
9.000 -21.755 -28.104 17.271 0.663 6.111
