# CIE
# log(Z/Zsun) = -2.000000e+00
# log(nH) = 0.000000e+00
1.000 -30.288 -26.814 8.986 1.279 -2.784
1.250 -29.785 -26.795 9.236 1.279 -2.713
1.500 -29.403 -26.775 9.486 1.278 -2.641
1.750 -29.110 -26.754 9.736 1.278 -2.569
2.000 -28.691 -26.733 9.986 1.278 -2.497
2.250 -27.925 -26.712 10.236 1.278 -2.424
2.500 -27.013 -26.690 10.486 1.279 -2.351
2.750 -26.139 -26.666 10.735 1.281 -2.277
3.000 -25.378 -26.642 10.984 1.286 -2.203
3.250 -24.819 -26.617 11.232 1.292 -2.131
3.500 -24.810 -26.599 11.485 1.283 -2.070
3.750 -25.541 -26.576 11.739 1.270 -1.995
4.000 -25.175 -26.538 11.991 1.265 -1.876
4.250 -21.864 -26.076 12.467 0.751 -0.110
4.500 -22.254 -26.001 12.780 0.649 0.029
4.750 -22.417 -26.006 13.037 0.639 0.042
5.000 -22.061 -25.991 13.304 0.615 0.075
5.250 -22.502 -25.986 13.556 0.612 0.079
5.500 -22.810 -25.984 13.806 0.612 0.079
5.750 -23.031 -25.985 14.056 0.612 0.079
6.000 -23.125 -25.986 14.306 0.612 0.079
6.250 -23.151 -25.988 14.556 0.612 0.079
6.500 -23.147 -25.990 14.806 0.612 0.079
6.750 -23.078 -25.991 15.056 0.612 0.079
7.000 -22.986 -25.991 15.306 0.612 0.079
7.250 -22.887 -25.991 15.556 0.612 0.079
7.500 -22.777 -25.991 15.806 0.612 0.079
7.750 -22.661 -25.991 16.056 0.612 0.079
8.000 -22.542 -25.991 16.306 0.612 0.079
8.250 -22.421 -25.991 16.556 0.612 0.079
8.500 -22.297 -25.991 16.806 0.612 0.079
8.750 -22.169 -25.991 17.056 0.612 0.079
9.000 -22.032 -25.991 17.306 0.612 0.079
