# CIE
# log(Z/Zsun) = -1.000000e+00
# log(nH) = -2.000000e+00
1.000 -29.235 -25.300 8.988 1.274 -4.155
1.250 -28.750 -25.279 9.238 1.272 -4.087
1.500 -28.369 -25.258 9.489 1.271 -4.019
1.750 -28.064 -25.237 9.739 1.269 -3.950
2.000 -27.614 -25.216 9.990 1.267 -3.881
2.250 -27.060 -25.195 10.241 1.264 -3.811
2.500 -26.627 -25.173 10.492 1.261 -3.741
2.750 -26.228 -25.152 10.743 1.258 -3.670
3.000 -25.722 -25.131 10.994 1.254 -3.598
3.250 -25.227 -25.111 11.246 1.250 -3.527
3.500 -25.074 -25.091 11.498 1.244 -3.456
3.750 -25.353 -25.071 11.751 1.236 -3.384
4.000 -24.574 -25.048 12.004 1.226 -3.301
4.250 -21.858 -24.744 12.467 0.751 -2.110
4.500 -22.215 -24.683 12.780 0.650 -1.971
4.750 -22.249 -24.676 13.037 0.640 -1.958
5.000 -21.888 -24.659 13.303 0.616 -1.925
5.250 -22.116 -24.656 13.555 0.613 -1.921
5.500 -22.331 -24.655 13.805 0.613 -1.921
5.750 -22.596 -24.655 14.055 0.613 -1.921
6.000 -22.691 -24.656 14.305 0.613 -1.921
6.250 -22.791 -24.657 14.555 0.613 -1.921
6.500 -22.986 -24.657 14.805 0.613 -1.921
6.750 -22.980 -24.657 15.055 0.613 -1.921
7.000 -22.910 -24.657 15.305 0.613 -1.921
7.250 -22.855 -24.657 15.555 0.613 -1.920
7.500 -22.762 -24.657 15.805 0.613 -1.920
7.750 -22.651 -24.658 16.055 0.613 -1.920
8.000 -22.535 -24.658 16.305 0.613 -1.920
8.250 -22.416 -24.658 16.555 0.613 -1.920
8.500 -22.293 -24.658 16.805 0.613 -1.920
8.750 -22.165 -24.658 17.055 0.613 -1.920
9.000 -22.029 -24.658 17.305 0.613 -1.920
