# z = 1.250000e+00
# log(Z/Zsun) = -2.000000e+00
# log(nH) = 2.000000e+00
1.000 -30.487 -28.644 8.984 1.283 -1.598
1.250 -29.958 -28.631 9.234 1.284 -1.525
1.500 -29.591 -28.616 9.484 1.285 -1.451
1.750 -29.336 -28.601 9.733 1.286 -1.377
2.000 -28.940 -28.584 9.983 1.289 -1.303
2.250 -28.031 -28.567 10.231 1.293 -1.228
2.500 -26.986 -28.547 10.479 1.299 -1.155
2.750 -26.078 -28.527 10.726 1.309 -1.085
3.000 -25.388 -28.508 10.972 1.320 -1.024
3.250 -25.050 -28.497 11.224 1.314 -0.991
3.500 -25.217 -28.482 11.481 1.293 -0.924
3.750 -26.272 -28.445 11.736 1.279 -0.772
4.000 -25.821 -28.377 11.987 1.277 -0.510
4.250 -21.864 -27.702 12.467 0.751 1.890
4.500 -22.256 -27.253 12.781 0.649 2.030
4.750 -22.419 -27.524 13.037 0.639 2.042
5.000 -22.061 -27.578 13.304 0.615 2.075
5.250 -22.502 -27.451 13.556 0.612 2.079
5.500 -22.810 -27.417 13.806 0.612 2.079
5.750 -23.031 -27.450 14.056 0.612 2.079
6.000 -23.125 -27.459 14.306 0.612 2.079
6.250 -23.151 -27.547 14.556 0.612 2.079
6.500 -23.147 -27.613 14.806 0.612 2.079
6.750 -23.078 -27.641 15.056 0.612 2.079
7.000 -22.986 -27.649 15.306 0.612 2.079
7.250 -22.887 -27.653 15.556 0.612 2.079
7.500 -22.777 -27.656 15.806 0.612 2.079
7.750 -22.661 -27.657 16.056 0.612 2.079
8.000 -22.542 -27.657 16.306 0.612 2.079
8.250 -22.421 -27.658 16.556 0.612 2.079
8.500 -22.297 -27.658 16.806 0.612 2.079
8.750 -22.169 -27.658 17.056 0.612 2.079
9.000 -22.032 -27.658 17.306 0.612 2.079
