# z = 1.200000e+01
# log(Z/Zsun) = -2.000000e+00
# log(nH) = -5.000000e+00
1.000 -24.744 -21.537 9.259 0.682 -5.016
1.250 -24.494 -21.656 9.516 0.672 -5.002
1.500 -24.244 -21.783 9.771 0.663 -4.990
1.750 -23.991 -21.916 10.025 0.657 -4.982
2.000 -23.740 -22.055 10.278 0.652 -4.975
2.250 -23.491 -22.199 10.531 0.649 -4.970
2.500 -23.243 -22.347 10.782 0.646 -4.967
2.750 -22.996 -22.499 11.034 0.644 -4.964
3.000 -22.749 -22.654 11.284 0.643 -4.963
3.250 -22.500 -22.810 11.535 0.642 -4.961
3.500 -22.251 -22.968 11.786 0.642 -4.960
3.750 -22.002 -23.126 12.036 0.641 -4.960
4.000 -21.753 -23.283 12.286 0.641 -4.959
4.250 -21.501 -23.438 12.536 0.641 -4.959
4.500 -21.244 -23.652 12.786 0.640 -4.959
4.750 -20.989 -23.970 13.037 0.639 -4.957
5.000 -20.701 -24.133 13.304 0.615 -4.925
5.250 -20.462 -24.158 13.556 0.612 -4.921
5.500 -20.215 -24.161 13.806 0.612 -4.921
5.750 -19.966 -24.162 14.056 0.612 -4.921
6.000 -19.716 -24.163 14.306 0.612 -4.921
6.250 -19.466 -24.163 14.556 0.612 -4.921
6.500 -19.216 -24.163 14.806 0.612 -4.921
6.750 -18.966 -24.163 15.056 0.612 -4.921
7.000 -18.716 -24.164 15.306 0.612 -4.921
7.250 -18.467 -24.164 15.556 0.612 -4.921
7.500 -18.217 -24.164 15.806 0.612 -4.921
7.750 -17.968 -24.165 16.056 0.612 -4.921
8.000 -17.720 -24.167 16.306 0.612 -4.921
8.250 -17.473 -24.171 16.556 0.612 -4.921
8.500 -17.225 -24.173 16.806 0.612 -4.921
8.750 -16.975 -24.173 17.056 0.612 -4.921
9.000 -16.725 -24.173 17.306 0.612 -4.921
