# z = 1.500000e+01
# log(Z/Zsun) = 0.000000e+00
# log(nH) = 1.000000e+00
1.000 -31.754 -27.288 8.981 1.295 -2.126
1.250 -30.510 -27.317 9.231 1.295 -2.053
1.500 -27.957 -27.304 9.481 1.295 -1.979
1.750 -27.525 -27.288 9.731 1.295 -1.906
2.000 -27.167 -27.271 9.981 1.294 -1.833
2.250 -26.760 -27.252 10.231 1.294 -1.759
2.500 -26.382 -27.216 10.481 1.294 -1.686
2.750 -26.078 -27.177 10.731 1.294 -1.615
3.000 -25.824 -27.133 10.981 1.294 -1.547
3.250 -25.653 -27.081 11.231 1.293 -1.487
3.500 -25.525 -27.014 11.481 1.292 -1.441
3.750 -25.349 -26.941 11.732 1.291 -1.376
4.000 -24.907 -26.883 11.983 1.288 -1.198
4.250 -21.806 -25.757 12.462 0.760 0.890
4.500 -21.944 -25.775 12.775 0.657 1.029
4.750 -21.623 -26.041 13.032 0.647 1.043
5.000 -21.255 -26.096 13.299 0.622 1.076
5.250 -21.277 -26.209 13.551 0.619 1.080
5.500 -21.444 -26.199 13.801 0.619 1.081
5.750 -21.728 -26.323 14.051 0.618 1.081
6.000 -21.825 -26.421 14.302 0.618 1.081
6.250 -21.966 -26.483 14.552 0.618 1.082
6.500 -22.368 -26.547 14.802 0.618 1.082
6.750 -22.495 -26.566 15.052 0.618 1.082
7.000 -22.486 -26.572 15.302 0.618 1.082
7.250 -22.608 -26.599 15.552 0.618 1.082
7.500 -22.610 -26.612 15.802 0.618 1.082
7.750 -22.522 -26.621 16.052 0.618 1.082
8.000 -22.411 -26.629 16.302 0.618 1.082
8.250 -22.291 -26.642 16.552 0.618 1.082
8.500 -22.155 -26.648 16.802 0.618 1.082
8.750 -22.004 -26.651 17.052 0.618 1.082
9.000 -21.838 -26.653 17.302 0.618 1.082
