# z = 7.000000e+00
# log(Z/Zsun) = -1.000000e+00
# log(nH) = -3.000000e+00
1.000 -25.677 -21.695 9.237 0.717 -3.062
1.250 -25.486 -21.795 9.498 0.700 -3.038
1.500 -25.233 -21.906 9.757 0.685 -3.019
1.750 -24.988 -22.026 10.014 0.674 -3.004
2.000 -24.747 -22.155 10.270 0.665 -2.992
2.250 -24.503 -22.291 10.524 0.658 -2.982
2.500 -24.307 -22.434 10.778 0.653 -2.976
2.750 -24.174 -22.584 11.030 0.650 -2.971
3.000 -24.094 -22.738 11.282 0.647 -2.967
3.250 -24.047 -22.897 11.533 0.645 -2.964
3.500 -24.007 -23.061 11.784 0.644 -2.962
3.750 -23.940 -23.230 12.035 0.643 -2.961
4.000 -23.780 -23.404 12.285 0.642 -2.960
4.250 -23.268 -23.586 12.535 0.642 -2.960
4.500 -22.567 -23.933 12.786 0.641 -2.959
4.750 -22.262 -24.590 13.037 0.640 -2.957
5.000 -21.880 -25.582 13.303 0.616 -2.925
5.250 -22.089 -26.214 13.555 0.613 -2.921
5.500 -22.256 -26.452 13.805 0.613 -2.921
5.750 -22.388 -26.560 14.055 0.613 -2.921
6.000 -22.319 -26.711 14.305 0.613 -2.921
6.250 -22.185 -26.843 14.555 0.613 -2.921
6.500 -22.011 -26.998 14.805 0.613 -2.921
6.750 -21.782 -27.044 15.055 0.613 -2.921
7.000 -21.541 -27.059 15.305 0.613 -2.921
7.250 -21.297 -27.076 15.555 0.613 -2.920
7.500 -21.051 -27.097 15.805 0.613 -2.920
7.750 -20.803 -27.105 16.055 0.613 -2.920
8.000 -20.554 -27.110 16.305 0.613 -2.920
8.250 -20.306 -27.115 16.555 0.613 -2.920
8.500 -20.057 -27.117 16.805 0.613 -2.920
8.750 -19.807 -27.119 17.055 0.613 -2.920
9.000 -19.558 -27.119 17.305 0.613 -2.920
