# z = 1.400000e+01
# log(Z/Zsun) = -3.000000e+00
# log(nH) = 3.000000e+00
1.000 -33.736 -29.655 8.983 1.288 -1.096
1.250 -31.885 -29.656 9.232 1.290 -1.022
1.500 -31.120 -29.654 9.482 1.292 -0.947
1.750 -30.701 -29.646 9.730 1.296 -0.873
2.000 -29.794 -29.633 9.978 1.303 -0.798
2.250 -28.454 -29.617 10.224 1.316 -0.724
2.500 -27.192 -29.598 10.466 1.339 -0.653
2.750 -26.134 -29.575 10.705 1.373 -0.591
3.000 -25.360 -29.557 10.946 1.403 -0.555
3.250 -24.883 -29.560 11.201 1.385 -0.583
3.500 -25.560 -29.539 11.482 1.291 -0.377
3.750 -26.854 -29.510 11.736 1.280 -0.247
4.000 -26.027 -29.397 11.986 1.278 0.296
4.250 -21.864 -28.345 12.467 0.750 2.890
4.500 -22.267 -27.343 12.783 0.646 3.033
4.750 -22.446 -27.923 13.037 0.639 3.042
5.000 -22.083 -28.270 13.304 0.615 3.075
5.250 -22.569 -28.296 13.556 0.612 3.079
5.500 -22.907 -28.261 13.806 0.612 3.079
5.750 -23.114 -28.305 14.056 0.612 3.079
6.000 -23.207 -28.377 14.306 0.612 3.079
6.250 -23.212 -28.447 14.556 0.612 3.079
6.500 -23.167 -28.540 14.806 0.612 3.079
6.750 -23.090 -28.597 15.056 0.612 3.079
7.000 -22.995 -28.626 15.306 0.612 3.079
7.250 -22.890 -28.643 15.556 0.612 3.079
7.500 -22.778 -28.651 15.806 0.612 3.079
7.750 -22.662 -28.655 16.056 0.612 3.079
8.000 -22.543 -28.656 16.306 0.612 3.079
8.250 -22.421 -28.657 16.556 0.612 3.079
8.500 -22.297 -28.657 16.806 0.612 3.079
8.750 -22.168 -28.658 17.056 0.612 3.079
9.000 -22.031 -28.658 17.306 0.612 3.079
