# z = 3.750000e+00
# log(Z/Zsun) = -5.000000e-01
# log(nH) = -2.000000e+00
1.000 -26.013 -22.097 9.170 0.837 -2.230
1.250 -25.688 -22.155 9.436 0.807 -2.185
1.500 -25.251 -22.222 9.702 0.778 -2.145
1.750 -24.885 -22.299 9.966 0.752 -2.108
2.000 -24.601 -22.387 10.230 0.729 -2.076
2.250 -24.345 -22.486 10.492 0.709 -2.049
2.500 -24.142 -22.597 10.752 0.693 -2.027
2.750 -24.003 -22.718 11.010 0.680 -2.009
3.000 -23.913 -22.849 11.267 0.670 -1.995
3.250 -23.858 -22.988 11.522 0.662 -1.984
3.500 -23.819 -23.134 11.776 0.656 -1.976
3.750 -23.752 -23.286 12.029 0.652 -1.971
4.000 -23.536 -23.441 12.281 0.649 -1.967
4.250 -22.769 -23.611 12.532 0.646 -1.963
4.500 -22.242 -24.071 12.785 0.643 -1.959
4.750 -22.004 -24.435 13.036 0.641 -1.956
5.000 -21.637 -24.622 13.302 0.617 -1.925
5.250 -21.733 -24.645 13.554 0.615 -1.921
5.500 -21.915 -24.648 13.804 0.614 -1.920
5.750 -22.192 -24.652 14.054 0.614 -1.920
6.000 -22.287 -24.654 14.304 0.614 -1.920
6.250 -22.412 -24.655 14.555 0.614 -1.920
6.500 -22.718 -24.656 14.805 0.614 -1.920
6.750 -22.757 -24.656 15.055 0.614 -1.920
7.000 -22.688 -24.656 15.305 0.614 -1.920
7.250 -22.649 -24.657 15.555 0.614 -1.920
7.500 -22.529 -24.657 15.805 0.614 -1.920
7.750 -22.367 -24.657 16.055 0.614 -1.920
8.000 -22.188 -24.657 16.305 0.614 -1.920
8.250 -21.997 -24.657 16.555 0.614 -1.920
8.500 -21.794 -24.657 16.805 0.614 -1.920
8.750 -21.580 -24.657 17.055 0.614 -1.920
9.000 -21.358 -24.657 17.305 0.614 -1.920
