# z = 2.250000e+00
# log(Z/Zsun) = -5.000000e-01
# log(nH) = 0.000000e+00
1.000 -28.946 -26.655 8.985 1.283 -2.654
1.250 -28.381 -26.640 9.235 1.282 -2.582
1.500 -27.971 -26.624 9.485 1.282 -2.510
1.750 -27.668 -26.607 9.735 1.281 -2.437
2.000 -27.330 -26.590 9.985 1.281 -2.363
2.250 -26.888 -26.572 10.236 1.280 -2.288
2.500 -26.502 -26.554 10.486 1.279 -2.213
2.750 -26.177 -26.535 10.736 1.278 -2.137
3.000 -25.811 -26.515 10.986 1.277 -2.061
3.250 -25.496 -26.495 11.237 1.276 -1.988
3.500 -25.415 -26.475 11.488 1.273 -1.919
3.750 -25.372 -26.453 11.739 1.269 -1.843
4.000 -24.813 -26.420 11.991 1.264 -1.729
4.250 -21.845 -26.059 12.466 0.753 -0.110
4.500 -22.133 -26.013 12.779 0.652 0.029
4.750 -22.000 -26.005 13.035 0.642 0.043
5.000 -21.635 -25.962 13.302 0.618 0.075
5.250 -21.733 -25.908 13.554 0.615 0.079
5.500 -21.914 -25.889 13.804 0.614 0.080
5.750 -22.193 -25.917 14.054 0.614 0.080
6.000 -22.290 -25.945 14.304 0.614 0.080
6.250 -22.418 -25.964 14.555 0.614 0.080
6.500 -22.743 -25.981 14.805 0.614 0.080
6.750 -22.808 -25.983 15.055 0.614 0.080
7.000 -22.768 -25.982 15.305 0.614 0.080
7.250 -22.787 -25.985 15.555 0.614 0.080
7.500 -22.728 -25.987 15.805 0.614 0.080
7.750 -22.626 -25.988 16.055 0.614 0.080
8.000 -22.516 -25.988 16.305 0.614 0.080
8.250 -22.401 -25.989 16.555 0.614 0.080
8.500 -22.281 -25.990 16.805 0.614 0.080
8.750 -22.154 -25.990 17.055 0.614 0.080
9.000 -22.018 -25.990 17.305 0.614 0.080
