# z = 7.500000e-01
# log(Z/Zsun) = 1.000000e+00
# log(nH) = -6.000000e+00
1.000 -25.024 -20.572 9.263 0.676 -5.904
1.250 -24.922 -20.663 9.513 0.675 -5.903
1.500 -24.812 -20.752 9.764 0.674 -5.902
1.750 -24.696 -20.834 10.014 0.674 -5.902
2.000 -24.540 -20.911 10.265 0.673 -5.901
2.250 -24.298 -20.977 10.515 0.672 -5.900
2.500 -23.864 -21.022 10.765 0.672 -5.900
2.750 -23.369 -21.068 11.016 0.672 -5.899
3.000 -23.146 -21.118 11.266 0.671 -5.899
3.250 -23.151 -21.172 11.516 0.671 -5.898
3.500 -23.174 -21.230 11.767 0.670 -5.897
3.750 -23.008 -21.284 12.017 0.670 -5.897
4.000 -22.750 -21.336 12.267 0.669 -5.896
4.250 -22.562 -21.393 12.518 0.668 -5.895
4.500 -22.434 -21.465 12.768 0.668 -5.895
4.750 -22.354 -21.587 13.019 0.667 -5.894
5.000 -22.228 -21.744 13.269 0.667 -5.893
5.250 -22.002 -21.885 13.519 0.666 -5.892
5.500 -21.870 -22.030 13.770 0.666 -5.892
5.750 -21.844 -22.173 14.020 0.665 -5.891
6.000 -21.815 -22.303 14.270 0.665 -5.891
6.250 -21.695 -22.401 14.520 0.665 -5.891
6.500 -21.506 -22.483 14.770 0.664 -5.890
6.750 -21.297 -22.600 15.021 0.664 -5.890
7.000 -21.096 -22.861 15.271 0.664 -5.890
7.250 -20.886 -23.231 15.521 0.663 -5.889
7.500 -20.650 -23.454 15.771 0.663 -5.889
7.750 -20.405 -23.607 16.021 0.663 -5.889
8.000 -20.158 -23.772 16.271 0.663 -5.889
8.250 -19.911 -23.922 16.521 0.663 -5.889
8.500 -19.662 -24.017 16.771 0.663 -5.889
8.750 -19.414 -24.069 17.021 0.663 -5.889
9.000 -19.167 -24.099 17.271 0.663 -5.889
