# z = 5.000000e+00
# log(Z/Zsun) = 0.000000e+00
# log(nH) = 3.000000e+00
1.000 -29.093 -28.462 8.980 1.296 -1.177
1.250 -28.421 -28.472 9.230 1.296 -1.079
1.500 -28.003 -28.490 9.480 1.296 -0.988
1.750 -27.672 -28.525 9.730 1.296 -0.905
2.000 -27.321 -28.556 9.980 1.296 -0.830
2.250 -26.941 -28.576 10.230 1.296 -0.764
2.500 -26.610 -28.576 10.480 1.296 -0.714
2.750 -26.350 -28.574 10.730 1.297 -0.693
3.000 -26.081 -28.690 10.980 1.297 -0.715
3.250 -25.764 -28.921 11.230 1.297 -0.781
3.500 -25.524 -29.114 11.480 1.297 -0.893
3.750 -25.473 -28.913 11.730 1.296 -0.713
4.000 -25.320 -28.485 11.981 1.294 0.056
4.250 -21.809 -27.481 12.462 0.760 2.890
4.500 -21.953 -27.768 12.777 0.654 3.034
4.750 -21.626 -27.496 13.032 0.647 3.043
5.000 -21.257 -26.671 13.299 0.622 3.076
5.250 -21.277 -26.433 13.551 0.619 3.080
5.500 -21.444 -26.383 13.801 0.619 3.081
5.750 -21.728 -26.574 14.051 0.618 3.081
6.000 -21.825 -26.777 14.302 0.618 3.081
6.250 -21.966 -26.958 14.552 0.618 3.082
6.500 -22.370 -27.190 14.802 0.618 3.082
6.750 -22.498 -27.281 15.052 0.618 3.082
7.000 -22.492 -27.315 15.302 0.618 3.082
7.250 -22.623 -27.491 15.552 0.618 3.082
7.500 -22.636 -27.602 15.802 0.618 3.082
7.750 -22.559 -27.704 16.052 0.618 3.082
8.000 -22.464 -27.803 16.302 0.618 3.082
8.250 -22.364 -28.067 16.552 0.618 3.082
8.500 -22.252 -28.272 16.802 0.618 3.082
8.750 -22.130 -28.424 17.052 0.618 3.082
9.000 -21.997 -28.536 17.302 0.618 3.082
