# z = 0.000000e+00
# log(Z/Zsun) = -3.000000e+00
# log(nH) = -6.000000e+00
1.000 -25.308 -21.145 9.301 0.619 -5.930
1.250 -25.167 -21.270 9.552 0.618 -5.928
1.500 -25.028 -21.401 9.803 0.616 -5.926
1.750 -24.895 -21.537 10.054 0.615 -5.925
2.000 -24.765 -21.677 10.304 0.614 -5.924
2.250 -24.639 -21.822 10.555 0.614 -5.923
2.500 -24.519 -21.970 10.805 0.613 -5.922
2.750 -24.407 -22.121 11.055 0.613 -5.922
3.000 -24.305 -22.276 11.305 0.613 -5.922
3.250 -24.207 -22.433 11.556 0.613 -5.921
3.500 -24.112 -22.594 11.806 0.613 -5.921
3.750 -24.018 -22.758 12.056 0.612 -5.921
4.000 -23.925 -22.925 12.306 0.612 -5.921
4.250 -23.826 -23.095 12.556 0.612 -5.921
4.500 -23.692 -23.270 12.806 0.612 -5.921
4.750 -23.517 -23.452 13.056 0.612 -5.921
5.000 -23.329 -23.648 13.306 0.612 -5.921
5.250 -23.122 -23.887 13.556 0.612 -5.921
5.500 -23.027 -24.214 13.806 0.612 -5.921
5.750 -22.991 -24.509 14.056 0.612 -5.921
6.000 -22.899 -24.688 14.306 0.612 -5.921
6.250 -22.742 -24.780 14.556 0.612 -5.921
6.500 -22.546 -24.825 14.806 0.612 -5.921
6.750 -22.332 -24.848 15.056 0.612 -5.921
7.000 -22.106 -24.862 15.306 0.612 -5.921
7.250 -21.875 -24.871 15.556 0.612 -5.921
7.500 -21.642 -24.881 15.806 0.612 -5.921
7.750 -21.405 -24.887 16.056 0.612 -5.921
8.000 -21.162 -24.888 16.306 0.612 -5.921
8.250 -20.916 -24.888 16.556 0.612 -5.921
8.500 -20.670 -24.888 16.806 0.612 -5.921
8.750 -20.422 -24.889 17.056 0.612 -5.921
9.000 -20.174 -24.889 17.306 0.612 -5.921
