# z = 9.000000e+00
# log(Z/Zsun) = -1.000000e+00
# log(nH) = 5.000000e+00
1.000 -31.696 -30.276 8.980 1.297 -0.219
1.250 -31.060 -30.338 9.228 1.303 -0.123
1.500 -30.280 -30.517 9.476 1.309 -0.030
1.750 -29.486 -30.587 9.729 1.299 0.032
2.000 -28.796 -30.655 9.982 1.289 0.065
2.250 -28.259 -30.688 10.233 1.288 0.054
2.500 -27.863 -30.669 10.482 1.291 -0.017
2.750 -27.491 -30.672 10.728 1.302 -0.151
3.000 -26.862 -30.753 10.972 1.322 -0.273
3.250 -25.911 -30.507 11.211 1.353 -0.316
3.500 -26.853 -30.435 11.485 1.282 0.309
3.750 -27.202 -30.297 11.735 1.282 0.726
4.000 -25.995 -30.176 11.986 1.280 2.229
4.250 -21.860 -27.914 12.467 0.751 4.890
4.500 -22.237 -27.401 12.783 0.645 5.036
4.750 -22.263 -27.739 13.037 0.640 5.043
5.000 -21.891 -27.459 13.303 0.616 5.075
5.250 -22.118 -26.978 13.555 0.613 5.079
5.500 -22.339 -26.911 13.805 0.613 5.079
5.750 -22.600 -26.764 14.055 0.613 5.079
6.000 -22.698 -26.954 14.305 0.613 5.079
6.250 -22.791 -27.425 14.555 0.613 5.079
6.500 -22.985 -27.987 14.805 0.613 5.079
6.750 -22.980 -28.170 15.055 0.613 5.079
7.000 -22.910 -28.124 15.305 0.613 5.079
7.250 -22.855 -28.257 15.555 0.613 5.080
7.500 -22.762 -28.555 15.805 0.613 5.080
7.750 -22.651 -28.746 16.055 0.613 5.080
8.000 -22.535 -28.878 16.305 0.613 5.080
8.250 -22.416 -29.209 16.555 0.613 5.080
8.500 -22.293 -29.532 16.805 0.613 5.080
8.750 -22.165 -29.980 17.055 0.613 5.080
9.000 -22.029 -30.362 17.305 0.613 5.080
