# z = 5.000000e-01
# log(Z/Zsun) = -1.000000e+00
# log(nH) = 2.000000e+00
1.000 -29.479 -28.648 8.984 1.283 -1.605
1.250 -28.954 -28.635 9.234 1.284 -1.533
1.500 -28.586 -28.622 9.484 1.284 -1.459
1.750 -28.337 -28.607 9.734 1.286 -1.386
2.000 -28.089 -28.593 9.984 1.286 -1.313
2.250 -27.710 -28.577 10.234 1.286 -1.241
2.500 -27.181 -28.560 10.483 1.287 -1.171
2.750 -26.538 -28.542 10.733 1.289 -1.106
3.000 -25.983 -28.526 10.982 1.290 -1.057
3.250 -25.765 -28.517 11.233 1.287 -1.036
3.500 -25.672 -28.511 11.484 1.285 -1.036
3.750 -26.131 -28.457 11.735 1.280 -0.818
4.000 -25.691 -28.379 11.986 1.278 -0.522
4.250 -21.858 -27.650 12.467 0.751 1.890
4.500 -22.216 -27.619 12.780 0.649 2.030
4.750 -22.250 -27.613 13.037 0.640 2.042
5.000 -21.888 -27.343 13.303 0.616 2.075
5.250 -22.116 -26.896 13.555 0.613 2.079
5.500 -22.331 -26.840 13.805 0.613 2.079
5.750 -22.596 -26.841 14.055 0.613 2.079
6.000 -22.691 -27.029 14.305 0.613 2.079
6.250 -22.791 -27.227 14.555 0.613 2.079
6.500 -22.985 -27.491 14.805 0.613 2.079
6.750 -22.980 -27.542 15.055 0.613 2.079
7.000 -22.910 -27.530 15.305 0.613 2.079
7.250 -22.855 -27.560 15.555 0.613 2.080
7.500 -22.762 -27.606 15.805 0.613 2.080
7.750 -22.651 -27.624 16.055 0.613 2.080
8.000 -22.535 -27.633 16.305 0.613 2.080
8.250 -22.416 -27.646 16.555 0.613 2.080
8.500 -22.293 -27.652 16.805 0.613 2.080
8.750 -22.165 -27.656 17.055 0.613 2.080
9.000 -22.029 -27.657 17.305 0.613 2.080
