# z = 1.100000e+01
# log(Z/Zsun) = -5.000000e-01
# log(nH) = 0.000000e+00
1.000 -31.105 -26.797 8.984 1.283 -2.787
1.250 -29.140 -26.782 9.234 1.283 -2.717
1.500 -28.329 -26.762 9.485 1.283 -2.645
1.750 -27.955 -26.743 9.735 1.283 -2.574
2.000 -27.542 -26.722 9.985 1.282 -2.501
2.250 -27.034 -26.701 10.235 1.282 -2.428
2.500 -26.609 -26.677 10.485 1.281 -2.355
2.750 -26.234 -26.653 10.735 1.281 -2.281
3.000 -25.809 -26.628 10.985 1.281 -2.210
3.250 -25.498 -26.603 11.236 1.280 -2.142
3.500 -25.434 -26.578 11.486 1.277 -2.080
3.750 -25.412 -26.549 11.737 1.274 -2.006
4.000 -24.944 -26.507 11.989 1.270 -1.882
4.250 -21.845 -25.926 12.466 0.753 -0.110
4.500 -22.133 -25.894 12.779 0.652 0.029
4.750 -22.000 -25.965 13.035 0.642 0.043
5.000 -21.635 -25.948 13.302 0.618 0.075
5.250 -21.733 -25.907 13.554 0.615 0.079
5.500 -21.914 -25.888 13.804 0.614 0.080
5.750 -22.193 -25.917 14.054 0.614 0.080
6.000 -22.289 -25.944 14.304 0.614 0.080
6.250 -22.415 -25.964 14.555 0.614 0.080
6.500 -22.733 -25.980 14.805 0.614 0.080
6.750 -22.787 -25.983 15.055 0.614 0.080
7.000 -22.734 -25.982 15.305 0.614 0.080
7.250 -22.726 -25.985 15.555 0.614 0.080
7.500 -22.636 -25.987 15.805 0.614 0.080
7.750 -22.502 -25.988 16.055 0.614 0.080
8.000 -22.352 -25.988 16.305 0.614 0.080
8.250 -22.191 -25.989 16.555 0.614 0.080
8.500 -22.016 -25.990 16.805 0.614 0.080
8.750 -21.828 -25.990 17.055 0.614 0.080
9.000 -21.629 -25.990 17.305 0.614 0.080
