# z = 3.000000e+00
# log(Z/Zsun) = 5.000000e-01
# log(nH) = 0.000000e+00
1.000 -28.008 -26.765 8.970 1.327 -2.789
1.250 -27.412 -26.748 9.220 1.327 -2.716
1.500 -26.995 -26.729 9.470 1.327 -2.642
1.750 -26.695 -26.710 9.720 1.326 -2.569
2.000 -26.420 -26.691 9.970 1.326 -2.496
2.250 -26.076 -26.670 10.221 1.325 -2.423
2.500 -25.726 -26.647 10.471 1.324 -2.349
2.750 -25.449 -26.622 10.721 1.323 -2.276
3.000 -25.230 -26.597 10.971 1.322 -2.205
3.250 -25.069 -26.570 11.222 1.321 -2.135
3.500 -24.923 -26.541 11.472 1.319 -2.069
3.750 -24.707 -26.512 11.723 1.318 -2.006
4.000 -24.269 -26.471 11.974 1.315 -1.914
4.250 -21.702 -25.973 12.451 0.780 -0.109
4.500 -21.620 -25.978 12.764 0.674 0.030
4.750 -21.170 -25.963 13.021 0.663 0.045
5.000 -20.800 -25.808 13.288 0.638 0.078
5.250 -20.789 -25.777 13.541 0.634 0.083
5.500 -20.950 -25.768 13.792 0.632 0.085
5.750 -21.236 -25.847 14.042 0.632 0.086
6.000 -21.332 -25.883 14.293 0.631 0.086
6.250 -21.478 -25.894 14.543 0.630 0.087
6.500 -21.914 -25.911 14.794 0.630 0.088
6.750 -22.075 -25.921 15.044 0.629 0.089
7.000 -22.091 -25.929 15.294 0.629 0.089
7.250 -22.318 -25.948 15.544 0.629 0.089
7.500 -22.426 -25.953 15.794 0.629 0.089
7.750 -22.392 -25.958 16.044 0.629 0.089
8.000 -22.327 -25.963 16.294 0.629 0.089
8.250 -22.256 -25.972 16.544 0.629 0.090
8.500 -22.163 -25.977 16.794 0.629 0.090
8.750 -22.050 -25.979 17.044 0.629 0.090
9.000 -21.922 -25.980 17.294 0.629 0.090
