# CIE
# log(Z/Zsun) = -1.000000e+00
# log(nH) = -5.000000e+00
1.000 -29.374 -36.423 8.985 1.282 -12.075
1.250 -28.830 -36.425 9.235 1.282 -11.992
1.500 -28.425 -36.428 9.485 1.282 -11.908
1.750 -28.131 -36.431 9.735 1.282 -11.823
2.000 -27.898 -36.434 9.985 1.282 -11.736
2.250 -27.652 -36.438 10.235 1.282 -11.652
2.500 -27.377 -36.443 10.485 1.282 -11.566
2.750 -27.143 -36.447 10.735 1.282 -11.483
3.000 -26.951 -36.451 10.985 1.282 -11.401
3.250 -26.793 -36.449 11.235 1.282 -11.337
3.500 -26.656 -36.444 11.485 1.282 -11.253
3.750 -26.541 -33.847 11.735 1.282 -9.956
4.000 -25.845 -31.581 11.986 1.280 -7.738
4.250 -21.854 -26.352 12.469 0.747 -5.104
4.500 -22.249 -25.141 12.780 0.650 -4.970
4.750 -22.348 -23.854 13.037 0.640 -4.957
5.000 -21.889 -26.349 13.303 0.616 -4.925
5.250 -22.134 -24.462 13.555 0.613 -4.921
5.500 -22.360 -25.010 13.805 0.613 -4.921
5.750 -22.621 -25.469 14.055 0.613 -4.921
6.000 -22.719 -25.916 14.305 0.613 -4.921
6.250 -22.819 -26.328 14.555 0.613 -4.921
6.500 -22.986 -26.932 14.805 0.613 -4.921
6.750 -22.975 -27.152 15.055 0.613 -4.921
7.000 -22.906 -27.314 15.305 0.613 -4.921
7.250 -22.854 -27.838 15.555 0.613 -4.920
7.500 -22.762 -28.208 15.805 0.613 -4.920
7.750 -22.651 -28.393 16.055 0.613 -4.920
8.000 -22.535 -28.630 16.305 0.613 -4.920
8.250 -22.416 -29.121 16.555 0.613 -4.920
8.500 -22.293 -29.619 16.805 0.613 -4.920
8.750 -22.165 -30.152 17.055 0.613 -4.920
9.000 -22.029 -30.749 17.305 0.613 -4.920
