# z = 1.200000e+01
# log(Z/Zsun) = 0.000000e+00
# log(nH) = -1.000000e+00
1.000 -30.246 -26.036 8.982 1.292 -3.460
1.250 -28.645 -26.018 9.232 1.291 -3.391
1.500 -27.650 -25.997 9.482 1.290 -3.321
1.750 -27.117 -25.976 9.732 1.289 -3.252
2.000 -26.642 -25.953 9.983 1.288 -3.181
2.250 -26.183 -25.930 10.233 1.287 -3.109
2.500 -25.842 -25.906 10.484 1.285 -3.037
2.750 -25.617 -25.882 10.734 1.283 -2.963
3.000 -25.447 -25.857 10.985 1.281 -2.890
3.250 -25.292 -25.834 11.236 1.279 -2.818
3.500 -25.151 -25.810 11.487 1.276 -2.748
3.750 -24.948 -25.786 11.738 1.272 -2.679
4.000 -24.419 -25.755 11.990 1.266 -2.587
4.250 -21.806 -25.282 12.462 0.760 -1.110
4.500 -21.944 -25.245 12.775 0.657 -0.971
4.750 -21.623 -25.303 13.032 0.647 -0.957
5.000 -21.255 -25.292 13.299 0.622 -0.924
5.250 -21.276 -25.289 13.551 0.619 -0.920
5.500 -21.443 -25.286 13.801 0.619 -0.919
5.750 -21.726 -25.299 14.051 0.618 -0.919
6.000 -21.819 -25.307 14.302 0.618 -0.919
6.250 -21.953 -25.312 14.552 0.618 -0.918
6.500 -22.312 -25.315 14.802 0.618 -0.918
6.750 -22.370 -25.316 15.052 0.618 -0.918
7.000 -22.288 -25.317 15.302 0.618 -0.918
7.250 -22.234 -25.318 15.552 0.618 -0.918
7.500 -22.074 -25.319 15.802 0.618 -0.918
7.750 -21.865 -25.319 16.052 0.618 -0.918
8.000 -21.642 -25.319 16.302 0.618 -0.918
8.250 -21.411 -25.320 16.552 0.618 -0.918
8.500 -21.175 -25.320 16.802 0.618 -0.918
8.750 -20.934 -25.320 17.052 0.618 -0.918
9.000 -20.691 -25.321 17.302 0.618 -0.918
