# z = 4.500000e+00
# log(Z/Zsun) = 1.000000e+00
# log(nH) = -6.000000e+00
1.000 -24.921 -20.838 9.246 0.703 -5.938
1.250 -24.720 -20.881 9.497 0.701 -5.935
1.500 -24.326 -20.923 9.749 0.698 -5.931
1.750 -23.800 -20.964 10.001 0.695 -5.928
2.000 -23.431 -21.008 10.253 0.692 -5.924
2.250 -23.074 -21.051 10.505 0.689 -5.920
2.500 -22.690 -21.090 10.756 0.686 -5.917
2.750 -22.371 -21.139 11.008 0.683 -5.913
3.000 -22.164 -21.201 11.260 0.681 -5.910
3.250 -22.083 -21.275 11.511 0.678 -5.907
3.500 -22.088 -21.354 11.763 0.676 -5.905
3.750 -22.096 -21.429 12.014 0.675 -5.903
4.000 -22.020 -21.498 12.265 0.673 -5.901
4.250 -21.847 -21.567 12.516 0.672 -5.899
4.500 -21.600 -21.632 12.766 0.671 -5.898
4.750 -21.332 -21.691 13.017 0.670 -5.897
5.000 -21.078 -21.752 13.267 0.669 -5.896
5.250 -20.834 -21.819 13.518 0.668 -5.895
5.500 -20.598 -21.891 13.768 0.667 -5.894
5.750 -20.379 -22.059 14.019 0.667 -5.893
6.000 -20.165 -22.354 14.269 0.666 -5.892
6.250 -19.924 -22.527 14.520 0.665 -5.891
6.500 -19.677 -22.692 14.770 0.665 -5.891
6.750 -19.428 -22.869 15.020 0.664 -5.890
7.000 -19.178 -23.102 15.271 0.664 -5.890
7.250 -18.928 -23.507 15.521 0.664 -5.889
7.500 -18.679 -23.769 15.771 0.663 -5.889
7.750 -18.429 -23.918 16.021 0.663 -5.889
8.000 -18.179 -24.067 16.271 0.663 -5.889
8.250 -17.929 -24.199 16.521 0.663 -5.889
8.500 -17.679 -24.278 16.771 0.663 -5.889
8.750 -17.430 -24.319 17.021 0.663 -5.889
9.000 -17.182 -24.342 17.271 0.663 -5.889
