# z = 9.000000e+00
# log(Z/Zsun) = 0.000000e+00
# log(nH) = -6.000000e+00
1.000 -24.186 -21.442 9.281 0.648 -5.958
1.250 -23.941 -21.587 9.531 0.648 -5.958
1.500 -23.685 -21.732 9.781 0.648 -5.958
1.750 -23.408 -21.880 10.031 0.648 -5.958
2.000 -23.136 -22.029 10.281 0.648 -5.958
2.250 -22.887 -22.178 10.532 0.648 -5.958
2.500 -22.651 -22.327 10.782 0.648 -5.958
2.750 -22.419 -22.475 11.032 0.647 -5.958
3.000 -22.184 -22.619 11.282 0.647 -5.958
3.250 -21.945 -22.759 11.532 0.647 -5.958
3.500 -21.701 -22.893 11.782 0.647 -5.958
3.750 -21.454 -23.018 12.032 0.647 -5.958
4.000 -21.204 -23.131 12.282 0.647 -5.958
4.250 -20.952 -23.229 12.532 0.647 -5.958
4.500 -20.694 -23.309 12.782 0.647 -5.958
4.750 -20.431 -23.369 13.032 0.646 -5.956
5.000 -20.145 -23.427 13.299 0.622 -5.924
5.250 -19.903 -23.482 13.551 0.619 -5.920
5.500 -19.664 -23.520 13.801 0.619 -5.919
5.750 -19.418 -23.541 14.051 0.618 -5.919
6.000 -19.169 -23.559 14.302 0.618 -5.918
6.250 -18.919 -23.587 14.552 0.618 -5.918
6.500 -18.669 -23.633 14.802 0.618 -5.918
6.750 -18.419 -23.656 15.052 0.618 -5.918
7.000 -18.169 -23.670 15.302 0.618 -5.918
7.250 -17.919 -23.692 15.552 0.618 -5.918
7.500 -17.670 -23.702 15.802 0.618 -5.918
7.750 -17.420 -23.705 16.052 0.618 -5.918
8.000 -17.171 -23.708 16.302 0.618 -5.918
8.250 -16.923 -23.713 16.552 0.618 -5.918
8.500 -16.679 -23.719 16.802 0.618 -5.918
8.750 -16.436 -23.726 17.052 0.618 -5.918
9.000 -16.186 -23.726 17.302 0.618 -5.918
