# z = 4.000000e+00
# log(Z/Zsun) = -5.000000e-01
# log(nH) = -6.000000e+00
1.000 -25.086 -21.083 9.296 0.627 -5.937
1.250 -24.877 -21.184 9.547 0.625 -5.934
1.500 -24.660 -21.290 9.799 0.622 -5.931
1.750 -24.444 -21.403 10.050 0.621 -5.929
2.000 -24.221 -21.521 10.301 0.619 -5.927
2.250 -23.978 -21.644 10.552 0.618 -5.925
2.500 -23.713 -21.768 10.803 0.617 -5.924
2.750 -23.455 -21.896 11.053 0.616 -5.923
3.000 -23.230 -22.026 11.303 0.616 -5.922
3.250 -23.032 -22.158 11.554 0.615 -5.921
3.500 -22.828 -22.292 11.804 0.615 -5.921
3.750 -22.600 -22.425 12.054 0.615 -5.921
4.000 -22.359 -22.552 12.304 0.614 -5.920
4.250 -22.114 -22.674 12.554 0.614 -5.920
4.500 -21.867 -22.791 12.804 0.614 -5.920
4.750 -21.618 -22.908 13.054 0.614 -5.920
5.000 -21.368 -23.040 13.305 0.614 -5.920
5.250 -21.117 -23.215 13.555 0.614 -5.920
5.500 -20.870 -23.442 13.805 0.614 -5.920
5.750 -20.623 -23.649 14.055 0.614 -5.920
6.000 -20.374 -23.789 14.305 0.614 -5.920
6.250 -20.124 -23.883 14.555 0.614 -5.920
6.500 -19.875 -23.956 14.805 0.614 -5.920
6.750 -19.625 -24.043 15.055 0.614 -5.920
7.000 -19.375 -24.158 15.305 0.614 -5.920
7.250 -19.127 -24.283 15.555 0.614 -5.920
7.500 -18.879 -24.328 15.805 0.614 -5.920
7.750 -18.630 -24.346 16.055 0.614 -5.920
8.000 -18.383 -24.362 16.305 0.614 -5.920
8.250 -18.142 -24.379 16.555 0.614 -5.920
8.500 -17.892 -24.383 16.805 0.614 -5.920
8.750 -17.642 -24.385 17.055 0.614 -5.920
9.000 -17.392 -24.386 17.305 0.614 -5.920
