# z = 1.400000e+01
# log(Z/Zsun) = -3.000000e+00
# log(nH) = -5.000000e+00
1.000 -24.657 -21.761 9.205 0.772 -5.140
1.250 -24.377 -21.838 9.470 0.747 -5.105
1.500 -24.101 -21.926 9.733 0.725 -5.074
1.750 -23.828 -22.024 9.994 0.706 -5.048
2.000 -23.559 -22.132 10.254 0.690 -5.026
2.250 -23.294 -22.250 10.512 0.677 -5.009
2.500 -23.033 -22.376 10.768 0.667 -4.995
2.750 -22.775 -22.510 11.023 0.660 -4.985
3.000 -22.519 -22.649 11.277 0.654 -4.977
3.250 -22.265 -22.792 11.530 0.650 -4.972
3.500 -22.012 -22.937 11.782 0.647 -4.968
3.750 -21.760 -23.081 12.033 0.645 -4.965
4.000 -21.508 -23.221 12.284 0.643 -4.963
4.250 -21.253 -23.360 12.535 0.642 -4.961
4.500 -20.993 -23.636 12.786 0.641 -4.959
4.750 -20.746 -23.826 13.037 0.639 -4.958
5.000 -20.461 -23.855 13.304 0.615 -4.925
5.250 -20.216 -23.855 13.556 0.612 -4.921
5.500 -19.967 -23.855 13.806 0.612 -4.921
5.750 -19.717 -23.855 14.056 0.612 -4.921
6.000 -19.467 -23.855 14.306 0.612 -4.921
6.250 -19.217 -23.855 14.556 0.612 -4.921
6.500 -18.967 -23.855 14.806 0.612 -4.921
6.750 -18.718 -23.855 15.056 0.612 -4.921
7.000 -18.468 -23.856 15.306 0.612 -4.921
7.250 -18.218 -23.856 15.556 0.612 -4.921
7.500 -17.968 -23.856 15.806 0.612 -4.921
7.750 -17.719 -23.857 16.056 0.612 -4.921
8.000 -17.471 -23.859 16.306 0.612 -4.921
8.250 -17.225 -23.863 16.556 0.612 -4.921
8.500 -16.977 -23.865 16.806 0.612 -4.921
8.750 -16.727 -23.865 17.056 0.612 -4.921
9.000 -16.477 -23.865 17.306 0.612 -4.921
