# z = 2.000000e+00
# log(Z/Zsun) = 1.000000e+00
# log(nH) = -1.000000e+00
1.000 -27.482 -24.801 8.946 1.404 -2.612
1.250 -26.679 -24.800 9.197 1.398 -2.540
1.500 -25.876 -24.800 9.449 1.392 -2.467
1.750 -25.295 -24.800 9.702 1.384 -2.393
2.000 -24.815 -24.801 9.954 1.375 -2.319
2.250 -24.370 -24.803 10.208 1.364 -2.244
2.500 -24.043 -24.806 10.462 1.352 -2.167
2.750 -23.836 -24.809 10.717 1.337 -2.090
3.000 -23.699 -24.813 10.972 1.319 -2.013
3.250 -23.594 -24.818 11.229 1.299 -1.935
3.500 -23.462 -24.823 11.487 1.275 -1.857
3.750 -23.216 -24.828 11.747 1.248 -1.779
4.000 -22.736 -24.829 12.007 1.218 -1.705
4.250 -21.476 -25.046 12.419 0.838 -1.102
4.500 -21.192 -25.263 12.731 0.728 -0.967
4.750 -20.682 -25.287 12.989 0.714 -0.951
5.000 -20.309 -25.201 13.257 0.685 -0.916
5.250 -20.285 -25.194 13.511 0.679 -0.908
5.500 -20.441 -25.202 13.764 0.675 -0.903
5.750 -20.726 -25.242 14.015 0.673 -0.900
6.000 -20.821 -25.250 14.266 0.671 -0.898
6.250 -20.966 -25.246 14.518 0.669 -0.895
6.500 -21.412 -25.248 14.769 0.666 -0.892
6.750 -21.585 -25.253 15.020 0.665 -0.891
7.000 -21.610 -25.259 15.270 0.664 -0.890
7.250 -21.886 -25.272 15.521 0.664 -0.889
7.500 -22.068 -25.274 15.771 0.663 -0.889
7.750 -22.077 -25.278 16.021 0.663 -0.889
8.000 -22.046 -25.281 16.271 0.663 -0.889
8.250 -22.017 -25.287 16.521 0.663 -0.889
8.500 -21.954 -25.290 16.771 0.663 -0.889
8.750 -21.858 -25.291 17.021 0.663 -0.889
9.000 -21.741 -25.292 17.271 0.663 -0.889
