# z = 4.000000e+00
# log(Z/Zsun) = -2.000000e+00
# log(nH) = -6.000000e+00
1.000 -25.093 -21.113 9.297 0.625 -5.937
1.250 -24.882 -21.218 9.549 0.622 -5.935
1.500 -24.665 -21.330 9.800 0.620 -5.932
1.750 -24.452 -21.449 10.051 0.619 -5.929
2.000 -24.236 -21.575 10.302 0.617 -5.927
2.250 -24.015 -21.707 10.553 0.616 -5.926
2.500 -23.789 -21.846 10.804 0.615 -5.924
2.750 -23.560 -21.989 11.054 0.614 -5.923
3.000 -23.327 -22.137 11.305 0.614 -5.923
3.250 -23.092 -22.289 11.555 0.613 -5.922
3.500 -22.852 -22.445 11.805 0.613 -5.922
3.750 -22.610 -22.604 12.055 0.613 -5.921
4.000 -22.365 -22.765 12.306 0.613 -5.921
4.250 -22.118 -22.929 12.556 0.613 -5.921
4.500 -21.871 -23.094 12.806 0.612 -5.921
4.750 -21.622 -23.261 13.056 0.612 -5.921
5.000 -21.372 -23.435 13.306 0.612 -5.921
5.250 -21.121 -23.680 13.556 0.612 -5.921
5.500 -20.873 -23.989 13.806 0.612 -5.921
5.750 -20.625 -24.176 14.056 0.612 -5.921
6.000 -20.375 -24.264 14.306 0.612 -5.921
6.250 -20.126 -24.308 14.556 0.612 -5.921
6.500 -19.876 -24.332 14.806 0.612 -5.921
6.750 -19.627 -24.348 15.056 0.612 -5.921
7.000 -19.379 -24.361 15.306 0.612 -5.921
7.250 -19.132 -24.371 15.556 0.612 -5.921
7.500 -18.887 -24.380 15.806 0.612 -5.921
7.750 -18.643 -24.386 16.056 0.612 -5.921
8.000 -18.393 -24.387 16.306 0.612 -5.921
8.250 -18.143 -24.387 16.556 0.612 -5.921
8.500 -17.893 -24.388 16.806 0.612 -5.921
8.750 -17.643 -24.388 17.056 0.612 -5.921
9.000 -17.393 -24.388 17.306 0.612 -5.921
