# z = 2.250000e+00
# log(Z/Zsun) = -3.000000e+00
# log(nH) = 1.000000e+00
1.000 -31.270 -27.552 8.985 1.280 -2.102
1.250 -30.771 -27.535 9.235 1.280 -2.030
1.500 -30.390 -27.517 9.485 1.281 -1.958
1.750 -30.002 -27.499 9.735 1.281 -1.884
2.000 -29.139 -27.479 9.985 1.282 -1.811
2.250 -27.995 -27.459 10.234 1.283 -1.736
2.500 -26.941 -27.437 10.483 1.287 -1.661
2.750 -26.025 -27.413 10.731 1.293 -1.586
3.000 -25.251 -27.387 10.977 1.306 -1.511
3.250 -24.675 -27.360 11.221 1.324 -1.437
3.500 -24.847 -27.349 11.481 1.295 -1.386
3.750 -25.867 -27.324 11.737 1.275 -1.297
4.000 -25.481 -27.278 11.988 1.272 -1.148
4.250 -21.864 -26.740 12.467 0.751 0.890
4.500 -22.258 -26.611 12.780 0.649 1.029
4.750 -22.438 -26.655 13.037 0.639 1.042
5.000 -22.083 -26.653 13.304 0.615 1.075
5.250 -22.569 -26.652 13.556 0.612 1.079
5.500 -22.907 -26.651 13.806 0.612 1.079
5.750 -23.114 -26.652 14.056 0.612 1.079
6.000 -23.207 -26.654 14.306 0.612 1.079
6.250 -23.212 -26.655 14.556 0.612 1.079
6.500 -23.167 -26.657 14.806 0.612 1.079
6.750 -23.090 -26.657 15.056 0.612 1.079
7.000 -22.990 -26.653 15.308 0.609 1.084
7.250 -22.890 -26.658 15.556 0.612 1.079
7.500 -22.778 -26.658 15.806 0.612 1.079
7.750 -22.662 -26.658 16.056 0.612 1.079
8.000 -22.543 -26.658 16.306 0.612 1.079
8.250 -22.421 -26.658 16.556 0.612 1.079
8.500 -22.297 -26.658 16.806 0.612 1.079
8.750 -22.169 -26.658 17.056 0.612 1.079
9.000 -22.032 -26.658 17.306 0.612 1.079
