# z = 3.500000e+00
# log(Z/Zsun) = -3.000000e+00
# log(nH) = -4.000000e+00
1.000 -25.469 -21.502 9.286 0.640 -3.959
1.250 -25.307 -21.630 9.537 0.639 -3.958
1.500 -25.150 -21.754 9.788 0.638 -3.956
1.750 -25.009 -21.874 10.039 0.637 -3.954
2.000 -24.867 -21.989 10.290 0.636 -3.952
2.250 -24.729 -22.100 10.541 0.634 -3.950
2.500 -24.604 -22.208 10.792 0.632 -3.947
2.750 -24.484 -22.315 11.044 0.630 -3.944
3.000 -24.365 -22.423 11.295 0.627 -3.941
3.250 -24.246 -22.536 11.547 0.625 -3.938
3.500 -24.126 -22.656 11.799 0.622 -3.934
3.750 -24.005 -22.785 12.050 0.620 -3.931
4.000 -23.881 -22.924 12.302 0.618 -3.929
4.250 -23.740 -23.073 12.553 0.617 -3.927
4.500 -23.515 -23.233 12.804 0.615 -3.925
4.750 -23.155 -23.415 13.054 0.614 -3.924
5.000 -22.496 -23.741 13.305 0.613 -3.922
5.250 -22.548 -24.555 13.556 0.612 -3.921
5.500 -22.689 -25.149 13.806 0.612 -3.921
5.750 -22.637 -25.531 14.056 0.612 -3.921
6.000 -22.471 -25.800 14.306 0.612 -3.921
6.250 -22.258 -25.991 14.556 0.612 -3.921
6.500 -22.026 -26.123 14.806 0.612 -3.921
6.750 -21.787 -26.206 15.056 0.612 -3.921
7.000 -21.543 -26.256 15.306 0.612 -3.921
7.250 -21.297 -26.286 15.556 0.612 -3.921
7.500 -21.051 -26.303 15.806 0.612 -3.921
7.750 -20.803 -26.312 16.056 0.612 -3.921
8.000 -20.555 -26.318 16.306 0.612 -3.921
8.250 -20.306 -26.321 16.556 0.612 -3.921
8.500 -20.057 -26.322 16.806 0.612 -3.921
8.750 -19.808 -26.323 17.056 0.612 -3.921
9.000 -19.554 -26.319 17.308 0.609 -3.916
