# z = 9.000000e+00
# log(Z/Zsun) = -2.000000e+00
# log(nH) = 4.000000e+00
1.000 -31.891 -30.429 8.981 1.294 -0.603
1.250 -31.149 -30.420 9.230 1.298 -0.530
1.500 -30.676 -30.432 9.478 1.304 -0.455
1.750 -30.191 -30.451 9.725 1.310 -0.384
2.000 -29.604 -30.469 9.977 1.306 -0.323
2.250 -28.985 -30.479 10.228 1.303 -0.279
2.500 -28.268 -30.477 10.477 1.304 -0.259
2.750 -27.418 -30.463 10.726 1.308 -0.286
3.000 -26.768 -30.440 10.978 1.302 -0.398
3.250 -26.033 -30.410 11.229 1.299 -0.546
3.500 -26.454 -30.352 11.484 1.283 -0.291
3.750 -27.672 -30.293 11.736 1.280 0.259
4.000 -26.054 -30.156 11.986 1.278 1.251
4.250 -21.864 -28.235 12.467 0.750 3.890
4.500 -22.268 -27.339 12.784 0.644 4.036
4.750 -22.429 -28.038 13.037 0.639 4.042
5.000 -22.062 -28.406 13.304 0.615 4.075
5.250 -22.502 -27.860 13.556 0.612 4.079
5.500 -22.811 -27.786 13.806 0.612 4.079
5.750 -23.032 -27.836 14.056 0.612 4.079
6.000 -23.125 -27.871 14.306 0.612 4.079
6.250 -23.151 -28.177 14.556 0.612 4.079
6.500 -23.147 -28.587 14.806 0.612 4.079
6.750 -23.078 -28.963 15.056 0.612 4.079
7.000 -22.986 -29.186 15.306 0.612 4.079
7.250 -22.887 -29.320 15.556 0.612 4.079
7.500 -22.777 -29.508 15.806 0.612 4.079
7.750 -22.661 -29.562 16.056 0.612 4.079
8.000 -22.542 -29.591 16.306 0.612 4.079
8.250 -22.421 -29.627 16.556 0.612 4.079
8.500 -22.297 -29.648 16.806 0.612 4.079
8.750 -22.169 -29.655 17.056 0.612 4.079
9.000 -22.032 -29.657 17.306 0.612 4.079
