# z = 1.000000e+01
# log(Z/Zsun) = -3.000000e+00
# log(nH) = 4.000000e+00
1.000 -32.965 -30.630 8.980 1.295 -0.597
1.250 -32.144 -30.626 9.229 1.299 -0.524
1.500 -31.667 -30.627 9.477 1.305 -0.450
1.750 -31.123 -30.627 9.724 1.316 -0.376
2.000 -30.282 -30.625 9.969 1.329 -0.305
2.250 -29.126 -30.621 10.214 1.344 -0.247
2.500 -27.953 -30.614 10.459 1.362 -0.209
2.750 -26.916 -30.604 10.702 1.382 -0.208
3.000 -26.182 -30.602 10.955 1.373 -0.301
3.250 -25.447 -30.600 11.210 1.357 -0.453
3.500 -26.169 -30.586 11.484 1.286 0.110
3.750 -28.178 -30.555 11.736 1.280 0.270
4.000 -26.069 -30.386 11.986 1.278 1.253
4.250 -21.864 -28.253 12.467 0.750 3.890
4.500 -22.272 -27.325 12.784 0.644 4.036
4.750 -22.451 -28.022 13.037 0.639 4.042
5.000 -22.084 -28.542 13.304 0.615 4.075
5.250 -22.569 -28.522 13.556 0.612 4.079
5.500 -22.907 -28.457 13.806 0.612 4.079
5.750 -23.114 -28.515 14.056 0.612 4.079
6.000 -23.207 -28.644 14.306 0.612 4.079
6.250 -23.212 -28.797 14.556 0.612 4.079
6.500 -23.167 -29.044 14.806 0.612 4.079
6.750 -23.090 -29.259 15.056 0.612 4.079
7.000 -22.995 -29.417 15.306 0.612 4.079
7.250 -22.890 -29.531 15.556 0.612 4.079
7.500 -22.778 -29.599 15.806 0.612 4.079
7.750 -22.662 -29.632 16.056 0.612 4.079
8.000 -22.543 -29.647 16.306 0.612 4.079
8.250 -22.422 -29.654 16.556 0.612 4.079
8.500 -22.297 -29.657 16.806 0.612 4.079
8.750 -22.169 -29.658 17.056 0.612 4.079
9.000 -22.032 -29.658 17.306 0.612 4.079
