# z = 8.000000e+00
# log(Z/Zsun) = -5.000000e-01
# log(nH) = 4.000000e+00
1.000 -30.349 -29.260 8.982 1.292 -0.685
1.250 -29.651 -29.289 9.231 1.293 -0.588
1.500 -29.096 -29.349 9.481 1.294 -0.498
1.750 -28.571 -29.401 9.732 1.291 -0.422
2.000 -28.053 -29.446 9.983 1.288 -0.363
2.250 -27.581 -29.470 10.233 1.287 -0.322
2.500 -27.214 -29.467 10.483 1.288 -0.312
2.750 -26.908 -29.478 10.733 1.289 -0.346
3.000 -26.548 -29.611 10.983 1.289 -0.449
3.250 -25.497 -29.622 11.230 1.297 -0.644
3.500 -25.902 -29.529 11.483 1.287 -0.577
3.750 -26.165 -29.281 11.734 1.285 0.024
4.000 -25.735 -29.120 11.984 1.283 1.186
4.250 -21.848 -27.867 12.466 0.753 3.890
4.500 -22.157 -27.339 12.782 0.647 4.036
4.750 -22.011 -27.630 13.035 0.642 4.043
5.000 -21.638 -27.106 13.302 0.618 4.075
5.250 -21.733 -26.672 13.554 0.615 4.079
5.500 -21.918 -26.569 13.804 0.614 4.080
5.750 -22.194 -26.665 14.054 0.614 4.080
6.000 -22.291 -26.871 14.304 0.614 4.080
6.250 -22.418 -27.194 14.555 0.614 4.080
6.500 -22.743 -27.636 14.805 0.614 4.080
6.750 -22.808 -27.753 15.055 0.614 4.080
7.000 -22.768 -27.718 15.305 0.614 4.080
7.250 -22.787 -27.885 15.555 0.614 4.080
7.500 -22.728 -28.077 15.805 0.614 4.080
7.750 -22.627 -28.233 16.055 0.614 4.080
8.000 -22.517 -28.354 16.305 0.614 4.080
8.250 -22.403 -28.661 16.555 0.614 4.080
8.500 -22.283 -28.930 16.805 0.614 4.080
8.750 -22.157 -29.165 17.055 0.614 4.080
9.000 -22.021 -29.406 17.305 0.614 4.080
