# z = 1.250000e+00
# log(Z/Zsun) = -3.000000e+00
# log(nH) = 5.000000e+00
1.000 -33.725 -31.656 8.976 1.307 -0.101
1.250 -33.119 -31.654 9.224 1.316 -0.029
1.500 -32.381 -31.652 9.470 1.327 0.044
1.750 -31.571 -31.649 9.715 1.341 0.111
2.000 -30.730 -31.652 9.966 1.339 0.153
2.250 -29.933 -31.654 10.218 1.333 0.154
2.500 -29.034 -31.653 10.468 1.334 0.101
2.750 -27.980 -31.644 10.710 1.358 0.012
3.000 -27.416 -31.648 10.971 1.324 -0.272
3.250 -26.285 -31.633 11.215 1.341 -0.363
3.500 -28.113 -31.646 11.485 1.280 0.673
3.750 -29.178 -31.641 11.736 1.280 0.774
4.000 -26.075 -31.423 11.986 1.278 2.248
4.250 -21.864 -28.176 12.468 0.750 4.890
4.500 -22.273 -27.320 12.784 0.644 5.036
4.750 -22.451 -28.029 13.037 0.639 5.042
5.000 -22.084 -28.570 13.304 0.615 5.075
5.250 -22.569 -28.555 13.556 0.612 5.079
5.500 -22.908 -28.487 13.806 0.612 5.079
5.750 -23.114 -28.486 14.056 0.612 5.079
6.000 -23.207 -28.624 14.306 0.612 5.079
6.250 -23.212 -28.854 14.556 0.612 5.079
6.500 -23.167 -29.152 14.806 0.612 5.079
6.750 -23.090 -29.452 15.056 0.612 5.079
7.000 -22.995 -29.732 15.306 0.612 5.079
7.250 -22.890 -30.017 15.556 0.612 5.079
7.500 -22.778 -30.270 15.806 0.612 5.079
7.750 -22.662 -30.450 16.056 0.612 5.079
8.000 -22.543 -30.559 16.306 0.612 5.079
8.250 -22.422 -30.619 16.556 0.612 5.079
8.500 -22.297 -30.648 16.806 0.612 5.079
8.750 -22.169 -30.655 17.056 0.612 5.079
9.000 -22.032 -30.657 17.306 0.612 5.079
