# z = 9.000000e+00
# log(Z/Zsun) = -5.000000e-01
# log(nH) = -2.000000e+00
1.000 -28.524 -24.466 8.996 1.250 -3.516
1.250 -27.735 -24.463 9.248 1.244 -3.443
1.500 -26.870 -24.460 9.500 1.237 -3.370
1.750 -26.327 -24.458 9.753 1.229 -3.297
2.000 -25.952 -24.456 10.007 1.219 -3.223
2.250 -25.620 -24.455 10.261 1.207 -3.148
2.500 -25.358 -24.454 10.516 1.193 -3.073
2.750 -25.182 -24.454 10.772 1.177 -2.997
3.000 -25.059 -24.455 11.029 1.159 -2.921
3.250 -24.955 -24.456 11.287 1.137 -2.845
3.500 -24.821 -24.459 11.546 1.112 -2.768
3.750 -24.588 -24.463 11.808 1.084 -2.690
4.000 -23.816 -24.467 12.071 1.052 -2.612
4.250 -21.848 -24.564 12.470 0.747 -2.100
4.500 -22.133 -24.653 12.779 0.651 -1.970
4.750 -21.999 -24.674 13.035 0.642 -1.957
5.000 -21.634 -24.657 13.302 0.618 -1.925
5.250 -21.730 -24.653 13.554 0.615 -1.921
5.500 -21.907 -24.652 13.804 0.614 -1.920
5.750 -22.168 -24.653 14.054 0.614 -1.920
6.000 -22.236 -24.655 14.304 0.614 -1.920
6.250 -22.300 -24.655 14.555 0.614 -1.920
6.500 -22.404 -24.656 14.805 0.614 -1.920
6.750 -22.272 -24.656 15.055 0.614 -1.920
7.000 -22.073 -24.656 15.305 0.614 -1.920
7.250 -21.865 -24.656 15.555 0.614 -1.920
7.500 -21.634 -24.656 15.805 0.614 -1.920
7.750 -21.395 -24.656 16.055 0.614 -1.920
8.000 -21.152 -24.656 16.305 0.614 -1.920
8.250 -20.907 -24.656 16.555 0.614 -1.920
8.500 -20.660 -24.656 16.805 0.614 -1.920
8.750 -20.413 -24.656 17.055 0.614 -1.920
9.000 -20.165 -24.656 17.305 0.614 -1.920
