# z = 5.000000e-01
# log(Z/Zsun) = 0.000000e+00
# log(nH) = -6.000000e+00
1.000 -25.258 -21.015 9.300 0.620 -5.921
1.250 -25.122 -21.141 9.550 0.620 -5.921
1.500 -24.988 -21.268 9.801 0.620 -5.920
1.750 -24.858 -21.394 10.051 0.619 -5.920
2.000 -24.717 -21.519 10.301 0.619 -5.919
2.250 -24.538 -21.639 10.551 0.619 -5.919
2.500 -24.265 -21.748 10.801 0.619 -5.919
2.750 -23.927 -21.852 11.051 0.619 -5.919
3.000 -23.724 -21.951 11.301 0.618 -5.919
3.250 -23.703 -22.049 11.551 0.618 -5.919
3.500 -23.748 -22.146 11.802 0.618 -5.919
3.750 -23.707 -22.237 12.052 0.618 -5.918
4.000 -23.559 -22.318 12.302 0.618 -5.918
4.250 -23.392 -22.394 12.552 0.618 -5.918
4.500 -23.226 -22.470 12.802 0.618 -5.918
4.750 -23.059 -22.554 13.052 0.618 -5.918
5.000 -22.884 -22.667 13.302 0.618 -5.918
5.250 -22.664 -22.804 13.552 0.618 -5.918
5.500 -22.503 -22.976 13.802 0.618 -5.918
5.750 -22.419 -23.148 14.052 0.618 -5.918
6.000 -22.301 -23.291 14.302 0.618 -5.918
6.250 -22.121 -23.399 14.552 0.618 -5.918
6.500 -21.900 -23.486 14.802 0.618 -5.918
6.750 -21.668 -23.596 15.052 0.618 -5.918
7.000 -21.433 -23.790 15.302 0.618 -5.918
7.250 -21.196 -24.035 15.552 0.618 -5.918
7.500 -20.951 -24.144 15.802 0.618 -5.918
7.750 -20.704 -24.198 16.052 0.618 -5.918
8.000 -20.457 -24.244 16.302 0.618 -5.918
8.250 -20.211 -24.277 16.552 0.618 -5.918
8.500 -19.968 -24.299 16.802 0.618 -5.918
8.750 -19.724 -24.311 17.052 0.618 -5.918
9.000 -19.474 -24.315 17.302 0.618 -5.918
