# z = 4.500000e+00
# log(Z/Zsun) = -5.000000e-01
# log(nH) = -6.000000e+00
1.000 -25.023 -21.258 9.290 0.635 -5.949
1.250 -24.807 -21.348 9.541 0.634 -5.946
1.500 -24.572 -21.437 9.792 0.632 -5.944
1.750 -24.325 -21.527 10.044 0.629 -5.940
2.000 -24.081 -21.621 10.296 0.627 -5.937
2.250 -23.830 -21.719 10.547 0.625 -5.934
2.500 -23.565 -21.823 10.799 0.622 -5.931
2.750 -23.307 -21.933 11.050 0.621 -5.929
3.000 -23.076 -22.050 11.301 0.619 -5.927
3.250 -22.868 -22.174 11.552 0.618 -5.925
3.500 -22.660 -22.303 11.803 0.617 -5.924
3.750 -22.436 -22.433 12.053 0.616 -5.923
4.000 -22.198 -22.561 12.304 0.615 -5.922
4.250 -21.952 -22.688 12.554 0.615 -5.921
4.500 -21.704 -22.810 12.804 0.615 -5.921
4.750 -21.454 -22.925 13.054 0.615 -5.921
5.000 -21.201 -23.044 13.304 0.614 -5.920
5.250 -20.950 -23.211 13.555 0.614 -5.920
5.500 -20.704 -23.337 13.805 0.614 -5.920
5.750 -20.457 -23.519 14.055 0.614 -5.920
6.000 -20.208 -23.755 14.305 0.614 -5.920
6.250 -19.959 -23.880 14.555 0.614 -5.920
6.500 -19.709 -23.987 14.805 0.614 -5.920
6.750 -19.459 -24.086 15.055 0.614 -5.920
7.000 -19.210 -24.193 15.305 0.614 -5.920
7.250 -18.962 -24.312 15.555 0.614 -5.920
7.500 -18.713 -24.354 15.805 0.614 -5.920
7.750 -18.464 -24.371 16.055 0.614 -5.920
8.000 -18.217 -24.386 16.305 0.614 -5.920
8.250 -17.976 -24.402 16.555 0.614 -5.920
8.500 -17.726 -24.406 16.805 0.614 -5.920
8.750 -17.476 -24.407 17.055 0.614 -5.920
9.000 -17.226 -24.408 17.305 0.614 -5.920
