# z = 1.250000e+00
# log(Z/Zsun) = -1.000000e+01
# log(nH) = 0.000000e+00
1.000 -30.683 -26.573 8.986 1.277 -2.588
1.250 -30.388 -26.559 9.237 1.277 -2.516
1.500 -30.100 -26.545 9.487 1.276 -2.443
1.750 -29.788 -26.530 9.737 1.276 -2.369
2.000 -29.258 -26.515 9.987 1.275 -2.295
2.250 -28.334 -26.499 10.237 1.274 -2.220
2.500 -27.322 -26.482 10.488 1.274 -2.144
2.750 -26.404 -26.465 10.738 1.274 -2.067
3.000 -25.615 -26.447 10.987 1.276 -1.990
3.250 -25.006 -26.427 11.236 1.279 -1.912
3.500 -24.944 -26.410 11.488 1.272 -1.841
3.750 -25.626 -26.391 11.742 1.261 -1.766
4.000 -24.994 -26.363 11.994 1.255 -1.655
4.250 -21.865 -26.062 12.467 0.750 -0.110
4.500 -22.258 -25.998 12.780 0.649 0.029
4.750 -22.441 -26.005 13.037 0.639 0.042
5.000 -22.086 -25.992 13.304 0.615 0.075
5.250 -22.573 -25.986 13.558 0.609 0.083
5.500 -22.920 -25.990 13.806 0.612 0.079
5.750 -23.124 -25.990 14.056 0.612 0.079
6.000 -23.217 -25.990 14.306 0.612 0.079
6.250 -23.219 -25.991 14.556 0.612 0.079
6.500 -23.169 -25.991 14.806 0.612 0.079
6.750 -23.091 -25.991 15.056 0.612 0.079
7.000 -22.996 -25.991 15.306 0.612 0.079
7.250 -22.890 -25.991 15.556 0.612 0.079
7.500 -22.778 -25.991 15.806 0.612 0.079
7.750 -22.662 -25.991 16.056 0.612 0.079
8.000 -22.543 -25.991 16.306 0.612 0.079
8.250 -22.421 -25.991 16.556 0.612 0.079
8.500 -22.297 -25.991 16.806 0.612 0.079
8.750 -22.169 -25.991 17.056 0.612 0.079
9.000 -22.032 -25.991 17.306 0.612 0.079
