# z = 1.300000e+01
# log(Z/Zsun) = 0.000000e+00
# log(nH) = -2.000000e+00
1.000 -29.043 -25.059 8.985 1.283 -3.946
1.250 -27.767 -25.046 9.235 1.280 -3.876
1.500 -26.818 -25.031 9.486 1.278 -3.805
1.750 -26.267 -25.017 9.737 1.274 -3.733
2.000 -25.892 -25.002 9.989 1.271 -3.661
2.250 -25.560 -24.987 10.240 1.266 -3.588
2.500 -25.297 -24.973 10.492 1.261 -3.514
2.750 -25.122 -24.958 10.744 1.254 -3.438
3.000 -25.001 -24.943 10.997 1.247 -3.363
3.250 -24.902 -24.928 11.250 1.238 -3.286
3.500 -24.771 -24.913 11.504 1.227 -3.208
3.750 -24.547 -24.898 11.759 1.214 -3.129
4.000 -23.947 -24.882 12.014 1.198 -3.046
4.250 -21.806 -24.683 12.463 0.759 -2.109
4.500 -21.942 -24.649 12.775 0.657 -1.971
4.750 -21.621 -24.663 13.032 0.647 -1.957
5.000 -21.253 -24.648 13.299 0.622 -1.924
5.250 -21.273 -24.647 13.551 0.619 -1.920
5.500 -21.434 -24.646 13.801 0.619 -1.919
5.750 -21.696 -24.649 14.051 0.618 -1.919
6.000 -21.755 -24.651 14.302 0.618 -1.919
6.250 -21.812 -24.651 14.552 0.618 -1.918
6.500 -21.903 -24.652 14.802 0.618 -1.918
6.750 -21.749 -24.652 15.052 0.618 -1.918
7.000 -21.533 -24.652 15.302 0.618 -1.918
7.250 -21.312 -24.652 15.552 0.618 -1.918
7.500 -21.072 -24.652 15.802 0.618 -1.918
7.750 -20.826 -24.652 16.052 0.618 -1.918
8.000 -20.578 -24.652 16.302 0.618 -1.918
8.250 -20.330 -24.653 16.552 0.618 -1.918
8.500 -20.081 -24.653 16.802 0.618 -1.918
8.750 -19.832 -24.653 17.052 0.618 -1.918
9.000 -19.582 -24.653 17.302 0.618 -1.918
