# z = 2.000000e+00
# log(Z/Zsun) = -2.000000e+00
# log(nH) = -3.000000e+00
1.000 -25.482 -21.529 9.279 0.652 -2.974
1.250 -25.312 -21.650 9.532 0.647 -2.968
1.500 -25.157 -21.771 9.784 0.644 -2.963
1.750 -25.008 -21.890 10.036 0.640 -2.959
2.000 -24.853 -22.008 10.288 0.637 -2.955
2.250 -24.701 -22.123 10.540 0.635 -2.951
2.500 -24.569 -22.237 10.792 0.632 -2.947
2.750 -24.450 -22.352 11.044 0.629 -2.943
3.000 -24.338 -22.470 11.296 0.626 -2.940
3.250 -24.233 -22.594 11.548 0.623 -2.936
3.500 -24.134 -22.724 11.800 0.621 -2.933
3.750 -24.041 -22.862 12.051 0.619 -2.930
4.000 -23.948 -23.010 12.302 0.617 -2.927
4.250 -23.754 -23.166 12.553 0.616 -2.926
4.500 -23.205 -23.341 12.804 0.615 -2.924
4.750 -22.881 -23.572 13.055 0.614 -2.923
5.000 -22.509 -23.904 13.305 0.613 -2.922
5.250 -22.553 -24.771 13.556 0.612 -2.921
5.500 -22.827 -25.528 13.806 0.612 -2.921
5.750 -23.023 -26.013 14.056 0.612 -2.921
6.000 -23.096 -26.336 14.306 0.612 -2.921
6.250 -23.097 -26.588 14.556 0.612 -2.921
6.500 -23.053 -26.803 14.806 0.612 -2.921
6.750 -22.943 -26.922 15.056 0.612 -2.921
7.000 -22.803 -26.991 15.306 0.612 -2.921
7.250 -22.644 -27.032 15.556 0.612 -2.921
7.500 -22.468 -27.055 15.806 0.612 -2.921
7.750 -22.279 -27.067 16.056 0.612 -2.921
8.000 -22.079 -27.074 16.306 0.612 -2.921
8.250 -21.869 -27.078 16.556 0.612 -2.921
8.500 -21.651 -27.080 16.806 0.612 -2.921
8.750 -21.426 -27.082 17.056 0.612 -2.921
9.000 -21.194 -27.082 17.306 0.612 -2.921
