# z = 2.500000e+00
# log(Z/Zsun) = -1.000000e+01
# log(nH) = 6.000000e+00
1.000 -35.938 -32.653 8.976 1.308 0.396
1.250 -34.819 -32.652 9.224 1.315 0.467
1.500 -34.186 -32.652 9.471 1.324 0.537
1.750 -33.450 -32.651 9.717 1.337 0.605
2.000 -32.330 -32.647 9.961 1.356 0.669
2.250 -30.959 -32.639 10.201 1.386 0.724
2.500 -29.656 -32.620 10.433 1.446 0.753
2.750 -28.486 -32.586 10.649 1.561 0.725
3.000 -27.541 -32.555 10.866 1.687 0.633
3.250 -26.927 -32.625 11.195 1.405 0.668
3.500 -29.898 -32.645 11.486 1.280 1.188
3.750 -30.622 -32.640 11.736 1.280 1.275
4.000 -26.076 -32.438 11.986 1.278 3.247
4.250 -21.865 -28.168 12.468 0.750 5.890
4.500 -22.274 -27.318 12.784 0.644 6.036
4.750 -22.454 -28.035 13.037 0.639 6.042
5.000 -22.086 -28.636 13.304 0.615 6.075
5.250 -22.573 -28.622 13.558 0.609 6.083
5.500 -22.920 -28.560 13.806 0.612 6.079
5.750 -23.124 -28.609 14.056 0.612 6.079
6.000 -23.217 -28.763 14.306 0.612 6.079
6.250 -23.219 -28.965 14.556 0.612 6.079
6.500 -23.169 -29.203 14.806 0.612 6.079
6.750 -23.091 -29.491 15.056 0.612 6.079
7.000 -22.996 -29.793 15.306 0.612 6.079
7.250 -22.890 -30.131 15.556 0.612 6.079
7.500 -22.778 -30.478 15.806 0.612 6.079
7.750 -22.662 -30.817 16.056 0.612 6.079
8.000 -22.543 -31.124 16.306 0.612 6.079
8.250 -22.422 -31.388 16.556 0.612 6.079
8.500 -22.298 -31.573 16.806 0.612 6.079
8.750 -22.169 -31.635 17.056 0.612 6.079
9.000 -22.033 -31.648 17.306 0.612 6.079
