# z = 1.500000e+01
# log(Z/Zsun) = 1.000000e+00
# log(nH) = -5.000000e+00
1.000 -24.640 -21.891 9.122 0.936 -5.228
1.250 -24.303 -21.944 9.388 0.901 -5.182
1.500 -23.838 -22.007 9.654 0.869 -5.141
1.750 -23.441 -22.079 9.919 0.839 -5.104
2.000 -23.106 -22.163 10.183 0.813 -5.071
2.250 -22.784 -22.259 10.445 0.791 -5.044
2.500 -22.517 -22.364 10.705 0.772 -5.021
2.750 -22.311 -22.476 10.964 0.757 -5.003
3.000 -22.139 -22.594 11.221 0.745 -4.988
3.250 -21.971 -22.715 11.476 0.736 -4.977
3.500 -21.789 -22.838 11.730 0.729 -4.969
3.750 -21.577 -22.961 11.983 0.724 -4.963
4.000 -21.325 -23.081 12.235 0.721 -4.959
4.250 -21.032 -23.196 12.486 0.718 -4.956
4.500 -20.708 -23.422 12.738 0.715 -4.952
4.750 -20.352 -23.548 12.989 0.713 -4.950
5.000 -20.029 -23.663 13.257 0.685 -4.916
5.250 -19.878 -23.686 13.511 0.679 -4.908
5.500 -19.745 -23.686 13.764 0.675 -4.903
5.750 -19.556 -23.685 14.015 0.673 -4.900
6.000 -19.320 -23.684 14.266 0.671 -4.898
6.250 -19.075 -23.682 14.518 0.669 -4.895
6.500 -18.826 -23.681 14.769 0.666 -4.892
6.750 -18.575 -23.681 15.020 0.665 -4.891
7.000 -18.324 -23.681 15.270 0.664 -4.890
7.250 -18.074 -23.682 15.521 0.664 -4.889
7.500 -17.824 -23.683 15.771 0.663 -4.889
7.750 -17.574 -23.683 16.021 0.663 -4.889
8.000 -17.323 -23.683 16.271 0.663 -4.889
8.250 -17.073 -23.684 16.521 0.663 -4.889
8.500 -16.823 -23.684 16.771 0.663 -4.889
8.750 -16.574 -23.684 17.021 0.663 -4.889
9.000 -16.324 -23.684 17.271 0.663 -4.889
