# z = 1.300000e+01
# log(Z/Zsun) = -1.000000e+00
# log(nH) = 0.000000e+00
1.000 -31.103 -26.808 8.986 1.280 -2.785
1.250 -30.029 -26.790 9.236 1.280 -2.714
1.500 -28.896 -26.771 9.486 1.280 -2.643
1.750 -28.495 -26.750 9.736 1.279 -2.571
2.000 -28.045 -26.729 9.986 1.279 -2.498
2.250 -27.481 -26.708 10.236 1.279 -2.426
2.500 -26.931 -26.685 10.486 1.279 -2.352
2.750 -26.318 -26.662 10.736 1.279 -2.279
3.000 -25.679 -26.638 10.985 1.280 -2.207
3.250 -25.246 -26.614 11.235 1.280 -2.138
3.500 -25.189 -26.592 11.487 1.277 -2.077
3.750 -25.506 -26.565 11.739 1.271 -1.999
4.000 -25.094 -26.526 11.990 1.267 -1.878
4.250 -21.858 -26.005 12.467 0.751 -0.110
4.500 -22.215 -25.957 12.780 0.650 0.029
4.750 -22.249 -25.987 13.037 0.640 0.042
5.000 -21.888 -25.974 13.303 0.616 0.075
5.250 -22.116 -25.948 13.555 0.613 0.079
5.500 -22.330 -25.941 13.805 0.613 0.079
5.750 -22.593 -25.942 14.055 0.613 0.079
6.000 -22.686 -25.961 14.305 0.613 0.079
6.250 -22.779 -25.975 14.555 0.613 0.079
6.500 -22.952 -25.986 14.805 0.613 0.079
6.750 -22.924 -25.988 15.055 0.613 0.079
7.000 -22.827 -25.987 15.305 0.613 0.079
7.250 -22.731 -25.988 15.555 0.613 0.080
7.500 -22.594 -25.989 15.805 0.613 0.080
7.750 -22.433 -25.990 16.055 0.613 0.080
8.000 -22.259 -25.990 16.305 0.613 0.080
8.250 -22.073 -25.990 16.555 0.613 0.080
8.500 -21.877 -25.990 16.805 0.613 0.080
8.750 -21.670 -25.990 17.055 0.613 0.080
9.000 -21.453 -25.990 17.305 0.613 0.080
