# z = 1.000000e+00
# log(Z/Zsun) = -5.000000e-01
# log(nH) = -4.000000e+00
1.000 -25.392 -21.355 9.289 0.637 -3.951
1.250 -25.233 -21.463 9.541 0.634 -3.947
1.500 -25.048 -21.571 9.793 0.631 -3.943
1.750 -24.796 -21.683 10.045 0.628 -3.939
2.000 -24.538 -21.798 10.297 0.625 -3.935
2.250 -24.296 -21.919 10.548 0.623 -3.932
2.500 -24.026 -22.045 10.800 0.621 -3.929
2.750 -23.765 -22.177 11.051 0.619 -3.927
3.000 -23.575 -22.315 11.302 0.618 -3.925
3.250 -23.482 -22.458 11.552 0.617 -3.924
3.500 -23.474 -22.606 11.803 0.616 -3.923
3.750 -23.511 -22.758 12.053 0.616 -3.922
4.000 -23.534 -22.913 12.304 0.615 -3.922
4.250 -23.451 -23.069 12.554 0.615 -3.921
4.500 -23.045 -23.222 12.804 0.615 -3.921
4.750 -22.567 -23.379 13.054 0.615 -3.921
5.000 -22.205 -23.549 13.304 0.614 -3.920
5.250 -22.038 -23.831 13.554 0.614 -3.920
5.500 -22.148 -24.168 13.804 0.614 -3.920
5.750 -22.263 -24.427 14.054 0.614 -3.920
6.000 -22.306 -24.635 14.305 0.614 -3.920
6.250 -22.435 -24.889 14.555 0.614 -3.920
6.500 -22.693 -25.298 14.805 0.614 -3.920
6.750 -22.694 -25.560 15.055 0.614 -3.920
7.000 -22.585 -25.733 15.305 0.614 -3.920
7.250 -22.450 -25.915 15.555 0.614 -3.920
7.500 -22.275 -25.997 15.805 0.614 -3.920
7.750 -22.072 -26.028 16.055 0.614 -3.920
8.000 -21.856 -26.048 16.305 0.614 -3.920
8.250 -21.633 -26.063 16.555 0.614 -3.920
8.500 -21.402 -26.070 16.805 0.614 -3.920
8.750 -21.167 -26.073 17.055 0.614 -3.920
9.000 -20.928 -26.075 17.305 0.614 -3.920
