# z = 2.250000e+00
# log(Z/Zsun) = 1.000000e+00
# log(nH) = -6.000000e+00
1.000 -24.975 -20.462 9.264 0.674 -5.902
1.250 -24.856 -20.553 9.515 0.673 -5.901
1.500 -24.727 -20.638 9.765 0.672 -5.900
1.750 -24.594 -20.716 10.016 0.672 -5.899
2.000 -24.450 -20.791 10.266 0.671 -5.899
2.250 -24.292 -20.859 10.516 0.671 -5.898
2.500 -24.094 -20.893 10.766 0.671 -5.898
2.750 -23.828 -20.934 11.017 0.670 -5.897
3.000 -23.613 -20.980 11.267 0.670 -5.897
3.250 -23.392 -21.032 11.517 0.669 -5.896
3.500 -23.124 -21.093 11.768 0.669 -5.896
3.750 -22.852 -21.167 12.018 0.668 -5.895
4.000 -22.655 -21.276 12.268 0.668 -5.894
4.250 -22.540 -21.444 12.519 0.667 -5.893
4.500 -22.428 -21.640 12.769 0.666 -5.893
4.750 -22.233 -21.794 13.019 0.666 -5.892
5.000 -21.982 -21.912 13.270 0.666 -5.892
5.250 -21.730 -22.026 13.520 0.665 -5.891
5.500 -21.507 -22.147 13.770 0.665 -5.891
5.750 -21.291 -22.265 14.020 0.665 -5.891
6.000 -21.062 -22.369 14.270 0.665 -5.891
6.250 -20.823 -22.451 14.520 0.664 -5.890
6.500 -20.579 -22.515 14.770 0.664 -5.890
6.750 -20.332 -22.617 15.021 0.664 -5.890
7.000 -20.086 -22.873 15.271 0.664 -5.890
7.250 -19.839 -23.230 15.521 0.663 -5.889
7.500 -19.591 -23.448 15.771 0.663 -5.889
7.750 -19.341 -23.597 16.021 0.663 -5.889
8.000 -19.091 -23.755 16.271 0.663 -5.889
8.250 -18.842 -23.896 16.521 0.663 -5.889
8.500 -18.592 -23.984 16.771 0.663 -5.889
8.750 -18.344 -24.032 17.021 0.663 -5.889
9.000 -18.096 -24.059 17.271 0.663 -5.889
