# z = 1.000000e+00
# log(Z/Zsun) = -1.000000e+01
# log(nH) = 2.000000e+00
1.000 -32.576 -28.645 8.984 1.283 -1.597
1.250 -32.244 -28.631 9.234 1.284 -1.524
1.500 -31.853 -28.617 9.484 1.285 -1.450
1.750 -30.838 -28.601 9.733 1.287 -1.376
2.000 -29.389 -28.584 9.982 1.289 -1.301
2.250 -28.030 -28.565 10.230 1.295 -1.225
2.500 -26.857 -28.544 10.477 1.306 -1.149
2.750 -25.874 -28.519 10.720 1.328 -1.073
3.000 -25.077 -28.489 10.957 1.367 -0.999
3.250 -24.511 -28.458 11.193 1.413 -0.930
3.500 -25.112 -28.470 11.480 1.296 -0.874
3.750 -26.291 -28.444 11.736 1.279 -0.766
4.000 -25.838 -28.377 11.987 1.277 -0.509
4.250 -21.865 -27.708 12.467 0.751 1.890
4.500 -22.260 -27.224 12.781 0.649 2.030
4.750 -22.442 -27.501 13.037 0.639 2.042
5.000 -22.086 -27.595 13.304 0.615 2.075
5.250 -22.577 -27.607 13.556 0.612 2.079
5.500 -22.920 -27.604 13.806 0.612 2.079
5.750 -23.124 -27.611 14.056 0.612 2.079
6.000 -23.217 -27.625 14.306 0.612 2.079
6.250 -23.219 -27.637 14.556 0.612 2.079
6.500 -23.169 -27.646 14.806 0.612 2.079
6.750 -23.091 -27.652 15.056 0.612 2.079
7.000 -22.996 -27.655 15.306 0.612 2.079
7.250 -22.890 -27.656 15.556 0.612 2.079
7.500 -22.778 -27.657 15.806 0.612 2.079
7.750 -22.662 -27.658 16.056 0.612 2.079
8.000 -22.543 -27.658 16.306 0.612 2.079
8.250 -22.422 -27.658 16.556 0.612 2.079
8.500 -22.297 -27.658 16.806 0.612 2.079
8.750 -22.169 -27.658 17.056 0.612 2.079
9.000 -22.033 -27.658 17.306 0.612 2.079
