# z = 1.000000e+00
# log(Z/Zsun) = -3.000000e+00
# log(nH) = -2.000000e+00
1.000 -26.889 -23.001 9.060 1.079 -2.687
1.250 -26.617 -23.017 9.321 1.052 -2.622
1.500 -26.352 -23.036 9.583 1.022 -2.557
1.750 -26.097 -23.058 9.847 0.991 -2.493
2.000 -25.841 -23.085 10.112 0.958 -2.431
2.250 -25.593 -23.118 10.378 0.923 -2.371
2.500 -25.370 -23.157 10.644 0.888 -2.313
2.750 -25.162 -23.203 10.912 0.853 -2.258
3.000 -24.965 -23.258 11.180 0.818 -2.207
3.250 -24.778 -23.324 11.448 0.786 -2.160
3.500 -24.604 -23.400 11.714 0.756 -2.117
3.750 -24.441 -23.489 11.980 0.729 -2.080
4.000 -23.918 -23.589 12.244 0.706 -2.049
4.250 -22.138 -23.802 12.514 0.675 -2.006
4.500 -22.289 -24.319 12.784 0.644 -1.963
4.750 -22.447 -24.510 13.038 0.638 -1.956
5.000 -22.086 -24.638 13.304 0.615 -1.925
5.250 -22.569 -24.657 13.556 0.612 -1.921
5.500 -22.907 -24.658 13.806 0.612 -1.921
5.750 -23.114 -24.658 14.056 0.612 -1.921
6.000 -23.206 -24.658 14.306 0.612 -1.921
6.250 -23.210 -24.658 14.556 0.612 -1.921
6.500 -23.165 -24.658 14.806 0.612 -1.921
6.750 -23.086 -24.658 15.056 0.612 -1.921
7.000 -22.990 -24.658 15.306 0.612 -1.921
7.250 -22.883 -24.658 15.556 0.612 -1.921
7.500 -22.769 -24.658 15.806 0.612 -1.921
7.750 -22.650 -24.658 16.056 0.612 -1.921
8.000 -22.527 -24.658 16.306 0.612 -1.921
8.250 -22.400 -24.658 16.556 0.612 -1.921
8.500 -22.269 -24.658 16.806 0.612 -1.921
8.750 -22.132 -24.658 17.056 0.612 -1.921
9.000 -21.985 -24.658 17.306 0.612 -1.921
