# z = 8.000000e+00
# log(Z/Zsun) = -1.000000e+00
# log(nH) = 1.000000e+00
1.000 -31.766 -27.539 8.985 1.282 -2.110
1.250 -29.284 -27.525 9.235 1.282 -2.038
1.500 -28.723 -27.507 9.485 1.282 -1.966
1.750 -28.401 -27.489 9.735 1.282 -1.893
2.000 -28.062 -27.470 9.985 1.282 -1.820
2.250 -27.567 -27.450 10.235 1.283 -1.746
2.500 -26.982 -27.427 10.484 1.284 -1.672
2.750 -26.327 -27.404 10.734 1.285 -1.600
3.000 -25.713 -27.380 10.983 1.288 -1.531
3.250 -25.406 -27.357 11.233 1.286 -1.473
3.500 -25.366 -27.338 11.485 1.283 -1.427
3.750 -25.787 -27.300 11.737 1.277 -1.317
4.000 -25.374 -27.247 11.988 1.274 -1.158
4.250 -21.858 -26.651 12.467 0.751 0.890
4.500 -22.215 -26.608 12.780 0.650 1.029
4.750 -22.249 -26.648 13.037 0.640 1.042
5.000 -21.888 -26.610 13.303 0.616 1.075
5.250 -22.116 -26.488 13.555 0.613 1.079
5.500 -22.331 -26.465 13.805 0.613 1.079
5.750 -22.596 -26.466 14.055 0.613 1.079
6.000 -22.691 -26.535 14.305 0.613 1.079
6.250 -22.791 -26.589 14.555 0.613 1.079
6.500 -22.985 -26.638 14.805 0.613 1.079
6.750 -22.979 -26.644 15.055 0.613 1.079
7.000 -22.909 -26.643 15.305 0.613 1.079
7.250 -22.853 -26.647 15.555 0.613 1.080
7.500 -22.758 -26.652 15.805 0.613 1.080
7.750 -22.646 -26.654 16.055 0.613 1.080
8.000 -22.528 -26.655 16.305 0.613 1.080
8.250 -22.407 -26.656 16.555 0.613 1.080
8.500 -22.281 -26.657 16.805 0.613 1.080
8.750 -22.150 -26.657 17.055 0.613 1.080
9.000 -22.009 -26.657 17.305 0.613 1.080
