# z = 5.500000e+00
# log(Z/Zsun) = -1.000000e+01
# log(nH) = 4.000000e+00
1.000 -34.710 -30.666 8.980 1.296 -0.597
1.250 -34.233 -30.663 9.229 1.300 -0.523
1.500 -32.918 -30.661 9.477 1.305 -0.449
1.750 -31.818 -30.658 9.723 1.316 -0.375
2.000 -30.476 -30.651 9.967 1.336 -0.301
2.250 -29.007 -30.636 10.204 1.377 -0.229
2.500 -27.690 -30.612 10.434 1.442 -0.163
2.750 -26.576 -30.581 10.658 1.531 -0.106
3.000 -25.681 -30.548 10.878 1.641 -0.066
3.250 -24.949 -30.565 11.146 1.574 -0.155
3.500 -26.133 -30.635 11.483 1.286 0.164
3.750 -28.300 -30.618 11.736 1.280 0.271
4.000 -26.071 -30.438 11.986 1.278 1.253
4.250 -21.860 -28.254 12.469 0.747 3.895
4.500 -22.268 -27.323 12.786 0.641 4.040
4.750 -22.453 -28.020 13.037 0.639 4.042
5.000 -22.086 -28.557 13.304 0.615 4.075
5.250 -22.577 -28.554 13.556 0.612 4.079
5.500 -22.920 -28.507 13.806 0.612 4.079
5.750 -23.120 -28.553 14.058 0.609 4.083
6.000 -23.217 -28.705 14.306 0.612 4.079
6.250 -23.219 -28.883 14.556 0.612 4.079
6.500 -23.169 -29.072 14.806 0.612 4.079
6.750 -23.091 -29.268 15.056 0.612 4.079
7.000 -22.996 -29.422 15.306 0.612 4.079
7.250 -22.890 -29.535 15.556 0.612 4.079
7.500 -22.778 -29.601 15.806 0.612 4.079
7.750 -22.662 -29.633 16.056 0.612 4.079
8.000 -22.543 -29.648 16.306 0.612 4.079
8.250 -22.422 -29.654 16.556 0.612 4.079
8.500 -22.297 -29.657 16.806 0.612 4.079
8.750 -22.169 -29.658 17.056 0.612 4.079
9.000 -22.033 -29.658 17.306 0.612 4.079
