# z = 1.750000e+00
# log(Z/Zsun) = -5.000000e-01
# log(nH) = -3.000000e+00
1.000 -25.477 -21.530 9.276 0.656 -2.976
1.250 -25.291 -21.649 9.529 0.651 -2.970
1.500 -25.058 -21.769 9.782 0.647 -2.964
1.750 -24.745 -21.887 10.034 0.643 -2.960
2.000 -24.407 -22.003 10.286 0.640 -2.955
2.250 -24.129 -22.118 10.539 0.637 -2.951
2.500 -23.940 -22.231 10.791 0.634 -2.947
2.750 -23.809 -22.345 11.043 0.631 -2.943
3.000 -23.705 -22.462 11.295 0.628 -2.939
3.250 -23.627 -22.583 11.546 0.626 -2.936
3.500 -23.577 -22.711 11.798 0.623 -2.932
3.750 -23.551 -22.846 12.050 0.621 -2.929
4.000 -23.497 -22.989 12.301 0.619 -2.927
4.250 -23.264 -23.139 12.552 0.618 -2.925
4.500 -22.709 -23.302 12.803 0.617 -2.924
4.750 -22.240 -23.506 13.053 0.616 -2.923
5.000 -21.898 -23.775 13.304 0.615 -2.922
5.250 -21.786 -24.325 13.554 0.614 -2.920
5.500 -21.974 -24.802 13.804 0.614 -2.920
5.750 -22.205 -25.149 14.054 0.614 -2.920
6.000 -22.290 -25.419 14.304 0.614 -2.920
6.250 -22.416 -25.716 14.555 0.614 -2.920
6.500 -22.724 -26.188 14.805 0.614 -2.920
6.750 -22.776 -26.488 15.055 0.614 -2.920
7.000 -22.702 -26.673 15.305 0.614 -2.920
7.250 -22.635 -26.846 15.555 0.614 -2.920
7.500 -22.510 -26.938 15.805 0.614 -2.920
7.750 -22.343 -26.978 16.055 0.614 -2.920
8.000 -22.160 -27.004 16.305 0.614 -2.920
8.250 -21.965 -27.028 16.555 0.614 -2.920
8.500 -21.758 -27.039 16.805 0.614 -2.920
8.750 -21.541 -27.045 17.055 0.614 -2.920
9.000 -21.317 -27.048 17.305 0.614 -2.920
