# z = 6.000000e+00
# log(Z/Zsun) = 0.000000e+00
# log(nH) = 5.000000e+00
1.000 -32.590 -29.169 8.979 1.301 -0.335
1.250 -30.672 -29.802 9.228 1.303 -0.225
1.500 -28.770 -30.500 9.474 1.313 -0.091
1.750 -28.150 -30.554 9.712 1.352 0.050
2.000 -27.646 -30.607 9.952 1.384 0.149
2.250 -27.209 -30.523 10.192 1.416 0.222
2.500 -26.843 -30.382 10.434 1.441 0.238
2.750 -26.341 -30.265 10.723 1.319 0.066
3.000 -25.857 -30.012 10.949 1.394 0.069
3.250 -25.097 -29.685 11.181 1.452 0.159
3.500 -25.287 -29.698 11.480 1.296 0.460
3.750 -25.634 -29.783 11.730 1.296 0.652
4.000 -25.673 -29.714 11.981 1.294 2.028
4.250 -21.822 -27.205 12.462 0.760 4.891
4.500 -22.002 -26.762 12.779 0.652 5.037
4.750 -21.641 -26.794 13.032 0.647 5.043
5.000 -21.261 -26.482 13.299 0.622 5.076
5.250 -21.279 -26.414 13.551 0.619 5.080
5.500 -21.454 -26.368 13.801 0.619 5.081
5.750 -21.734 -26.117 14.051 0.618 5.081
6.000 -21.833 -26.252 14.302 0.618 5.081
6.250 -21.967 -26.950 14.552 0.618 5.082
6.500 -22.370 -27.205 14.802 0.618 5.082
6.750 -22.498 -27.299 15.052 0.618 5.082
7.000 -22.492 -27.335 15.302 0.618 5.082
7.250 -22.623 -27.521 15.552 0.618 5.082
7.500 -22.636 -27.641 15.802 0.618 5.082
7.750 -22.559 -27.755 16.052 0.618 5.082
8.000 -22.464 -27.869 16.302 0.618 5.082
8.250 -22.364 -28.196 16.552 0.618 5.082
8.500 -22.252 -28.501 16.802 0.618 5.082
8.750 -22.130 -28.803 17.052 0.618 5.082
9.000 -21.997 -29.143 17.302 0.618 5.082
