# z = 6.000000e+00
# log(Z/Zsun) = -2.000000e+00
# log(nH) = -2.000000e+00
1.000 -26.711 -22.761 9.079 1.032 -2.577
1.250 -26.456 -22.782 9.342 1.002 -2.514
1.500 -26.146 -22.808 9.606 0.970 -2.453
1.750 -25.866 -22.839 9.871 0.936 -2.393
2.000 -25.604 -22.876 10.138 0.902 -2.335
2.250 -25.356 -22.919 10.405 0.867 -2.280
2.500 -25.142 -22.972 10.672 0.833 -2.229
2.750 -24.953 -23.033 10.939 0.800 -2.181
3.000 -24.780 -23.106 11.206 0.770 -2.137
3.250 -24.620 -23.190 11.472 0.743 -2.099
3.500 -24.469 -23.287 11.736 0.719 -2.066
3.750 -24.324 -23.398 11.999 0.699 -2.038
4.000 -23.933 -23.521 12.259 0.682 -2.016
4.250 -22.270 -23.732 12.521 0.664 -1.991
4.500 -22.298 -24.353 12.784 0.643 -1.963
4.750 -22.418 -24.653 13.037 0.639 -1.958
5.000 -22.060 -24.659 13.304 0.615 -1.925
5.250 -22.498 -24.657 13.556 0.612 -1.921
5.500 -22.796 -24.657 13.806 0.612 -1.921
5.750 -22.991 -24.658 14.056 0.612 -1.921
6.000 -23.040 -24.658 14.306 0.612 -1.921
6.250 -23.003 -24.658 14.556 0.612 -1.921
6.500 -22.912 -24.658 14.806 0.612 -1.921
6.750 -22.758 -24.658 15.056 0.612 -1.921
7.000 -22.577 -24.658 15.306 0.612 -1.921
7.250 -22.379 -24.658 15.556 0.612 -1.921
7.500 -22.168 -24.658 15.806 0.612 -1.921
7.750 -21.948 -24.658 16.056 0.612 -1.921
8.000 -21.720 -24.658 16.306 0.612 -1.921
8.250 -21.488 -24.658 16.556 0.612 -1.921
8.500 -21.250 -24.658 16.806 0.612 -1.921
8.750 -21.010 -24.658 17.056 0.612 -1.921
9.000 -20.767 -24.658 17.306 0.612 -1.921
