# z = 1.250000e+00
# log(Z/Zsun) = -2.000000e+00
# log(nH) = -2.000000e+00
1.000 -26.646 -22.754 9.082 1.025 -2.563
1.250 -26.374 -22.777 9.345 0.995 -2.501
1.500 -26.101 -22.803 9.609 0.962 -2.440
1.750 -25.837 -22.834 9.875 0.929 -2.381
2.000 -25.581 -22.872 10.141 0.894 -2.324
2.250 -25.337 -22.916 10.408 0.860 -2.270
2.500 -25.124 -22.969 10.676 0.826 -2.219
2.750 -24.937 -23.031 10.943 0.794 -2.172
3.000 -24.767 -23.104 11.209 0.764 -2.129
3.250 -24.609 -23.188 11.475 0.738 -2.092
3.500 -24.461 -23.284 11.739 0.714 -2.060
3.750 -24.318 -23.392 12.001 0.695 -2.033
4.000 -23.941 -23.510 12.261 0.679 -2.012
4.250 -22.289 -23.703 12.522 0.662 -1.988
4.500 -22.298 -24.211 12.785 0.642 -1.961
4.750 -22.432 -24.416 13.038 0.637 -1.955
5.000 -22.066 -24.621 13.304 0.615 -1.925
5.250 -22.502 -24.656 13.556 0.612 -1.921
5.500 -22.810 -24.657 13.806 0.612 -1.921
5.750 -23.031 -24.658 14.056 0.612 -1.921
6.000 -23.124 -24.658 14.306 0.612 -1.921
6.250 -23.150 -24.658 14.556 0.612 -1.921
6.500 -23.144 -24.658 14.806 0.612 -1.921
6.750 -23.073 -24.658 15.056 0.612 -1.921
7.000 -22.979 -24.658 15.306 0.612 -1.921
7.250 -22.876 -24.658 15.556 0.612 -1.921
7.500 -22.763 -24.658 15.806 0.612 -1.921
7.750 -22.642 -24.658 16.056 0.612 -1.921
8.000 -22.517 -24.658 16.306 0.612 -1.921
8.250 -22.383 -24.654 16.558 0.609 -1.916
8.500 -22.252 -24.658 16.806 0.612 -1.921
8.750 -22.111 -24.658 17.056 0.612 -1.921
9.000 -21.958 -24.658 17.306 0.612 -1.921
