# z = 8.000000e+00
# log(Z/Zsun) = 5.000000e-01
# log(nH) = 1.000000e+00
1.000 -31.413 -27.157 8.969 1.328 -2.140
1.250 -27.780 -27.173 9.219 1.328 -2.061
1.500 -27.198 -27.160 9.470 1.328 -1.983
1.750 -26.851 -27.145 9.720 1.328 -1.907
2.000 -26.559 -27.130 9.970 1.328 -1.832
2.250 -26.236 -27.113 10.220 1.327 -1.757
2.500 -25.916 -27.067 10.470 1.327 -1.683
2.750 -25.660 -27.018 10.720 1.327 -1.613
3.000 -25.446 -26.966 10.970 1.326 -1.548
3.250 -25.263 -26.913 11.220 1.326 -1.492
3.500 -25.091 -26.855 11.470 1.325 -1.450
3.750 -24.905 -26.796 11.721 1.325 -1.401
4.000 -24.532 -26.720 11.971 1.323 -1.276
4.250 -21.702 -25.823 12.451 0.780 0.891
4.500 -21.619 -25.856 12.764 0.674 1.030
4.750 -21.169 -26.187 13.021 0.663 1.045
5.000 -20.800 -26.071 13.288 0.638 1.078
5.250 -20.789 -26.061 13.541 0.634 1.083
5.500 -20.950 -26.049 13.792 0.632 1.085
5.750 -21.236 -26.214 14.042 0.632 1.086
6.000 -21.332 -26.306 14.293 0.631 1.086
6.250 -21.478 -26.337 14.543 0.630 1.087
6.500 -21.914 -26.387 14.794 0.630 1.088
6.750 -22.075 -26.421 15.044 0.629 1.089
7.000 -22.091 -26.447 15.294 0.629 1.089
7.250 -22.317 -26.511 15.544 0.629 1.089
7.500 -22.425 -26.530 15.794 0.629 1.089
7.750 -22.390 -26.552 16.044 0.629 1.089
8.000 -22.324 -26.571 16.294 0.629 1.089
8.250 -22.252 -26.610 16.544 0.629 1.090
8.500 -22.157 -26.628 16.794 0.629 1.090
8.750 -22.042 -26.638 17.044 0.629 1.090
9.000 -21.912 -26.643 17.294 0.629 1.090
