# z = 2.750000e+00
# log(Z/Zsun) = -3.000000e+00
# log(nH) = 0.000000e+00
1.000 -30.920 -26.776 8.986 1.278 -2.750
1.250 -30.505 -26.758 9.236 1.278 -2.679
1.500 -30.156 -26.739 9.486 1.278 -2.607
1.750 -29.813 -26.720 9.736 1.277 -2.535
2.000 -29.175 -26.700 9.987 1.277 -2.462
2.250 -28.183 -26.679 10.237 1.277 -2.389
2.500 -27.173 -26.658 10.486 1.277 -2.315
2.750 -26.265 -26.635 10.736 1.279 -2.240
3.000 -25.484 -26.612 10.985 1.282 -2.165
3.250 -24.882 -26.587 11.233 1.288 -2.090
3.500 -24.812 -26.568 11.485 1.281 -2.027
3.750 -25.554 -26.546 11.740 1.268 -1.954
4.000 -25.151 -26.510 11.991 1.264 -1.837
4.250 -21.864 -26.075 12.467 0.751 -0.110
4.500 -22.258 -25.999 12.780 0.649 0.029
4.750 -22.438 -26.005 13.037 0.639 0.042
5.000 -22.083 -25.992 13.304 0.615 0.075
5.250 -22.569 -25.990 13.556 0.612 0.079
5.500 -22.907 -25.990 13.806 0.612 0.079
5.750 -23.114 -25.990 14.056 0.612 0.079
6.000 -23.207 -25.990 14.306 0.612 0.079
6.250 -23.211 -25.991 14.556 0.612 0.079
6.500 -23.167 -25.991 14.806 0.612 0.079
6.750 -23.089 -25.991 15.056 0.612 0.079
7.000 -22.994 -25.991 15.306 0.612 0.079
7.250 -22.889 -25.991 15.556 0.612 0.079
7.500 -22.777 -25.991 15.806 0.612 0.079
7.750 -22.661 -25.991 16.056 0.612 0.079
8.000 -22.541 -25.991 16.306 0.612 0.079
8.250 -22.419 -25.991 16.556 0.612 0.079
8.500 -22.294 -25.991 16.806 0.612 0.079
8.750 -22.164 -25.991 17.056 0.612 0.079
9.000 -22.026 -25.991 17.306 0.612 0.079
