# z = 2.250000e+00
# log(Z/Zsun) = -2.000000e+00
# log(nH) = 2.000000e+00
1.000 -30.525 -28.644 8.984 1.283 -1.599
1.250 -29.975 -28.630 9.234 1.284 -1.526
1.500 -29.601 -28.616 9.484 1.285 -1.453
1.750 -29.342 -28.600 9.733 1.286 -1.379
2.000 -28.942 -28.584 9.983 1.289 -1.304
2.250 -28.031 -28.566 10.231 1.293 -1.230
2.500 -26.986 -28.547 10.479 1.299 -1.156
2.750 -26.077 -28.526 10.726 1.309 -1.086
3.000 -25.388 -28.507 10.972 1.320 -1.026
3.250 -25.050 -28.496 11.224 1.314 -0.993
3.500 -25.218 -28.481 11.481 1.293 -0.925
3.750 -26.273 -28.444 11.736 1.279 -0.774
4.000 -25.822 -28.376 11.987 1.277 -0.511
4.250 -21.864 -27.702 12.467 0.751 1.890
4.500 -22.256 -27.253 12.781 0.649 2.030
4.750 -22.419 -27.524 13.037 0.639 2.042
5.000 -22.061 -27.578 13.304 0.615 2.075
5.250 -22.502 -27.451 13.556 0.612 2.079
5.500 -22.810 -27.417 13.806 0.612 2.079
5.750 -23.031 -27.450 14.056 0.612 2.079
6.000 -23.125 -27.459 14.306 0.612 2.079
6.250 -23.151 -27.547 14.556 0.612 2.079
6.500 -23.147 -27.613 14.806 0.612 2.079
6.750 -23.078 -27.641 15.056 0.612 2.079
7.000 -22.986 -27.649 15.306 0.612 2.079
7.250 -22.887 -27.653 15.556 0.612 2.079
7.500 -22.777 -27.656 15.806 0.612 2.079
7.750 -22.661 -27.657 16.056 0.612 2.079
8.000 -22.542 -27.657 16.306 0.612 2.079
8.250 -22.421 -27.658 16.556 0.612 2.079
8.500 -22.297 -27.658 16.806 0.612 2.079
8.750 -22.169 -27.658 17.056 0.612 2.079
9.000 -22.032 -27.658 17.306 0.612 2.079
