# z = 4.500000e+00
# log(Z/Zsun) = 5.000000e-01
# log(nH) = 0.000000e+00
1.000 -28.238 -26.741 8.970 1.327 -2.786
1.250 -27.497 -26.724 9.220 1.327 -2.713
1.500 -27.052 -26.706 9.470 1.327 -2.639
1.750 -26.742 -26.688 9.720 1.326 -2.566
2.000 -26.452 -26.669 9.970 1.326 -2.493
2.250 -26.089 -26.649 10.221 1.325 -2.420
2.500 -25.730 -26.623 10.471 1.324 -2.346
2.750 -25.450 -26.596 10.721 1.323 -2.273
3.000 -25.234 -26.569 10.971 1.322 -2.202
3.250 -25.076 -26.538 11.222 1.321 -2.132
3.500 -24.928 -26.506 11.472 1.319 -2.066
3.750 -24.709 -26.474 11.723 1.318 -2.002
4.000 -24.268 -26.429 11.974 1.315 -1.910
4.250 -21.702 -25.900 12.451 0.780 -0.109
4.500 -21.620 -25.921 12.764 0.674 0.030
4.750 -21.170 -25.949 13.021 0.663 0.045
5.000 -20.800 -25.807 13.288 0.638 0.078
5.250 -20.789 -25.777 13.541 0.634 0.083
5.500 -20.950 -25.768 13.792 0.632 0.085
5.750 -21.236 -25.847 14.042 0.632 0.086
6.000 -21.332 -25.883 14.293 0.631 0.086
6.250 -21.478 -25.894 14.543 0.630 0.087
6.500 -21.914 -25.911 14.794 0.630 0.088
6.750 -22.075 -25.921 15.044 0.629 0.089
7.000 -22.091 -25.929 15.294 0.629 0.089
7.250 -22.317 -25.948 15.544 0.629 0.089
7.500 -22.424 -25.953 15.794 0.629 0.089
7.750 -22.389 -25.958 16.044 0.629 0.089
8.000 -22.322 -25.963 16.294 0.629 0.089
8.250 -22.250 -25.972 16.544 0.629 0.090
8.500 -22.154 -25.977 16.794 0.629 0.090
8.750 -22.038 -25.979 17.044 0.629 0.090
9.000 -21.906 -25.980 17.294 0.629 0.090
