# z = 1.500000e+01
# log(Z/Zsun) = -3.000000e+00
# log(nH) = 1.000000e+00
1.000 -31.766 -27.557 8.985 1.280 -2.107
1.250 -31.491 -27.540 9.235 1.280 -2.035
1.500 -30.767 -27.523 9.485 1.281 -1.962
1.750 -30.191 -27.504 9.735 1.281 -1.889
2.000 -29.160 -27.484 9.985 1.282 -1.815
2.250 -27.990 -27.464 10.234 1.284 -1.741
2.500 -26.934 -27.442 10.483 1.287 -1.666
2.750 -26.019 -27.418 10.731 1.294 -1.591
3.000 -25.245 -27.392 10.977 1.307 -1.516
3.250 -24.670 -27.364 11.221 1.325 -1.442
3.500 -24.846 -27.353 11.481 1.295 -1.391
3.750 -25.868 -27.328 11.737 1.275 -1.302
4.000 -25.486 -27.282 11.988 1.272 -1.153
4.250 -21.864 -26.737 12.467 0.751 0.890
4.500 -22.258 -26.608 12.780 0.649 1.029
4.750 -22.438 -26.654 13.037 0.639 1.042
5.000 -22.083 -26.651 13.304 0.615 1.075
5.250 -22.569 -26.652 13.556 0.612 1.079
5.500 -22.907 -26.651 13.806 0.612 1.079
5.750 -23.113 -26.652 14.056 0.612 1.079
6.000 -23.204 -26.654 14.306 0.612 1.079
6.250 -23.206 -26.655 14.556 0.612 1.079
6.500 -23.158 -26.656 14.806 0.612 1.079
6.750 -23.077 -26.657 15.056 0.612 1.079
7.000 -22.976 -26.657 15.306 0.612 1.079
7.250 -22.864 -26.657 15.556 0.612 1.079
7.500 -22.743 -26.657 15.806 0.612 1.079
7.750 -22.615 -26.657 16.056 0.612 1.079
8.000 -22.481 -26.657 16.306 0.612 1.079
8.250 -22.340 -26.657 16.556 0.612 1.079
8.500 -22.191 -26.657 16.806 0.612 1.079
8.750 -22.034 -26.657 17.056 0.612 1.079
9.000 -21.864 -26.657 17.306 0.612 1.079
