# z = 1.750000e+00
# log(Z/Zsun) = 5.000000e-01
# log(nH) = -4.000000e+00
1.000 -25.365 -21.232 9.279 0.652 -3.940
1.250 -25.183 -21.332 9.531 0.649 -3.937
1.500 -24.862 -21.433 9.782 0.646 -3.933
1.750 -24.380 -21.537 10.034 0.644 -3.930
2.000 -23.994 -21.643 10.286 0.641 -3.927
2.250 -23.594 -21.751 10.537 0.639 -3.924
2.500 -23.160 -21.855 10.788 0.638 -3.922
2.750 -22.815 -21.962 11.039 0.637 -3.921
3.000 -22.608 -22.071 11.290 0.636 -3.919
3.250 -22.538 -22.187 11.540 0.635 -3.918
3.500 -22.577 -22.311 11.791 0.634 -3.917
3.750 -22.673 -22.431 12.041 0.633 -3.916
4.000 -22.767 -22.540 12.291 0.633 -3.916
4.250 -22.745 -22.643 12.542 0.633 -3.915
4.500 -22.312 -22.724 12.792 0.632 -3.915
4.750 -21.802 -22.780 13.042 0.632 -3.915
5.000 -21.455 -22.844 13.292 0.632 -3.915
5.250 -21.309 -22.955 13.542 0.632 -3.914
5.500 -21.307 -23.111 13.792 0.631 -3.914
5.750 -21.359 -23.312 14.043 0.631 -3.913
6.000 -21.370 -23.505 14.293 0.631 -3.913
6.250 -21.537 -23.795 14.543 0.630 -3.912
6.500 -21.922 -24.286 14.794 0.630 -3.912
6.750 -22.039 -24.652 15.044 0.629 -3.911
7.000 -21.996 -24.943 15.294 0.629 -3.911
7.250 -21.934 -25.329 15.544 0.629 -3.911
7.500 -21.790 -25.588 15.794 0.629 -3.911
7.750 -21.580 -25.711 16.044 0.629 -3.911
8.000 -21.354 -25.817 16.294 0.629 -3.911
8.250 -21.120 -25.907 16.544 0.629 -3.910
8.500 -20.880 -25.955 16.794 0.629 -3.910
8.750 -20.636 -25.979 17.044 0.629 -3.910
9.000 -20.390 -25.991 17.294 0.629 -3.910
