# z = 3.000000e+00
# log(Z/Zsun) = -1.000000e+00
# log(nH) = -2.000000e+00
1.000 -25.990 -22.069 9.176 0.826 -2.217
1.250 -25.712 -22.129 9.442 0.796 -2.173
1.500 -25.405 -22.198 9.707 0.768 -2.134
1.750 -25.122 -22.278 9.972 0.743 -2.099
2.000 -24.877 -22.368 10.235 0.721 -2.068
2.250 -24.650 -22.469 10.496 0.703 -2.043
2.500 -24.464 -22.581 10.756 0.687 -2.021
2.750 -24.327 -22.703 11.014 0.675 -2.005
3.000 -24.226 -22.833 11.270 0.665 -1.992
3.250 -24.151 -22.971 11.525 0.658 -1.982
3.500 -24.088 -23.114 11.778 0.652 -1.974
3.750 -24.010 -23.259 12.031 0.648 -1.969
4.000 -23.829 -23.406 12.283 0.645 -1.964
4.250 -22.924 -23.560 12.535 0.643 -1.961
4.500 -22.361 -23.938 12.787 0.639 -1.956
4.750 -22.273 -24.194 13.039 0.636 -1.952
5.000 -21.897 -24.562 13.303 0.616 -1.925
5.250 -22.117 -24.646 13.555 0.613 -1.921
5.500 -22.331 -24.652 13.805 0.613 -1.921
5.750 -22.594 -24.654 14.055 0.613 -1.921
6.000 -22.688 -24.656 14.305 0.613 -1.921
6.250 -22.783 -24.657 14.555 0.613 -1.921
6.500 -22.963 -24.657 14.805 0.613 -1.921
6.750 -22.942 -24.657 15.055 0.613 -1.921
7.000 -22.853 -24.657 15.305 0.613 -1.921
7.250 -22.769 -24.657 15.555 0.613 -1.920
7.500 -22.643 -24.657 15.805 0.613 -1.920
7.750 -22.494 -24.657 16.055 0.613 -1.920
8.000 -22.333 -24.657 16.305 0.613 -1.920
8.250 -22.161 -24.657 16.555 0.613 -1.920
8.500 -21.977 -24.658 16.805 0.613 -1.920
8.750 -21.781 -24.658 17.055 0.613 -1.920
9.000 -21.575 -24.658 17.305 0.613 -1.920
