# z = 5.500000e+00
# log(Z/Zsun) = -3.000000e+00
# log(nH) = 0.000000e+00
1.000 -31.054 -26.799 8.986 1.279 -2.771
1.250 -30.632 -26.780 9.236 1.278 -2.700
1.500 -30.237 -26.761 9.486 1.278 -2.628
1.750 -29.863 -26.741 9.736 1.278 -2.556
2.000 -29.164 -26.720 9.986 1.278 -2.483
2.250 -28.143 -26.699 10.236 1.278 -2.410
2.500 -27.129 -26.677 10.486 1.278 -2.337
2.750 -26.221 -26.654 10.736 1.280 -2.262
3.000 -25.442 -26.630 10.984 1.284 -2.188
3.250 -24.841 -26.605 11.232 1.290 -2.113
3.500 -24.788 -26.586 11.485 1.283 -2.051
3.750 -25.549 -26.564 11.739 1.269 -1.979
4.000 -25.171 -26.527 11.991 1.264 -1.861
4.250 -21.864 -26.076 12.467 0.751 -0.110
4.500 -22.258 -25.999 12.780 0.649 0.029
4.750 -22.438 -26.005 13.037 0.639 0.042
5.000 -22.083 -25.992 13.304 0.615 0.075
5.250 -22.569 -25.990 13.556 0.612 0.079
5.500 -22.907 -25.990 13.806 0.612 0.079
5.750 -23.114 -25.990 14.056 0.612 0.079
6.000 -23.206 -25.990 14.306 0.612 0.079
6.250 -23.210 -25.991 14.556 0.612 0.079
6.500 -23.165 -25.991 14.806 0.612 0.079
6.750 -23.086 -25.991 15.056 0.612 0.079
7.000 -22.990 -25.991 15.306 0.612 0.079
7.250 -22.883 -25.991 15.556 0.612 0.079
7.500 -22.768 -25.991 15.806 0.612 0.079
7.750 -22.649 -25.991 16.056 0.612 0.079
8.000 -22.525 -25.991 16.306 0.612 0.079
8.250 -22.398 -25.991 16.556 0.612 0.079
8.500 -22.266 -25.991 16.806 0.612 0.079
8.750 -22.128 -25.991 17.056 0.612 0.079
9.000 -21.980 -25.991 17.306 0.612 0.079
