# z = 3.500000e+00
# log(Z/Zsun) = -3.000000e+00
# log(nH) = 2.000000e+00
1.000 -31.597 -28.647 8.984 1.283 -1.599
1.250 -30.999 -28.633 9.234 1.284 -1.526
1.500 -30.604 -28.618 9.484 1.285 -1.452
1.750 -30.246 -28.603 9.733 1.287 -1.378
2.000 -29.318 -28.586 9.982 1.289 -1.303
2.250 -28.031 -28.567 10.231 1.295 -1.228
2.500 -26.872 -28.546 10.477 1.305 -1.152
2.750 -25.901 -28.522 10.721 1.325 -1.077
3.000 -25.125 -28.494 10.960 1.357 -1.005
3.250 -24.623 -28.472 11.203 1.379 -0.950
3.500 -25.124 -28.473 11.480 1.296 -0.882
3.750 -26.290 -28.445 11.736 1.279 -0.769
4.000 -25.838 -28.378 11.987 1.277 -0.510
4.250 -21.864 -27.708 12.467 0.751 1.890
4.500 -22.260 -27.227 12.781 0.649 2.030
4.750 -22.440 -27.503 13.037 0.639 2.042
5.000 -22.083 -27.594 13.304 0.615 2.075
5.250 -22.569 -27.603 13.556 0.612 2.079
5.500 -22.907 -27.597 13.806 0.612 2.079
5.750 -23.114 -27.607 14.056 0.612 2.079
6.000 -23.207 -27.620 14.306 0.612 2.079
6.250 -23.212 -27.631 14.556 0.612 2.079
6.500 -23.167 -27.645 14.806 0.612 2.079
6.750 -23.090 -27.651 15.056 0.612 2.079
7.000 -22.995 -27.655 15.306 0.612 2.079
7.250 -22.890 -27.656 15.556 0.612 2.079
7.500 -22.778 -27.657 15.806 0.612 2.079
7.750 -22.662 -27.658 16.056 0.612 2.079
8.000 -22.543 -27.658 16.306 0.612 2.079
8.250 -22.422 -27.658 16.556 0.612 2.079
8.500 -22.297 -27.658 16.806 0.612 2.079
8.750 -22.169 -27.658 17.056 0.612 2.079
9.000 -22.032 -27.658 17.306 0.612 2.079
