# z = 1.250000e+00
# log(Z/Zsun) = -1.000000e+00
# log(nH) = -5.000000e+00
1.000 -25.313 -21.131 9.302 0.617 -4.926
1.250 -25.161 -21.263 9.553 0.616 -4.925
1.500 -25.018 -21.400 9.804 0.615 -4.924
1.750 -24.885 -21.540 10.054 0.615 -4.923
2.000 -24.748 -21.683 10.305 0.614 -4.922
2.250 -24.588 -21.829 10.555 0.614 -4.922
2.500 -24.392 -21.976 10.805 0.614 -4.921
2.750 -24.188 -22.126 11.055 0.613 -4.921
3.000 -24.027 -22.278 11.305 0.613 -4.921
3.250 -23.948 -22.431 11.555 0.613 -4.921
3.500 -23.924 -22.586 11.805 0.613 -4.921
3.750 -23.898 -22.743 12.055 0.613 -4.921
4.000 -23.834 -22.901 12.305 0.613 -4.921
4.250 -23.736 -23.058 12.555 0.613 -4.921
4.500 -23.587 -23.215 12.805 0.613 -4.921
4.750 -23.393 -23.371 13.055 0.613 -4.921
5.000 -23.191 -23.526 13.305 0.613 -4.921
5.250 -22.972 -23.688 13.555 0.613 -4.921
5.500 -22.782 -23.867 13.805 0.613 -4.921
5.750 -22.632 -24.036 14.055 0.613 -4.921
6.000 -22.517 -24.229 14.305 0.613 -4.921
6.250 -22.397 -24.474 14.555 0.613 -4.921
6.500 -22.196 -24.658 14.805 0.613 -4.921
6.750 -21.969 -24.787 15.055 0.613 -4.921
7.000 -21.732 -24.878 15.305 0.613 -4.920
7.250 -21.492 -24.959 15.555 0.613 -4.920
7.500 -21.248 -24.989 15.805 0.613 -4.920
7.750 -21.002 -25.001 16.055 0.613 -4.920
8.000 -20.755 -25.009 16.305 0.613 -4.920
8.250 -20.510 -25.016 16.555 0.613 -4.920
8.500 -20.265 -25.022 16.805 0.613 -4.920
8.750 -20.016 -25.023 17.055 0.613 -4.920
9.000 -19.767 -25.024 17.305 0.613 -4.920
