# z = 3.250000e+00
# log(Z/Zsun) = 1.000000e+00
# log(nH) = -1.000000e+00
1.000 -27.594 -25.503 8.940 1.422 -3.022
1.250 -26.888 -25.494 9.190 1.420 -2.951
1.500 -26.237 -25.485 9.441 1.418 -2.878
1.750 -25.714 -25.477 9.692 1.415 -2.805
2.000 -25.245 -25.469 9.943 1.411 -2.730
2.250 -24.794 -25.461 10.195 1.406 -2.655
2.500 -24.455 -25.454 10.446 1.401 -2.578
2.750 -24.236 -25.447 10.698 1.395 -2.501
3.000 -24.090 -25.438 10.951 1.387 -2.423
3.250 -23.978 -25.428 11.203 1.378 -2.344
3.500 -23.839 -25.417 11.457 1.368 -2.265
3.750 -23.596 -25.404 11.711 1.355 -2.186
4.000 -23.132 -25.386 11.965 1.342 -2.118
4.250 -21.477 -25.276 12.418 0.842 -1.107
4.500 -21.192 -25.306 12.731 0.728 -0.967
4.750 -20.682 -25.302 12.989 0.714 -0.951
5.000 -20.309 -25.206 13.257 0.685 -0.916
5.250 -20.285 -25.196 13.511 0.679 -0.908
5.500 -20.441 -25.203 13.764 0.675 -0.903
5.750 -20.726 -25.242 14.015 0.673 -0.900
6.000 -20.821 -25.251 14.266 0.671 -0.898
6.250 -20.966 -25.246 14.518 0.669 -0.895
6.500 -21.412 -25.248 14.769 0.666 -0.892
6.750 -21.585 -25.253 15.020 0.665 -0.891
7.000 -21.610 -25.259 15.270 0.664 -0.890
7.250 -21.885 -25.272 15.521 0.664 -0.889
7.500 -22.065 -25.274 15.771 0.663 -0.889
7.750 -22.072 -25.278 16.021 0.663 -0.889
8.000 -22.037 -25.281 16.271 0.663 -0.889
8.250 -22.003 -25.287 16.521 0.663 -0.889
8.500 -21.932 -25.290 16.771 0.663 -0.889
8.750 -21.828 -25.291 17.021 0.663 -0.889
9.000 -21.700 -25.292 17.271 0.663 -0.889
