# z = 2.750000e+00
# log(Z/Zsun) = 0.000000e+00
# log(nH) = -2.000000e+00
1.000 -26.012 -22.104 9.164 0.848 -2.236
1.250 -25.544 -22.160 9.430 0.817 -2.191
1.500 -24.944 -22.225 9.696 0.788 -2.149
1.750 -24.510 -22.299 9.961 0.762 -2.112
2.000 -24.200 -22.385 10.225 0.738 -2.080
2.250 -23.926 -22.482 10.487 0.717 -2.052
2.500 -23.712 -22.589 10.747 0.700 -2.029
2.750 -23.572 -22.706 11.006 0.687 -2.010
3.000 -23.488 -22.832 11.263 0.676 -1.996
3.250 -23.443 -22.965 11.518 0.667 -1.984
3.500 -23.420 -23.102 11.773 0.661 -1.976
3.750 -23.359 -23.242 12.026 0.656 -1.969
4.000 -23.127 -23.382 12.278 0.652 -1.964
4.250 -22.509 -23.530 12.530 0.649 -1.960
4.500 -22.000 -23.885 12.783 0.645 -1.954
4.750 -21.626 -24.108 13.035 0.642 -1.950
5.000 -21.262 -24.480 13.299 0.622 -1.924
5.250 -21.278 -24.598 13.551 0.619 -1.920
5.500 -21.445 -24.627 13.801 0.619 -1.919
5.750 -21.728 -24.641 14.051 0.618 -1.919
6.000 -21.824 -24.647 14.302 0.618 -1.919
6.250 -21.966 -24.651 14.552 0.618 -1.918
6.500 -22.366 -24.653 14.802 0.618 -1.918
6.750 -22.488 -24.654 15.052 0.618 -1.918
7.000 -22.474 -24.654 15.302 0.618 -1.918
7.250 -22.581 -24.654 15.552 0.618 -1.918
7.500 -22.563 -24.654 15.802 0.618 -1.918
7.750 -22.455 -24.654 16.052 0.618 -1.918
8.000 -22.321 -24.654 16.302 0.618 -1.918
8.250 -22.173 -24.654 16.552 0.618 -1.918
8.500 -22.007 -24.654 16.802 0.618 -1.918
8.750 -21.825 -24.655 17.052 0.618 -1.918
9.000 -21.629 -24.655 17.302 0.618 -1.918
