# z = 2.500000e+00
# log(Z/Zsun) = -5.000000e-01
# log(nH) = 1.000000e+00
1.000 -28.970 -27.544 8.984 1.285 -2.114
1.250 -28.400 -27.528 9.234 1.285 -2.043
1.500 -28.000 -27.511 9.484 1.285 -1.971
1.750 -27.723 -27.493 9.734 1.285 -1.898
2.000 -27.459 -27.474 9.984 1.285 -1.825
2.250 -27.101 -27.454 10.234 1.284 -1.751
2.500 -26.720 -27.432 10.484 1.285 -1.677
2.750 -26.344 -27.408 10.734 1.285 -1.604
3.000 -25.929 -27.385 10.984 1.286 -1.537
3.250 -25.701 -27.363 11.234 1.284 -1.478
3.500 -25.623 -27.345 11.485 1.283 -1.433
3.750 -25.635 -27.313 11.735 1.280 -1.340
4.000 -25.197 -27.254 11.987 1.277 -1.166
4.250 -21.845 -26.713 12.466 0.753 0.890
4.500 -22.133 -26.673 12.779 0.652 1.029
4.750 -22.000 -26.658 13.035 0.642 1.043
5.000 -21.635 -26.532 13.302 0.618 1.075
5.250 -21.733 -26.362 13.554 0.615 1.079
5.500 -21.914 -26.311 13.804 0.614 1.080
5.750 -22.193 -26.389 14.054 0.614 1.080
6.000 -22.290 -26.476 14.304 0.614 1.080
6.250 -22.418 -26.547 14.555 0.614 1.080
6.500 -22.743 -26.614 14.805 0.614 1.080
6.750 -22.808 -26.624 15.055 0.614 1.080
7.000 -22.768 -26.621 15.305 0.614 1.080
7.250 -22.787 -26.632 15.555 0.614 1.080
7.500 -22.728 -26.641 15.805 0.614 1.080
7.750 -22.627 -26.646 16.055 0.614 1.080
8.000 -22.517 -26.649 16.305 0.614 1.080
8.250 -22.402 -26.653 16.555 0.614 1.080
8.500 -22.282 -26.655 16.805 0.614 1.080
8.750 -22.156 -26.656 17.055 0.614 1.080
9.000 -22.021 -26.656 17.305 0.614 1.080
