# z = 3.500000e+00
# log(Z/Zsun) = -1.000000e+00
# log(nH) = -5.000000e+00
1.000 -25.394 -21.267 9.293 0.631 -4.945
1.250 -25.218 -21.367 9.544 0.629 -4.942
1.500 -25.039 -21.469 9.796 0.626 -4.939
1.750 -24.859 -21.576 10.047 0.624 -4.936
2.000 -24.677 -21.688 10.299 0.622 -4.933
2.250 -24.477 -21.807 10.550 0.620 -4.930
2.500 -24.245 -21.933 10.802 0.618 -4.928
2.750 -24.018 -22.065 11.052 0.617 -4.926
3.000 -23.843 -22.203 11.303 0.616 -4.925
3.250 -23.729 -22.348 11.554 0.615 -4.924
3.500 -23.640 -22.498 11.804 0.614 -4.923
3.750 -23.527 -22.652 12.055 0.614 -4.922
4.000 -23.372 -22.808 12.305 0.614 -4.922
4.250 -23.181 -22.968 12.555 0.613 -4.921
4.500 -22.954 -23.129 12.805 0.613 -4.921
4.750 -22.703 -23.290 13.055 0.613 -4.921
5.000 -22.425 -23.465 13.305 0.613 -4.921
5.250 -22.171 -23.755 13.555 0.613 -4.921
5.500 -21.982 -24.044 13.805 0.613 -4.921
5.750 -21.765 -24.221 14.055 0.613 -4.921
6.000 -21.534 -24.379 14.305 0.613 -4.921
6.250 -21.299 -24.666 14.555 0.613 -4.921
6.500 -21.054 -24.916 14.805 0.613 -4.921
6.750 -20.806 -25.083 15.055 0.613 -4.921
7.000 -20.557 -25.188 15.305 0.613 -4.921
7.250 -20.308 -25.268 15.555 0.613 -4.920
7.500 -20.059 -25.298 15.805 0.613 -4.920
7.750 -19.809 -25.309 16.055 0.613 -4.920
8.000 -19.560 -25.317 16.305 0.613 -4.920
8.250 -19.313 -25.323 16.555 0.613 -4.920
8.500 -19.068 -25.330 16.805 0.613 -4.920
8.750 -18.818 -25.331 17.055 0.613 -4.920
9.000 -18.568 -25.331 17.305 0.613 -4.920
