# z = 1.500000e+01
# log(Z/Zsun) = 0.000000e+00
# log(nH) = -2.000000e+00
1.000 -29.146 -25.210 8.984 1.286 -4.083
1.250 -27.904 -25.192 9.234 1.284 -4.015
1.500 -26.959 -25.174 9.485 1.283 -3.947
1.750 -26.409 -25.156 9.735 1.280 -3.877
2.000 -26.034 -25.138 9.986 1.278 -3.807
2.250 -25.701 -25.119 10.237 1.275 -3.737
2.500 -25.438 -25.100 10.489 1.271 -3.665
2.750 -25.263 -25.082 10.740 1.266 -3.593
3.000 -25.142 -25.063 10.992 1.261 -3.519
3.250 -25.041 -25.044 11.244 1.255 -3.445
3.500 -24.908 -25.025 11.497 1.247 -3.370
3.750 -24.688 -25.005 11.750 1.239 -3.294
4.000 -24.102 -24.985 12.004 1.228 -3.213
4.250 -21.805 -24.690 12.462 0.760 -2.109
4.500 -21.939 -24.642 12.775 0.657 -1.971
4.750 -21.619 -24.657 13.032 0.647 -1.957
5.000 -21.252 -24.644 13.299 0.622 -1.924
5.250 -21.270 -24.645 13.551 0.619 -1.920
5.500 -21.427 -24.644 13.801 0.619 -1.919
5.750 -21.674 -24.647 14.051 0.618 -1.919
6.000 -21.712 -24.649 14.302 0.618 -1.919
6.250 -21.728 -24.649 14.552 0.618 -1.918
6.500 -21.737 -24.650 14.802 0.618 -1.918
6.750 -21.550 -24.650 15.052 0.618 -1.918
7.000 -21.322 -24.650 15.302 0.618 -1.918
7.250 -21.089 -24.650 15.552 0.618 -1.918
7.500 -20.845 -24.650 15.802 0.618 -1.918
7.750 -20.597 -24.650 16.052 0.618 -1.918
8.000 -20.349 -24.651 16.302 0.618 -1.918
8.250 -20.100 -24.651 16.552 0.618 -1.918
8.500 -19.850 -24.651 16.802 0.618 -1.918
8.750 -19.601 -24.651 17.052 0.618 -1.918
9.000 -19.351 -24.651 17.302 0.618 -1.918
