# z = 6.000000e+00
# log(Z/Zsun) = 0.000000e+00
# log(nH) = 0.000000e+00
1.000 -29.425 -26.780 8.981 1.294 -2.785
1.250 -28.106 -26.762 9.231 1.294 -2.715
1.500 -27.624 -26.743 9.481 1.293 -2.643
1.750 -27.309 -26.724 9.731 1.293 -2.572
2.000 -26.977 -26.705 9.981 1.292 -2.500
2.250 -26.540 -26.684 10.232 1.292 -2.426
2.500 -26.153 -26.660 10.482 1.291 -2.352
2.750 -25.877 -26.634 10.732 1.290 -2.277
3.000 -25.647 -26.609 10.982 1.290 -2.204
3.250 -25.464 -26.582 11.233 1.288 -2.135
3.500 -25.344 -26.556 11.483 1.287 -2.072
3.750 -25.145 -26.529 11.734 1.285 -2.005
4.000 -24.656 -26.483 11.985 1.281 -1.885
4.250 -21.806 -25.960 12.462 0.760 -0.110
4.500 -21.945 -25.940 12.775 0.657 0.029
4.750 -21.623 -25.978 13.032 0.647 0.043
5.000 -21.255 -25.909 13.299 0.622 0.076
5.250 -21.277 -25.856 13.551 0.619 0.080
5.500 -21.444 -25.843 13.801 0.619 0.081
5.750 -21.728 -25.893 14.051 0.618 0.081
6.000 -21.825 -25.927 14.302 0.618 0.081
6.250 -21.966 -25.945 14.552 0.618 0.082
6.500 -22.369 -25.963 14.802 0.618 0.082
6.750 -22.497 -25.967 15.052 0.618 0.082
7.000 -22.490 -25.969 15.302 0.618 0.082
7.250 -22.617 -25.975 15.552 0.618 0.082
7.500 -22.626 -25.978 15.802 0.618 0.082
7.750 -22.545 -25.981 16.052 0.618 0.082
8.000 -22.444 -25.982 16.302 0.618 0.082
8.250 -22.336 -25.985 16.552 0.618 0.082
8.500 -22.214 -25.987 16.802 0.618 0.082
8.750 -22.080 -25.987 17.052 0.618 0.082
9.000 -21.932 -25.988 17.302 0.618 0.082
