# z = 1.400000e+01
# log(Z/Zsun) = -5.000000e-01
# log(nH) = 0.000000e+00
1.000 -31.095 -26.795 8.984 1.283 -2.787
1.250 -30.147 -26.780 9.234 1.283 -2.717
1.500 -28.436 -26.761 9.485 1.283 -2.646
1.750 -28.021 -26.741 9.735 1.283 -2.574
2.000 -27.577 -26.721 9.985 1.282 -2.502
2.250 -27.048 -26.699 10.235 1.282 -2.429
2.500 -26.616 -26.675 10.485 1.281 -2.355
2.750 -26.234 -26.650 10.735 1.281 -2.282
3.000 -25.805 -26.625 10.985 1.281 -2.210
3.250 -25.495 -26.599 11.236 1.280 -2.142
3.500 -25.434 -26.572 11.486 1.277 -2.081
3.750 -25.414 -26.541 11.737 1.274 -2.007
4.000 -24.946 -26.499 11.989 1.270 -1.883
4.250 -21.845 -25.862 12.466 0.753 -0.110
4.500 -22.133 -25.836 12.779 0.652 0.029
4.750 -22.000 -25.930 13.035 0.642 0.043
5.000 -21.635 -25.927 13.302 0.618 0.075
5.250 -21.733 -25.905 13.554 0.615 0.079
5.500 -21.914 -25.889 13.804 0.614 0.080
5.750 -22.192 -25.917 14.054 0.614 0.080
6.000 -22.287 -25.944 14.304 0.614 0.080
6.250 -22.411 -25.964 14.555 0.614 0.080
6.500 -22.718 -25.980 14.805 0.614 0.080
6.750 -22.758 -25.982 15.055 0.614 0.080
7.000 -22.689 -25.982 15.305 0.614 0.080
7.250 -22.650 -25.984 15.555 0.614 0.080
7.500 -22.530 -25.986 15.805 0.614 0.080
7.750 -22.368 -25.987 16.055 0.614 0.080
8.000 -22.190 -25.988 16.305 0.614 0.080
8.250 -21.999 -25.989 16.555 0.614 0.080
8.500 -21.795 -25.989 16.805 0.614 0.080
8.750 -21.582 -25.989 17.055 0.614 0.080
9.000 -21.360 -25.989 17.305 0.614 0.080
