# z = 2.250000e+00
# log(Z/Zsun) = -1.000000e+01
# log(nH) = -5.000000e+00
1.000 -25.334 -21.123 9.303 0.616 -4.926
1.250 -25.165 -21.257 9.554 0.615 -4.925
1.500 -25.015 -21.394 9.804 0.614 -4.924
1.750 -24.877 -21.536 10.055 0.614 -4.923
2.000 -24.744 -21.681 10.305 0.613 -4.922
2.250 -24.613 -21.829 10.555 0.613 -4.922
2.500 -24.488 -21.980 10.805 0.613 -4.922
2.750 -24.368 -22.133 11.056 0.613 -4.921
3.000 -24.252 -22.290 11.306 0.613 -4.921
3.250 -24.132 -22.449 11.556 0.612 -4.921
3.500 -24.007 -22.611 11.806 0.612 -4.921
3.750 -23.873 -22.776 12.056 0.612 -4.921
4.000 -23.728 -22.944 12.306 0.612 -4.921
4.250 -23.569 -23.116 12.556 0.612 -4.921
4.500 -23.393 -23.292 12.806 0.612 -4.921
4.750 -23.197 -23.475 13.056 0.612 -4.921
5.000 -22.982 -23.666 13.306 0.612 -4.921
5.250 -22.750 -23.884 13.556 0.612 -4.921
5.500 -22.532 -24.168 13.806 0.612 -4.921
5.750 -22.320 -24.476 14.056 0.612 -4.921
6.000 -22.093 -24.725 14.306 0.612 -4.921
6.250 -21.855 -24.892 14.556 0.612 -4.921
6.500 -21.611 -24.993 14.806 0.612 -4.921
6.750 -21.365 -25.050 15.056 0.612 -4.921
7.000 -21.118 -25.081 15.306 0.612 -4.921
7.250 -20.870 -25.098 15.556 0.612 -4.921
7.500 -20.622 -25.107 15.806 0.612 -4.921
7.750 -20.374 -25.113 16.056 0.612 -4.921
8.000 -20.127 -25.118 16.306 0.612 -4.921
8.250 -19.882 -25.123 16.556 0.612 -4.921
8.500 -19.632 -25.124 16.806 0.612 -4.921
8.750 -19.382 -25.124 17.056 0.612 -4.921
9.000 -19.132 -25.124 17.306 0.612 -4.921
