# z = 4.500000e+00
# log(Z/Zsun) = -3.000000e+00
# log(nH) = 1.000000e+00
1.000 -31.454 -27.558 8.985 1.280 -2.107
1.250 -30.876 -27.541 9.235 1.280 -2.035
1.500 -30.460 -27.523 9.485 1.281 -1.962
1.750 -30.042 -27.504 9.735 1.281 -1.889
2.000 -29.136 -27.484 9.985 1.282 -1.815
2.250 -27.983 -27.464 10.234 1.284 -1.741
2.500 -26.929 -27.442 10.483 1.287 -1.666
2.750 -26.013 -27.418 10.731 1.294 -1.591
3.000 -25.240 -27.392 10.976 1.307 -1.516
3.250 -24.666 -27.364 11.220 1.326 -1.442
3.500 -24.845 -27.353 11.481 1.295 -1.391
3.750 -25.868 -27.328 11.737 1.275 -1.302
4.000 -25.486 -27.282 11.988 1.272 -1.153
4.250 -21.864 -26.740 12.467 0.751 0.890
4.500 -22.258 -26.611 12.780 0.649 1.029
4.750 -22.438 -26.655 13.037 0.639 1.042
5.000 -22.083 -26.653 13.304 0.615 1.075
5.250 -22.569 -26.652 13.556 0.612 1.079
5.500 -22.907 -26.651 13.806 0.612 1.079
5.750 -23.114 -26.652 14.056 0.612 1.079
6.000 -23.207 -26.654 14.306 0.612 1.079
6.250 -23.212 -26.655 14.556 0.612 1.079
6.500 -23.167 -26.657 14.806 0.612 1.079
6.750 -23.089 -26.657 15.056 0.612 1.079
7.000 -22.990 -26.653 15.308 0.609 1.084
7.250 -22.889 -26.658 15.556 0.612 1.079
7.500 -22.778 -26.658 15.806 0.612 1.079
7.750 -22.661 -26.658 16.056 0.612 1.079
8.000 -22.542 -26.658 16.306 0.612 1.079
8.250 -22.420 -26.658 16.556 0.612 1.079
8.500 -22.296 -26.658 16.806 0.612 1.079
8.750 -22.167 -26.658 17.056 0.612 1.079
9.000 -22.030 -26.658 17.306 0.612 1.079
