# z = 2.500000e+00
# log(Z/Zsun) = -2.000000e+00
# log(nH) = -6.000000e+00
1.000 -25.247 -21.076 9.305 0.613 -5.922
1.250 -25.063 -21.219 9.556 0.613 -5.921
1.500 -24.892 -21.363 9.806 0.613 -5.921
1.750 -24.727 -21.510 10.056 0.613 -5.921
2.000 -24.559 -21.659 10.306 0.612 -5.921
2.250 -24.385 -21.809 10.556 0.612 -5.921
2.500 -24.205 -21.960 10.806 0.612 -5.921
2.750 -24.019 -22.113 11.056 0.612 -5.921
3.000 -23.824 -22.267 11.306 0.612 -5.921
3.250 -23.619 -22.422 11.556 0.612 -5.921
3.500 -23.403 -22.579 11.806 0.612 -5.921
3.750 -23.179 -22.737 12.056 0.612 -5.921
4.000 -22.949 -22.897 12.306 0.612 -5.921
4.250 -22.713 -23.060 12.556 0.612 -5.921
4.500 -22.473 -23.222 12.806 0.612 -5.921
4.750 -22.230 -23.380 13.056 0.612 -5.921
5.000 -21.985 -23.532 13.306 0.612 -5.921
5.250 -21.738 -23.676 13.556 0.612 -5.921
5.500 -21.490 -23.811 13.806 0.612 -5.921
5.750 -21.242 -23.930 14.056 0.612 -5.921
6.000 -20.993 -24.020 14.306 0.612 -5.921
6.250 -20.745 -24.079 14.556 0.612 -5.921
6.500 -20.496 -24.114 14.806 0.612 -5.921
6.750 -20.249 -24.137 15.056 0.612 -5.921
7.000 -20.003 -24.157 15.306 0.612 -5.921
7.250 -19.762 -24.174 15.556 0.612 -5.921
7.500 -19.512 -24.178 15.806 0.612 -5.921
7.750 -19.262 -24.180 16.056 0.612 -5.921
8.000 -19.012 -24.181 16.306 0.612 -5.921
8.250 -18.762 -24.181 16.556 0.612 -5.921
8.500 -18.512 -24.182 16.806 0.612 -5.921
8.750 -18.262 -24.182 17.056 0.612 -5.921
9.000 -18.012 -24.182 17.306 0.612 -5.921
