# z = 7.000000e+00
# log(Z/Zsun) = -1.000000e+01
# log(nH) = 1.000000e+00
1.000 -31.770 -27.558 8.985 1.280 -2.107
1.250 -31.499 -27.541 9.235 1.280 -2.035
1.500 -31.112 -27.523 9.485 1.281 -1.962
1.750 -30.399 -27.504 9.735 1.281 -1.889
2.000 -29.197 -27.484 9.985 1.282 -1.815
2.250 -27.991 -27.464 10.234 1.284 -1.741
2.500 -26.926 -27.442 10.483 1.287 -1.666
2.750 -26.007 -27.418 10.731 1.294 -1.591
3.000 -25.230 -27.392 10.976 1.308 -1.515
3.250 -24.639 -27.363 11.219 1.329 -1.440
3.500 -24.835 -27.353 11.480 1.295 -1.390
3.750 -25.869 -27.328 11.737 1.275 -1.302
4.000 -25.487 -27.282 11.988 1.272 -1.153
4.250 -21.865 -26.741 12.467 0.751 0.890
4.500 -22.259 -26.610 12.780 0.649 1.029
4.750 -22.441 -26.655 13.037 0.639 1.042
5.000 -22.086 -26.653 13.304 0.615 1.075
5.250 -22.573 -26.648 13.558 0.609 1.083
5.500 -22.915 -26.648 13.808 0.609 1.083
5.750 -23.124 -26.653 14.056 0.612 1.079
6.000 -23.212 -26.650 14.308 0.609 1.084
6.250 -23.219 -26.656 14.556 0.612 1.079
6.500 -23.169 -26.657 14.806 0.612 1.079
6.750 -23.090 -26.657 15.056 0.612 1.079
7.000 -22.994 -26.658 15.306 0.612 1.079
7.250 -22.889 -26.658 15.556 0.612 1.079
7.500 -22.776 -26.658 15.806 0.612 1.079
7.750 -22.659 -26.658 16.056 0.612 1.079
8.000 -22.539 -26.658 16.306 0.612 1.079
8.250 -22.416 -26.658 16.556 0.612 1.079
8.500 -22.290 -26.658 16.806 0.612 1.079
8.750 -22.159 -26.658 17.056 0.612 1.079
9.000 -22.020 -26.658 17.306 0.612 1.079
