# z = 1.000000e+01
# log(Z/Zsun) = -5.000000e-01
# log(nH) = 0.000000e+00
1.000 -31.106 -26.798 8.984 1.283 -2.786
1.250 -29.000 -26.782 9.235 1.283 -2.716
1.500 -28.291 -26.762 9.485 1.283 -2.645
1.750 -27.929 -26.743 9.735 1.282 -2.573
2.000 -27.527 -26.722 9.985 1.282 -2.501
2.250 -27.028 -26.701 10.235 1.282 -2.428
2.500 -26.607 -26.677 10.485 1.281 -2.354
2.750 -26.233 -26.653 10.735 1.281 -2.280
3.000 -25.810 -26.629 10.985 1.281 -2.209
3.250 -25.499 -26.604 11.236 1.280 -2.141
3.500 -25.434 -26.579 11.486 1.277 -2.079
3.750 -25.411 -26.551 11.738 1.274 -2.005
4.000 -24.943 -26.509 11.989 1.270 -1.881
4.250 -21.845 -25.950 12.466 0.753 -0.110
4.500 -22.133 -25.915 12.779 0.652 0.029
4.750 -22.000 -25.974 13.035 0.642 0.043
5.000 -21.635 -25.953 13.302 0.618 0.075
5.250 -21.733 -25.907 13.554 0.615 0.079
5.500 -21.914 -25.889 13.804 0.614 0.080
5.750 -22.193 -25.917 14.054 0.614 0.080
6.000 -22.289 -25.944 14.304 0.614 0.080
6.250 -22.416 -25.964 14.555 0.614 0.080
6.500 -22.736 -25.981 14.805 0.614 0.080
6.750 -22.793 -25.983 15.055 0.614 0.080
7.000 -22.744 -25.982 15.305 0.614 0.080
7.250 -22.743 -25.985 15.555 0.614 0.080
7.500 -22.661 -25.987 15.805 0.614 0.080
7.750 -22.535 -25.988 16.055 0.614 0.080
8.000 -22.395 -25.988 16.305 0.614 0.080
8.250 -22.243 -25.989 16.555 0.614 0.080
8.500 -22.079 -25.990 16.805 0.614 0.080
8.750 -21.902 -25.990 17.055 0.614 0.080
9.000 -21.712 -25.990 17.305 0.614 0.080
