# z = 1.200000e+01
# log(Z/Zsun) = -1.000000e+00
# log(nH) = -3.000000e+00
1.000 -26.696 -22.735 9.071 1.051 -3.616
1.250 -26.395 -22.755 9.334 1.021 -3.552
1.500 -26.005 -22.779 9.597 0.990 -3.489
1.750 -25.622 -22.808 9.862 0.957 -3.428
2.000 -25.304 -22.842 10.128 0.923 -3.369
2.250 -25.010 -22.883 10.394 0.888 -3.311
2.500 -24.763 -22.932 10.662 0.853 -3.257
2.750 -24.564 -22.990 10.929 0.819 -3.207
3.000 -24.389 -23.059 11.197 0.787 -3.160
3.250 -24.217 -23.140 11.463 0.758 -3.118
3.500 -24.029 -23.235 11.729 0.731 -3.082
3.750 -23.814 -23.345 11.992 0.709 -3.051
4.000 -23.469 -23.470 12.254 0.690 -3.026
4.250 -22.170 -23.709 12.518 0.668 -2.995
4.500 -22.212 -24.489 12.784 0.644 -2.962
4.750 -22.179 -25.590 13.037 0.640 -2.958
5.000 -21.828 -26.097 13.303 0.616 -2.925
5.250 -21.956 -26.094 13.555 0.613 -2.921
5.500 -21.968 -26.089 13.805 0.613 -2.921
5.750 -21.874 -26.091 14.055 0.613 -2.921
6.000 -21.672 -26.119 14.305 0.613 -2.921
6.250 -21.446 -26.139 14.555 0.613 -2.921
6.500 -21.208 -26.157 14.805 0.613 -2.921
6.750 -20.962 -26.159 15.055 0.613 -2.921
7.000 -20.713 -26.159 15.305 0.613 -2.921
7.250 -20.464 -26.159 15.555 0.613 -2.920
7.500 -20.214 -26.161 15.805 0.613 -2.920
7.750 -19.965 -26.162 16.055 0.613 -2.920
8.000 -19.715 -26.162 16.305 0.613 -2.920
8.250 -19.465 -26.163 16.555 0.613 -2.920
8.500 -19.215 -26.163 16.805 0.613 -2.920
8.750 -18.965 -26.163 17.055 0.613 -2.920
9.000 -18.716 -26.163 17.305 0.613 -2.920
