# z = 4.500000e+00
# log(Z/Zsun) = -1.000000e+00
# log(nH) = 6.000000e+00
1.000 -34.080 -30.982 8.984 1.284 0.074
1.250 -31.269 -32.533 9.234 1.285 0.169
1.500 -30.279 -32.542 9.483 1.288 0.260
1.750 -29.732 -32.526 9.728 1.302 0.398
2.000 -29.207 -32.516 9.970 1.327 0.556
2.250 -28.708 -32.420 10.217 1.336 0.584
2.500 -28.272 -32.191 10.456 1.371 0.575
2.750 -27.387 -31.676 10.705 1.375 0.345
3.000 -26.992 -31.222 10.912 1.515 0.349
3.250 -26.504 -30.890 11.204 1.378 0.473
3.500 -27.063 -31.833 11.485 1.282 0.815
3.750 -27.542 -32.142 11.735 1.282 1.196
4.000 -26.024 -30.880 11.986 1.280 3.230
4.250 -21.860 -27.804 12.467 0.751 5.890
4.500 -22.240 -27.325 12.784 0.645 6.036
4.750 -22.267 -27.543 13.037 0.640 6.043
5.000 -21.893 -27.132 13.303 0.616 6.075
5.250 -22.121 -26.714 13.555 0.613 6.079
5.500 -22.348 -26.891 13.805 0.613 6.079
5.750 -22.605 -26.672 14.055 0.613 6.079
6.000 -22.705 -26.811 14.305 0.613 6.079
6.250 -22.792 -27.419 14.555 0.613 6.079
6.500 -22.986 -27.988 14.805 0.613 6.079
6.750 -22.980 -28.172 15.055 0.613 6.079
7.000 -22.910 -28.125 15.305 0.613 6.079
7.250 -22.855 -28.258 15.555 0.613 6.080
7.500 -22.762 -28.558 15.805 0.613 6.080
7.750 -22.651 -28.751 16.055 0.613 6.080
8.000 -22.535 -28.885 16.305 0.613 6.080
8.250 -22.416 -29.223 16.555 0.613 6.080
8.500 -22.293 -29.562 16.805 0.613 6.080
8.750 -22.165 -30.071 17.055 0.613 6.080
9.000 -22.029 -30.626 17.305 0.613 6.080
