# z = 2.750000e+00
# log(Z/Zsun) = 5.000000e-01
# log(nH) = -5.000000e+00
1.000 -25.306 -20.996 9.287 0.640 -4.925
1.250 -25.128 -21.102 9.538 0.638 -4.923
1.500 -24.956 -21.209 9.789 0.637 -4.921
1.750 -24.765 -21.317 10.040 0.636 -4.919
2.000 -24.450 -21.426 10.290 0.635 -4.918
2.250 -23.910 -21.531 10.541 0.634 -4.917
2.500 -23.392 -21.624 10.791 0.633 -4.917
2.750 -23.019 -21.721 11.041 0.633 -4.916
3.000 -22.798 -21.819 11.292 0.633 -4.915
3.250 -22.748 -21.919 11.542 0.632 -4.915
3.500 -22.836 -22.020 11.792 0.632 -4.915
3.750 -22.987 -22.120 12.042 0.632 -4.914
4.000 -23.079 -22.214 12.292 0.632 -4.914
4.250 -23.024 -22.302 12.543 0.631 -4.914
4.500 -22.759 -22.381 12.793 0.631 -4.913
4.750 -22.422 -22.453 13.043 0.631 -4.913
5.000 -22.157 -22.521 13.293 0.631 -4.913
5.250 -21.906 -22.584 13.543 0.631 -4.913
5.500 -21.658 -22.647 13.793 0.630 -4.913
5.750 -21.474 -22.732 14.043 0.630 -4.912
6.000 -21.437 -22.946 14.293 0.630 -4.912
6.250 -21.453 -23.274 14.544 0.630 -4.912
6.500 -21.299 -23.568 14.794 0.629 -4.911
6.750 -21.082 -23.863 15.044 0.629 -4.911
7.000 -20.847 -24.160 15.294 0.629 -4.911
7.250 -20.607 -24.559 15.544 0.629 -4.911
7.500 -20.361 -24.811 15.794 0.629 -4.911
7.750 -20.113 -24.931 16.044 0.629 -4.911
8.000 -19.863 -25.033 16.294 0.629 -4.911
8.250 -19.614 -25.115 16.544 0.629 -4.910
8.500 -19.364 -25.158 16.794 0.629 -4.910
8.750 -19.115 -25.179 17.044 0.629 -4.910
9.000 -18.866 -25.190 17.294 0.629 -4.910
