# z = 1.500000e+01
# log(Z/Zsun) = -5.000000e-01
# log(nH) = -1.000000e+00
1.000 -30.310 -26.053 8.985 1.281 -3.466
1.250 -29.495 -26.033 9.235 1.280 -3.397
1.500 -28.248 -26.012 9.486 1.280 -3.327
1.750 -27.705 -25.991 9.736 1.279 -3.257
2.000 -27.211 -25.969 9.986 1.278 -3.186
2.250 -26.725 -25.946 10.237 1.276 -3.115
2.500 -26.363 -25.923 10.487 1.275 -3.042
2.750 -26.105 -25.899 10.738 1.273 -2.969
3.000 -25.847 -25.876 10.989 1.271 -2.896
3.250 -25.556 -25.852 11.239 1.269 -2.824
3.500 -25.369 -25.830 11.490 1.266 -2.754
3.750 -25.275 -25.807 11.742 1.262 -2.685
4.000 -24.695 -25.776 11.994 1.256 -2.589
4.250 -21.845 -25.346 12.466 0.753 -1.110
4.500 -22.132 -25.296 12.779 0.652 -0.971
4.750 -21.999 -25.320 13.035 0.642 -0.957
5.000 -21.634 -25.308 13.302 0.618 -0.925
5.250 -21.731 -25.302 13.554 0.615 -0.921
5.500 -21.909 -25.298 13.804 0.614 -0.920
5.750 -22.177 -25.305 14.054 0.614 -0.920
6.000 -22.254 -25.312 14.304 0.614 -0.920
6.250 -22.337 -25.316 14.555 0.614 -0.920
6.500 -22.494 -25.320 14.805 0.614 -0.920
6.750 -22.393 -25.320 15.055 0.614 -0.920
7.000 -22.213 -25.320 15.305 0.614 -0.920
7.250 -22.022 -25.321 15.555 0.614 -0.920
7.500 -21.800 -25.321 15.805 0.614 -0.920
7.750 -21.565 -25.321 16.055 0.614 -0.920
8.000 -21.325 -25.321 16.305 0.614 -0.920
8.250 -21.083 -25.322 16.555 0.614 -0.920
8.500 -20.838 -25.322 16.805 0.614 -0.920
8.750 -20.592 -25.322 17.055 0.614 -0.920
9.000 -20.345 -25.322 17.305 0.614 -0.920
