# z = 2.500000e+00
# log(Z/Zsun) = -2.000000e+00
# log(nH) = -1.000000e+00
1.000 -29.168 -25.189 8.991 1.263 -2.817
1.250 -28.824 -25.185 9.243 1.260 -2.744
1.500 -28.450 -25.181 9.494 1.256 -2.670
1.750 -28.076 -25.177 9.745 1.251 -2.596
2.000 -27.706 -25.173 9.997 1.246 -2.521
2.250 -27.335 -25.169 10.249 1.240 -2.445
2.500 -27.028 -25.166 10.502 1.232 -2.368
2.750 -26.771 -25.163 10.755 1.223 -2.291
3.000 -26.482 -25.160 11.009 1.213 -2.212
3.250 -26.135 -25.158 11.263 1.200 -2.133
3.500 -25.862 -25.155 11.519 1.185 -2.053
3.750 -25.822 -25.154 11.776 1.167 -1.972
4.000 -24.286 -25.151 12.034 1.145 -1.887
4.250 -21.865 -25.263 12.468 0.749 -1.108
4.500 -22.254 -25.330 12.780 0.649 -0.971
4.750 -22.417 -25.340 13.037 0.639 -0.958
5.000 -22.061 -25.326 13.304 0.615 -0.925
5.250 -22.502 -25.323 13.556 0.612 -0.921
5.500 -22.810 -25.323 13.806 0.612 -0.921
5.750 -23.031 -25.323 14.056 0.612 -0.921
6.000 -23.124 -25.323 14.306 0.612 -0.921
6.250 -23.150 -25.324 14.556 0.612 -0.921
6.500 -23.145 -25.324 14.806 0.612 -0.921
6.750 -23.076 -25.324 15.056 0.612 -0.921
7.000 -22.982 -25.324 15.306 0.612 -0.921
7.250 -22.881 -25.324 15.556 0.612 -0.921
7.500 -22.768 -25.325 15.806 0.612 -0.921
7.750 -22.650 -25.325 16.056 0.612 -0.921
8.000 -22.527 -25.325 16.306 0.612 -0.921
8.250 -22.401 -25.325 16.556 0.612 -0.921
8.500 -22.270 -25.325 16.806 0.612 -0.921
8.750 -22.134 -25.325 17.056 0.612 -0.921
9.000 -21.987 -25.325 17.306 0.612 -0.921
