# z = 6.000000e+00
# log(Z/Zsun) = -2.000000e+00
# log(nH) = -1.000000e+00
1.000 -29.868 -25.703 8.988 1.272 -3.161
1.250 -29.476 -25.691 9.239 1.271 -3.089
1.500 -29.012 -25.679 9.489 1.269 -3.016
1.750 -28.589 -25.666 9.740 1.267 -2.942
2.000 -28.180 -25.653 9.991 1.265 -2.868
2.250 -27.767 -25.640 10.242 1.262 -2.793
2.500 -27.409 -25.626 10.493 1.258 -2.716
2.750 -27.025 -25.612 10.744 1.254 -2.639
3.000 -26.504 -25.598 10.996 1.250 -2.561
3.250 -25.977 -25.584 11.248 1.244 -2.482
3.500 -25.646 -25.569 11.500 1.237 -2.402
3.750 -25.790 -25.555 11.754 1.228 -2.324
4.000 -24.597 -25.537 12.008 1.216 -2.232
4.250 -21.864 -25.380 12.468 0.750 -1.110
4.500 -22.254 -25.343 12.780 0.649 -0.971
4.750 -22.417 -25.342 13.037 0.639 -0.958
5.000 -22.061 -25.326 13.304 0.615 -0.925
5.250 -22.502 -25.323 13.556 0.612 -0.921
5.500 -22.808 -25.323 13.806 0.612 -0.921
5.750 -23.027 -25.323 14.056 0.612 -0.921
6.000 -23.116 -25.323 14.306 0.612 -0.921
6.250 -23.134 -25.324 14.556 0.612 -0.921
6.500 -23.117 -25.324 14.806 0.612 -0.921
6.750 -23.034 -25.324 15.056 0.612 -0.921
7.000 -22.923 -25.324 15.306 0.612 -0.921
7.250 -22.800 -25.324 15.556 0.612 -0.921
7.500 -22.661 -25.324 15.806 0.612 -0.921
7.750 -22.510 -25.324 16.056 0.612 -0.921
8.000 -22.348 -25.324 16.306 0.612 -0.921
8.250 -22.176 -25.324 16.556 0.612 -0.921
8.500 -21.993 -25.324 16.806 0.612 -0.921
8.750 -21.799 -25.324 17.056 0.612 -0.921
9.000 -21.594 -25.324 17.306 0.612 -0.921
