# z = 2.500000e+00
# log(Z/Zsun) = 1.000000e+00
# log(nH) = -3.000000e+00
1.000 -25.422 -21.469 9.231 0.728 -2.967
1.250 -24.909 -21.577 9.484 0.723 -2.961
1.500 -24.188 -21.682 9.736 0.719 -2.957
1.750 -23.540 -21.786 9.988 0.716 -2.953
2.000 -23.052 -21.888 10.240 0.713 -2.949
2.250 -22.718 -21.988 10.492 0.709 -2.945
2.500 -22.518 -22.083 10.744 0.706 -2.941
2.750 -22.395 -22.172 10.996 0.703 -2.937
3.000 -22.308 -22.255 11.248 0.700 -2.933
3.250 -22.247 -22.336 11.500 0.696 -2.929
3.500 -22.218 -22.417 11.752 0.693 -2.925
3.750 -22.215 -22.496 12.004 0.690 -2.922
4.000 -22.161 -22.575 12.256 0.687 -2.918
4.250 -21.891 -22.650 12.507 0.685 -2.915
4.500 -21.345 -22.704 12.758 0.683 -2.913
4.750 -20.807 -22.733 13.009 0.682 -2.912
5.000 -20.472 -22.809 13.260 0.681 -2.910
5.250 -20.333 -23.012 13.512 0.678 -2.907
5.500 -20.500 -23.382 13.764 0.674 -2.902
5.750 -20.739 -23.700 14.015 0.672 -2.900
6.000 -20.824 -23.961 14.266 0.671 -2.898
6.250 -20.971 -24.271 14.518 0.668 -2.895
6.500 -21.423 -24.821 14.769 0.666 -2.892
6.750 -21.633 -25.238 15.020 0.665 -2.891
7.000 -21.654 -25.567 15.270 0.664 -2.890
7.250 -21.830 -25.949 15.521 0.664 -2.889
7.500 -21.922 -26.203 15.771 0.663 -2.889
7.750 -21.840 -26.348 16.021 0.663 -2.889
8.000 -21.703 -26.490 16.271 0.663 -2.889
8.250 -21.539 -26.719 16.521 0.663 -2.889
8.500 -21.343 -26.885 16.771 0.663 -2.889
8.750 -21.126 -26.992 17.021 0.663 -2.889
9.000 -20.898 -27.060 17.271 0.663 -2.889
