# z = 6.000000e+00
# log(Z/Zsun) = -2.000000e+00
# log(nH) = 1.000000e+00
1.000 -31.253 -27.556 8.985 1.280 -2.107
1.250 -30.096 -27.539 9.235 1.281 -2.035
1.500 -29.626 -27.522 9.485 1.281 -1.963
1.750 -29.309 -27.503 9.735 1.281 -1.889
2.000 -28.819 -27.483 9.985 1.282 -1.816
2.250 -27.928 -27.463 10.234 1.283 -1.742
2.500 -26.951 -27.441 10.483 1.286 -1.667
2.750 -26.067 -27.418 10.732 1.292 -1.592
3.000 -25.326 -27.393 10.978 1.302 -1.519
3.250 -24.843 -27.370 11.226 1.309 -1.452
3.500 -24.927 -27.355 11.482 1.292 -1.401
3.750 -25.860 -27.326 11.737 1.275 -1.304
4.000 -25.474 -27.280 11.988 1.272 -1.153
4.250 -21.864 -26.736 12.467 0.751 0.890
4.500 -22.254 -26.615 12.780 0.649 1.029
4.750 -22.417 -26.658 13.037 0.639 1.042
5.000 -22.061 -26.651 13.304 0.615 1.075
5.250 -22.502 -26.632 13.556 0.612 1.079
5.500 -22.810 -26.627 13.806 0.612 1.079
5.750 -23.031 -26.632 14.056 0.612 1.079
6.000 -23.125 -26.633 14.306 0.612 1.079
6.250 -23.151 -26.645 14.556 0.612 1.079
6.500 -23.147 -26.653 14.806 0.612 1.079
6.750 -23.078 -26.656 15.056 0.612 1.079
7.000 -22.986 -26.657 15.306 0.612 1.079
7.250 -22.886 -26.657 15.556 0.612 1.079
7.500 -22.775 -26.658 15.806 0.612 1.079
7.750 -22.659 -26.658 16.056 0.612 1.079
8.000 -22.540 -26.658 16.306 0.612 1.079
8.250 -22.418 -26.658 16.556 0.612 1.079
8.500 -22.293 -26.658 16.806 0.612 1.079
8.750 -22.163 -26.658 17.056 0.612 1.079
9.000 -22.025 -26.658 17.306 0.612 1.079
