# z = 2.750000e+00
# log(Z/Zsun) = -3.000000e+00
# log(nH) = -2.000000e+00
1.000 -26.031 -22.108 9.169 0.838 -2.237
1.250 -25.774 -22.164 9.436 0.808 -2.191
1.500 -25.545 -22.229 9.701 0.779 -2.150
1.750 -25.340 -22.304 9.966 0.753 -2.113
2.000 -25.144 -22.390 10.230 0.729 -2.080
2.250 -24.960 -22.487 10.492 0.709 -2.052
2.500 -24.807 -22.594 10.753 0.692 -2.029
2.750 -24.670 -22.712 11.011 0.679 -2.011
3.000 -24.544 -22.839 11.268 0.668 -1.996
3.250 -24.428 -22.973 11.524 0.659 -1.985
3.500 -24.321 -23.112 11.778 0.653 -1.976
3.750 -24.219 -23.255 12.031 0.648 -1.970
4.000 -24.073 -23.398 12.283 0.645 -1.965
4.250 -22.944 -23.551 12.535 0.642 -1.961
4.500 -22.409 -23.926 12.788 0.637 -1.955
4.750 -22.485 -24.160 13.040 0.634 -1.951
5.000 -22.096 -24.553 13.304 0.615 -1.925
5.250 -22.570 -24.652 13.556 0.612 -1.921
5.500 -22.906 -24.657 13.806 0.612 -1.921
5.750 -23.110 -24.658 14.056 0.612 -1.921
6.000 -23.198 -24.658 14.306 0.612 -1.921
6.250 -23.195 -24.658 14.556 0.612 -1.921
6.500 -23.141 -24.658 14.806 0.612 -1.921
6.750 -23.051 -24.658 15.056 0.612 -1.921
7.000 -22.941 -24.658 15.306 0.612 -1.921
7.250 -22.817 -24.658 15.556 0.612 -1.921
7.500 -22.680 -24.658 15.806 0.612 -1.921
7.750 -22.534 -24.658 16.056 0.612 -1.921
8.000 -22.377 -24.658 16.306 0.612 -1.921
8.250 -22.206 -24.654 16.558 0.609 -1.916
8.500 -22.029 -24.654 16.808 0.609 -1.916
8.750 -21.846 -24.658 17.056 0.612 -1.921
9.000 -21.646 -24.658 17.306 0.612 -1.921
