# z = 1.300000e+01
# log(Z/Zsun) = -1.000000e+01
# log(nH) = -2.000000e+00
1.000 -29.234 -25.078 8.990 1.267 -3.953
1.250 -28.944 -25.063 9.241 1.265 -3.882
1.500 -28.649 -25.048 9.492 1.262 -3.810
1.750 -28.336 -25.032 9.743 1.259 -3.738
2.000 -28.025 -25.017 9.994 1.255 -3.665
2.250 -27.721 -25.001 10.246 1.251 -3.591
2.500 -27.426 -24.986 10.497 1.246 -3.516
2.750 -27.130 -24.971 10.750 1.239 -3.441
3.000 -26.827 -24.955 11.002 1.232 -3.365
3.250 -26.518 -24.940 11.255 1.223 -3.288
3.500 -26.208 -24.925 11.509 1.212 -3.210
3.750 -25.891 -24.910 11.764 1.199 -3.130
4.000 -24.416 -24.894 12.020 1.183 -3.046
4.250 -21.864 -24.719 12.468 0.750 -2.109
4.500 -22.253 -24.677 12.780 0.649 -1.971
4.750 -22.425 -24.674 13.037 0.639 -1.958
5.000 -22.068 -24.656 13.306 0.612 -1.921
5.250 -22.503 -24.652 13.558 0.609 -1.917
5.500 -22.694 -24.656 13.806 0.612 -1.921
5.750 -22.656 -24.656 14.056 0.612 -1.921
6.000 -22.496 -24.656 14.306 0.612 -1.921
6.250 -22.284 -24.656 14.556 0.612 -1.921
6.500 -22.053 -24.656 14.806 0.612 -1.921
6.750 -21.814 -24.656 15.056 0.612 -1.921
7.000 -21.571 -24.656 15.306 0.612 -1.921
7.250 -21.325 -24.656 15.556 0.612 -1.921
7.500 -21.078 -24.656 15.806 0.612 -1.921
7.750 -20.831 -24.656 16.056 0.612 -1.921
8.000 -20.582 -24.656 16.306 0.612 -1.921
8.250 -20.334 -24.656 16.556 0.612 -1.921
8.500 -20.085 -24.656 16.806 0.612 -1.921
8.750 -19.835 -24.656 17.056 0.612 -1.921
9.000 -19.586 -24.656 17.306 0.612 -1.921
