# z = 2.500000e+00
# log(Z/Zsun) = 1.000000e+00
# log(nH) = 0.000000e+00
1.000 -27.464 -26.651 8.937 1.432 -2.730
1.250 -26.889 -26.635 9.187 1.432 -2.652
1.500 -26.475 -26.618 9.437 1.431 -2.574
1.750 -26.174 -26.601 9.687 1.430 -2.498
2.000 -25.901 -26.584 9.938 1.430 -2.423
2.250 -25.563 -26.566 10.188 1.429 -2.348
2.500 -25.219 -26.541 10.438 1.428 -2.273
2.750 -24.949 -26.515 10.689 1.426 -2.199
3.000 -24.738 -26.488 10.939 1.425 -2.128
3.250 -24.569 -26.458 11.189 1.423 -2.059
3.500 -24.400 -26.423 11.440 1.422 -1.995
3.750 -24.175 -26.387 11.691 1.420 -1.933
4.000 -23.802 -26.357 11.941 1.419 -1.912
4.250 -21.477 -25.840 12.417 0.842 -0.107
4.500 -21.192 -25.930 12.731 0.728 0.033
4.750 -20.682 -25.890 12.989 0.714 0.049
5.000 -20.309 -25.620 13.257 0.685 0.084
5.250 -20.285 -25.601 13.511 0.679 0.092
5.500 -20.441 -25.623 13.764 0.675 0.097
5.750 -20.726 -25.738 14.015 0.673 0.100
6.000 -20.821 -25.769 14.266 0.671 0.102
6.250 -20.966 -25.759 14.518 0.669 0.105
6.500 -21.412 -25.775 14.769 0.666 0.108
6.750 -21.585 -25.797 15.020 0.665 0.109
7.000 -21.610 -25.819 15.270 0.664 0.110
7.250 -21.887 -25.868 15.521 0.664 0.111
7.500 -22.067 -25.878 15.771 0.663 0.111
7.750 -22.076 -25.892 16.021 0.663 0.111
8.000 -22.048 -25.906 16.271 0.663 0.111
8.250 -22.021 -25.933 16.521 0.663 0.111
8.500 -21.960 -25.946 16.771 0.663 0.111
8.750 -21.867 -25.953 17.021 0.663 0.111
9.000 -21.753 -25.956 17.271 0.663 0.111
