# z = 5.500000e+00
# log(Z/Zsun) = 0.000000e+00
# log(nH) = -5.000000e+00
1.000 -25.346 -21.526 9.281 0.648 -4.958
1.250 -25.179 -21.670 9.531 0.648 -4.958
1.500 -24.828 -21.814 9.781 0.648 -4.958
1.750 -24.302 -21.960 10.032 0.647 -4.958
2.000 -23.906 -22.105 10.282 0.647 -4.957
2.250 -23.656 -22.250 10.532 0.647 -4.957
2.500 -23.496 -22.393 10.782 0.647 -4.957
2.750 -23.379 -22.531 11.032 0.647 -4.957
3.000 -23.287 -22.664 11.282 0.647 -4.957
3.250 -23.207 -22.790 11.532 0.646 -4.956
3.500 -23.114 -22.906 11.783 0.646 -4.955
3.750 -22.980 -23.012 12.033 0.645 -4.954
4.000 -22.760 -23.106 12.284 0.644 -4.953
4.250 -22.446 -23.188 12.535 0.643 -4.951
4.500 -22.044 -23.258 12.786 0.641 -4.949
4.750 -21.627 -23.321 13.038 0.638 -4.945
5.000 -21.275 -23.537 13.299 0.622 -4.923
5.250 -21.172 -23.676 13.551 0.619 -4.920
5.500 -21.175 -23.851 13.801 0.619 -4.919
5.750 -21.075 -23.976 14.052 0.618 -4.919
6.000 -20.871 -24.087 14.302 0.618 -4.918
6.250 -20.649 -24.249 14.552 0.618 -4.918
6.500 -20.413 -24.578 14.802 0.618 -4.918
6.750 -20.165 -24.794 15.052 0.618 -4.918
7.000 -19.916 -24.949 15.302 0.618 -4.918
7.250 -19.666 -25.154 15.552 0.618 -4.918
7.500 -19.417 -25.253 15.802 0.618 -4.918
7.750 -19.167 -25.289 16.052 0.618 -4.918
8.000 -18.917 -25.314 16.302 0.618 -4.918
8.250 -18.667 -25.332 16.552 0.618 -4.918
8.500 -18.418 -25.341 16.802 0.618 -4.918
8.750 -18.169 -25.346 17.052 0.618 -4.918
9.000 -17.921 -25.350 17.302 0.618 -4.918
