# z = 7.500000e-01
# log(Z/Zsun) = -3.000000e+00
# log(nH) = -5.000000e+00
1.000 -25.322 -21.170 9.301 0.620 -4.931
1.250 -25.173 -21.294 9.552 0.618 -4.929
1.500 -25.031 -21.425 9.803 0.617 -4.927
1.750 -24.897 -21.560 10.054 0.616 -4.925
2.000 -24.767 -21.700 10.304 0.615 -4.924
2.250 -24.639 -21.845 10.555 0.614 -4.923
2.500 -24.519 -21.992 10.805 0.614 -4.923
2.750 -24.408 -22.144 11.055 0.613 -4.922
3.000 -24.305 -22.299 11.305 0.613 -4.922
3.250 -24.208 -22.457 11.556 0.613 -4.921
3.500 -24.113 -22.618 11.806 0.613 -4.921
3.750 -24.019 -22.782 12.056 0.612 -4.921
4.000 -23.926 -22.950 12.306 0.612 -4.921
4.250 -23.829 -23.122 12.556 0.612 -4.921
4.500 -23.699 -23.298 12.806 0.612 -4.921
4.750 -23.530 -23.483 13.056 0.612 -4.921
5.000 -23.336 -23.684 13.306 0.612 -4.921
5.250 -23.119 -23.936 13.556 0.612 -4.921
5.500 -23.028 -24.295 13.806 0.612 -4.921
5.750 -23.000 -24.640 14.056 0.612 -4.921
6.000 -22.914 -24.870 14.306 0.612 -4.921
6.250 -22.762 -25.005 14.556 0.612 -4.921
6.500 -22.570 -25.077 14.806 0.612 -4.921
6.750 -22.357 -25.115 15.056 0.612 -4.921
7.000 -22.132 -25.135 15.306 0.612 -4.921
7.250 -21.899 -25.147 15.556 0.612 -4.921
7.500 -21.662 -25.153 15.806 0.612 -4.921
7.750 -21.422 -25.157 16.056 0.612 -4.921
8.000 -21.181 -25.161 16.306 0.612 -4.921
8.250 -20.940 -25.166 16.556 0.612 -4.921
8.500 -20.694 -25.167 16.806 0.612 -4.921
8.750 -20.446 -25.167 17.056 0.612 -4.921
9.000 -20.198 -25.167 17.306 0.612 -4.921
