# z = 5.000000e+00
# log(Z/Zsun) = -5.000000e-01
# log(nH) = -5.000000e+00
1.000 -25.380 -21.527 9.285 0.642 -4.958
1.250 -25.218 -21.668 9.535 0.642 -4.958
1.500 -24.971 -21.808 9.785 0.642 -4.958
1.750 -24.614 -21.947 10.035 0.642 -4.958
2.000 -24.290 -22.084 10.286 0.642 -4.957
2.250 -24.060 -22.216 10.536 0.641 -4.957
2.500 -23.895 -22.343 10.786 0.641 -4.956
2.750 -23.757 -22.464 11.037 0.640 -4.955
3.000 -23.629 -22.577 11.287 0.639 -4.954
3.250 -23.497 -22.682 11.538 0.638 -4.952
3.500 -23.351 -22.780 11.789 0.636 -4.950
3.750 -23.178 -22.874 12.041 0.634 -4.947
4.000 -22.962 -22.967 12.292 0.632 -4.944
4.250 -22.703 -23.061 12.544 0.629 -4.940
4.500 -22.394 -23.158 12.796 0.626 -4.937
4.750 -22.035 -23.263 13.048 0.624 -4.933
5.000 -21.644 -23.581 13.303 0.617 -4.923
5.250 -21.529 -23.854 13.554 0.614 -4.920
5.500 -21.445 -24.079 13.804 0.614 -4.920
5.750 -21.264 -24.238 14.054 0.614 -4.920
6.000 -21.036 -24.371 14.305 0.614 -4.920
6.250 -20.800 -24.553 14.555 0.614 -4.920
6.500 -20.556 -24.862 14.805 0.614 -4.920
6.750 -20.307 -25.048 15.055 0.614 -4.920
7.000 -20.057 -25.166 15.305 0.614 -4.920
7.250 -19.808 -25.290 15.555 0.614 -4.920
7.500 -19.558 -25.341 15.805 0.614 -4.920
7.750 -19.308 -25.359 16.055 0.614 -4.920
8.000 -19.059 -25.371 16.305 0.614 -4.920
8.250 -18.809 -25.380 16.555 0.614 -4.920
8.500 -18.561 -25.385 16.805 0.614 -4.920
8.750 -18.315 -25.390 17.055 0.614 -4.920
9.000 -18.067 -25.394 17.305 0.614 -4.920
