# z = 1.100000e+01
# log(Z/Zsun) = 5.000000e-01
# log(nH) = -1.000000e+00
1.000 -30.016 -26.000 8.971 1.325 -3.449
1.250 -28.036 -25.984 9.221 1.324 -3.381
1.500 -27.127 -25.963 9.471 1.323 -3.311
1.750 -26.601 -25.941 9.721 1.322 -3.242
2.000 -26.133 -25.918 9.972 1.321 -3.172
2.250 -25.677 -25.893 10.222 1.320 -3.100
2.500 -25.337 -25.867 10.473 1.318 -3.027
2.750 -25.116 -25.840 10.723 1.316 -2.954
3.000 -24.964 -25.814 10.974 1.314 -2.881
3.250 -24.842 -25.788 11.225 1.311 -2.809
3.500 -24.706 -25.761 11.476 1.308 -2.739
3.750 -24.487 -25.735 11.727 1.304 -2.670
4.000 -24.025 -25.705 11.979 1.299 -2.591
4.250 -21.702 -25.128 12.451 0.780 -1.109
4.500 -21.619 -25.113 12.764 0.674 -0.970
4.750 -21.170 -25.248 13.021 0.663 -0.955
5.000 -20.800 -25.248 13.288 0.638 -0.922
5.250 -20.789 -25.262 13.541 0.634 -0.917
5.500 -20.950 -25.261 13.792 0.632 -0.915
5.750 -21.235 -25.284 14.042 0.632 -0.914
6.000 -21.331 -25.293 14.293 0.631 -0.914
6.250 -21.474 -25.295 14.543 0.630 -0.913
6.500 -21.898 -25.299 14.794 0.630 -0.912
6.750 -22.036 -25.301 15.044 0.629 -0.911
7.000 -22.021 -25.302 15.294 0.629 -0.911
7.250 -22.134 -25.307 15.544 0.629 -0.911
7.500 -22.083 -25.308 15.794 0.629 -0.911
7.750 -21.918 -25.309 16.044 0.629 -0.911
8.000 -21.721 -25.310 16.294 0.629 -0.911
8.250 -21.509 -25.312 16.544 0.629 -0.910
8.500 -21.284 -25.313 16.794 0.629 -0.910
8.750 -21.049 -25.313 17.044 0.629 -0.910
9.000 -20.810 -25.314 17.294 0.629 -0.910
