# z = 5.000000e+00
# log(Z/Zsun) = 1.000000e+00
# log(nH) = -1.000000e+00
1.000 -27.943 -25.494 8.940 1.422 -3.021
1.250 -26.958 -25.485 9.190 1.420 -2.950
1.500 -26.221 -25.477 9.441 1.418 -2.877
1.750 -25.670 -25.468 9.692 1.414 -2.804
2.000 -25.203 -25.460 9.943 1.411 -2.730
2.250 -24.764 -25.452 10.195 1.406 -2.655
2.500 -24.436 -25.445 10.446 1.401 -2.578
2.750 -24.225 -25.436 10.698 1.395 -2.501
3.000 -24.085 -25.427 10.951 1.387 -2.424
3.250 -23.976 -25.417 11.203 1.379 -2.345
3.500 -23.840 -25.405 11.457 1.368 -2.267
3.750 -23.599 -25.391 11.711 1.355 -2.188
4.000 -23.137 -25.371 11.965 1.343 -2.120
4.250 -21.477 -25.212 12.418 0.842 -1.107
4.500 -21.192 -25.248 12.731 0.728 -0.967
4.750 -20.682 -25.288 12.989 0.714 -0.951
5.000 -20.309 -25.205 13.257 0.685 -0.916
5.250 -20.285 -25.196 13.511 0.679 -0.908
5.500 -20.441 -25.203 13.764 0.675 -0.903
5.750 -20.726 -25.242 14.015 0.673 -0.900
6.000 -20.821 -25.251 14.266 0.671 -0.898
6.250 -20.966 -25.246 14.518 0.669 -0.895
6.500 -21.411 -25.248 14.769 0.666 -0.892
6.750 -21.585 -25.253 15.020 0.665 -0.891
7.000 -21.608 -25.259 15.270 0.664 -0.890
7.250 -21.881 -25.272 15.521 0.664 -0.889
7.500 -22.054 -25.274 15.771 0.663 -0.889
7.750 -22.052 -25.278 16.021 0.663 -0.889
8.000 -22.005 -25.281 16.271 0.663 -0.889
8.250 -21.951 -25.287 16.521 0.663 -0.889
8.500 -21.857 -25.290 16.771 0.663 -0.889
8.750 -21.726 -25.291 17.021 0.663 -0.889
9.000 -21.569 -25.292 17.271 0.663 -0.889
