# z = 5.500000e+00
# log(Z/Zsun) = -2.000000e+00
# log(nH) = 3.000000e+00
1.000 -31.159 -29.613 8.983 1.287 -1.098
1.250 -30.438 -29.612 9.233 1.289 -1.025
1.500 -30.052 -29.612 9.482 1.291 -0.950
1.750 -29.773 -29.610 9.731 1.295 -0.876
2.000 -29.328 -29.603 9.979 1.298 -0.803
2.250 -28.513 -29.595 10.228 1.301 -0.735
2.500 -27.485 -29.584 10.476 1.307 -0.674
2.750 -26.522 -29.572 10.724 1.316 -0.627
3.000 -25.862 -29.567 10.974 1.316 -0.620
3.250 -25.455 -29.569 11.227 1.306 -0.665
3.500 -25.686 -29.545 11.483 1.288 -0.510
3.750 -26.805 -29.501 11.736 1.280 -0.263
4.000 -26.009 -29.386 11.986 1.278 0.294
4.250 -21.864 -28.328 12.467 0.751 2.890
4.500 -22.263 -27.374 12.782 0.646 3.033
4.750 -22.425 -27.974 13.037 0.639 3.042
5.000 -22.062 -28.210 13.304 0.615 3.075
5.250 -22.502 -27.807 13.556 0.612 3.079
5.500 -22.810 -27.734 13.806 0.612 3.079
5.750 -23.032 -27.802 14.056 0.612 3.079
6.000 -23.125 -27.825 14.306 0.612 3.079
6.250 -23.151 -28.064 14.556 0.612 3.079
6.500 -23.147 -28.340 14.806 0.612 3.079
6.750 -23.078 -28.513 15.056 0.612 3.079
7.000 -22.986 -28.580 15.306 0.612 3.079
7.250 -22.887 -28.610 15.556 0.612 3.079
7.500 -22.777 -28.640 15.806 0.612 3.079
7.750 -22.661 -28.647 16.056 0.612 3.079
8.000 -22.542 -28.651 16.306 0.612 3.079
8.250 -22.421 -28.655 16.556 0.612 3.079
8.500 -22.297 -28.657 16.806 0.612 3.079
8.750 -22.169 -28.658 17.056 0.612 3.079
9.000 -22.032 -28.658 17.306 0.612 3.079
