# z = 3.750000e+00
# log(Z/Zsun) = -1.000000e+00
# log(nH) = 0.000000e+00
1.000 -29.588 -26.794 8.986 1.280 -2.768
1.250 -28.949 -26.776 9.236 1.280 -2.697
1.500 -28.530 -26.756 9.486 1.279 -2.626
1.750 -28.237 -26.737 9.736 1.279 -2.554
2.000 -27.898 -26.716 9.986 1.279 -2.481
2.250 -27.418 -26.695 10.236 1.279 -2.408
2.500 -26.899 -26.673 10.486 1.279 -2.335
2.750 -26.299 -26.651 10.736 1.279 -2.261
3.000 -25.667 -26.628 10.986 1.280 -2.188
3.250 -25.235 -26.605 11.236 1.280 -2.118
3.500 -25.187 -26.585 11.487 1.276 -2.056
3.750 -25.503 -26.560 11.739 1.270 -1.979
4.000 -25.076 -26.522 11.990 1.266 -1.859
4.250 -21.858 -26.071 12.467 0.751 -0.110
4.500 -22.215 -26.013 12.780 0.650 0.029
4.750 -22.249 -26.008 13.037 0.640 0.042
5.000 -21.888 -25.983 13.303 0.616 0.075
5.250 -22.116 -25.949 13.555 0.613 0.079
5.500 -22.331 -25.942 13.805 0.613 0.079
5.750 -22.596 -25.942 14.055 0.613 0.079
6.000 -22.691 -25.962 14.305 0.613 0.079
6.250 -22.791 -25.975 14.555 0.613 0.079
6.500 -22.985 -25.987 14.805 0.613 0.079
6.750 -22.980 -25.988 15.055 0.613 0.079
7.000 -22.909 -25.988 15.305 0.613 0.079
7.250 -22.853 -25.989 15.555 0.613 0.080
7.500 -22.759 -25.990 15.805 0.613 0.080
7.750 -22.647 -25.990 16.055 0.613 0.080
8.000 -22.530 -25.990 16.305 0.613 0.080
8.250 -22.409 -25.991 16.555 0.613 0.080
8.500 -22.284 -25.991 16.805 0.613 0.080
8.750 -22.153 -25.991 17.055 0.613 0.080
9.000 -22.013 -25.991 17.305 0.613 0.080
