# z = 2.250000e+00
# log(Z/Zsun) = 5.000000e-01
# log(nH) = -6.000000e+00
1.000 -25.152 -20.777 9.292 0.632 -5.915
1.250 -24.998 -20.885 9.542 0.632 -5.915
1.500 -24.848 -20.989 9.792 0.632 -5.914
1.750 -24.700 -21.088 10.042 0.632 -5.914
2.000 -24.546 -21.184 10.292 0.631 -5.914
2.250 -24.384 -21.272 10.543 0.631 -5.914
2.500 -24.206 -21.327 10.793 0.631 -5.913
2.750 -23.996 -21.383 11.043 0.631 -5.913
3.000 -23.798 -21.442 11.293 0.631 -5.913
3.250 -23.589 -21.503 11.543 0.631 -5.913
3.500 -23.352 -21.572 11.793 0.631 -5.913
3.750 -23.108 -21.655 12.043 0.630 -5.912
4.000 -22.901 -21.774 12.293 0.630 -5.912
4.250 -22.728 -21.949 12.543 0.630 -5.912
4.500 -22.540 -22.139 12.794 0.630 -5.912
4.750 -22.315 -22.287 13.044 0.630 -5.912
5.000 -22.068 -22.406 13.294 0.630 -5.911
5.250 -21.820 -22.521 13.544 0.629 -5.911
5.500 -21.582 -22.641 13.794 0.629 -5.911
5.750 -21.344 -22.756 14.044 0.629 -5.911
6.000 -21.102 -22.858 14.294 0.629 -5.911
6.250 -20.856 -22.939 14.544 0.629 -5.911
6.500 -20.608 -23.001 14.794 0.629 -5.911
6.750 -20.360 -23.097 15.044 0.629 -5.911
7.000 -20.111 -23.333 15.294 0.629 -5.911
7.250 -19.862 -23.627 15.544 0.629 -5.911
7.500 -19.613 -23.785 15.794 0.629 -5.911
7.750 -19.363 -23.880 16.044 0.629 -5.911
8.000 -19.114 -23.968 16.294 0.629 -5.910
8.250 -18.865 -24.035 16.544 0.629 -5.910
8.500 -18.617 -24.073 16.794 0.629 -5.910
8.750 -18.371 -24.094 17.044 0.629 -5.910
9.000 -18.128 -24.109 17.294 0.629 -5.910
