# z = 1.300000e+01
# log(Z/Zsun) = -5.000000e-01
# log(nH) = 3.000000e+00
1.000 -33.613 -28.359 8.984 1.285 -1.132
1.250 -29.291 -28.412 9.234 1.286 -1.053
1.500 -28.570 -28.411 9.483 1.286 -0.974
1.750 -28.195 -28.417 9.733 1.288 -0.898
2.000 -27.834 -28.422 9.983 1.287 -0.829
2.250 -27.446 -28.421 10.233 1.287 -0.766
2.500 -27.097 -28.400 10.483 1.287 -0.716
2.750 -26.782 -28.383 10.733 1.288 -0.689
3.000 -26.481 -28.384 10.983 1.287 -0.708
3.250 -26.209 -28.378 11.233 1.287 -0.758
3.500 -26.053 -28.368 11.484 1.286 -0.861
3.750 -26.083 -28.188 11.734 1.285 -0.594
4.000 -25.641 -28.118 11.985 1.283 0.228
4.250 -21.846 -27.415 12.466 0.753 2.890
4.500 -22.142 -27.543 12.781 0.649 3.033
4.750 -22.004 -27.302 13.035 0.642 3.043
5.000 -21.637 -26.936 13.302 0.618 3.075
5.250 -21.733 -26.658 13.554 0.615 3.079
5.500 -21.915 -26.567 13.804 0.614 3.080
5.750 -22.193 -26.714 14.054 0.614 3.080
6.000 -22.290 -26.926 14.304 0.614 3.080
6.250 -22.418 -27.182 14.555 0.614 3.080
6.500 -22.743 -27.600 14.805 0.614 3.080
6.750 -22.808 -27.707 15.055 0.614 3.080
7.000 -22.768 -27.675 15.305 0.614 3.080
7.250 -22.787 -27.823 15.555 0.614 3.080
7.500 -22.728 -27.984 15.805 0.614 3.080
7.750 -22.627 -28.106 16.055 0.614 3.080
8.000 -22.516 -28.193 16.305 0.614 3.080
8.250 -22.402 -28.380 16.555 0.614 3.080
8.500 -22.282 -28.500 16.805 0.614 3.080
8.750 -22.156 -28.574 17.055 0.614 3.080
9.000 -22.020 -28.624 17.305 0.614 3.080
