# z = 1.300000e+01
# log(Z/Zsun) = 1.000000e+00
# log(nH) = 2.000000e+00
1.000 -32.516 -26.662 8.936 1.435 -1.706
1.250 -27.982 -26.749 9.186 1.435 -1.608
1.500 -26.915 -26.753 9.436 1.435 -1.509
1.750 -26.498 -26.743 9.686 1.434 -1.412
2.000 -26.171 -26.727 9.936 1.434 -1.319
2.250 -25.839 -26.709 10.186 1.434 -1.232
2.500 -25.531 -26.650 10.436 1.434 -1.156
2.750 -25.291 -26.587 10.686 1.434 -1.095
3.000 -25.082 -26.578 10.936 1.434 -1.050
3.250 -24.816 -26.745 11.186 1.435 -1.024
3.500 -24.554 -26.901 11.436 1.436 -1.047
3.750 -24.449 -26.949 11.686 1.436 -1.074
4.000 -24.376 -26.322 11.936 1.433 -0.978
4.250 -21.478 -25.303 12.418 0.842 1.893
4.500 -21.189 -25.328 12.731 0.727 2.034
4.750 -20.681 -25.425 12.989 0.714 2.049
5.000 -20.310 -25.410 13.257 0.685 2.084
5.250 -20.285 -25.775 13.511 0.679 2.092
5.500 -20.441 -25.873 13.764 0.675 2.097
5.750 -20.726 -26.101 14.015 0.673 2.100
6.000 -20.821 -26.183 14.266 0.671 2.102
6.250 -20.966 -26.166 14.518 0.669 2.105
6.500 -21.412 -26.212 14.769 0.666 2.108
6.750 -21.585 -26.278 15.020 0.665 2.109
7.000 -21.610 -26.350 15.270 0.664 2.110
7.250 -21.886 -26.546 15.521 0.664 2.111
7.500 -22.067 -26.600 15.771 0.663 2.111
7.750 -22.076 -26.684 16.021 0.663 2.111
8.000 -22.047 -26.774 16.271 0.663 2.111
8.250 -22.019 -27.035 16.521 0.663 2.111
8.500 -21.958 -27.238 16.771 0.663 2.111
8.750 -21.864 -27.389 17.021 0.663 2.111
9.000 -21.748 -27.501 17.271 0.663 2.111
