# z = 1.400000e+01
# log(Z/Zsun) = -1.000000e+01
# log(nH) = -4.000000e+00
1.000 -25.910 -22.447 9.099 0.986 -4.484
1.250 -25.615 -22.475 9.363 0.954 -4.424
1.500 -25.320 -22.509 9.629 0.920 -4.366
1.750 -25.022 -22.550 9.895 0.886 -4.310
2.000 -24.727 -22.597 10.162 0.852 -4.258
2.250 -24.438 -22.654 10.429 0.819 -4.208
2.500 -24.155 -22.720 10.696 0.788 -4.163
2.750 -23.876 -22.798 10.962 0.759 -4.122
3.000 -23.600 -22.887 11.227 0.734 -4.087
3.250 -23.327 -22.990 11.491 0.712 -4.056
3.500 -23.059 -23.106 11.752 0.693 -4.031
3.750 -22.794 -23.235 12.011 0.679 -4.011
4.000 -22.527 -23.376 12.269 0.667 -3.995
4.250 -22.031 -23.586 12.526 0.656 -3.980
4.500 -21.835 -24.263 12.785 0.642 -3.961
4.750 -21.674 -24.778 13.037 0.639 -3.958
5.000 -21.377 -24.855 13.304 0.615 -3.925
5.250 -21.199 -24.855 13.556 0.612 -3.921
5.500 -20.963 -24.855 13.806 0.612 -3.921
5.750 -20.716 -24.855 14.056 0.612 -3.921
6.000 -20.467 -24.855 14.306 0.612 -3.921
6.250 -20.217 -24.855 14.556 0.612 -3.921
6.500 -19.967 -24.855 14.806 0.612 -3.921
6.750 -19.717 -24.855 15.056 0.612 -3.921
7.000 -19.467 -24.855 15.306 0.612 -3.921
7.250 -19.217 -24.855 15.556 0.612 -3.921
7.500 -18.967 -24.855 15.806 0.612 -3.921
7.750 -18.718 -24.856 16.056 0.612 -3.921
8.000 -18.468 -24.856 16.306 0.612 -3.921
8.250 -18.218 -24.856 16.556 0.612 -3.921
8.500 -17.968 -24.856 16.806 0.612 -3.921
8.750 -17.718 -24.856 17.056 0.612 -3.921
9.000 -17.468 -24.856 17.306 0.612 -3.921
