# z = 5.000000e+00
# log(Z/Zsun) = 5.000000e-01
# log(nH) = 0.000000e+00
1.000 -28.370 -26.736 8.970 1.327 -2.787
1.250 -27.531 -26.718 9.220 1.327 -2.714
1.500 -27.073 -26.701 9.470 1.327 -2.640
1.750 -26.758 -26.682 9.720 1.326 -2.567
2.000 -26.463 -26.663 9.970 1.326 -2.494
2.250 -26.096 -26.643 10.221 1.325 -2.421
2.500 -25.735 -26.617 10.471 1.324 -2.347
2.750 -25.453 -26.590 10.721 1.323 -2.274
3.000 -25.236 -26.561 10.971 1.322 -2.203
3.250 -25.078 -26.529 11.222 1.321 -2.133
3.500 -24.930 -26.496 11.472 1.319 -2.067
3.750 -24.711 -26.462 11.723 1.318 -2.004
4.000 -24.270 -26.416 11.974 1.315 -1.912
4.250 -21.702 -25.865 12.451 0.780 -0.109
4.500 -21.620 -25.888 12.764 0.674 0.030
4.750 -21.170 -25.941 13.021 0.663 0.045
5.000 -20.800 -25.806 13.288 0.638 0.078
5.250 -20.789 -25.777 13.541 0.634 0.083
5.500 -20.950 -25.768 13.792 0.632 0.085
5.750 -21.236 -25.847 14.042 0.632 0.086
6.000 -21.332 -25.883 14.293 0.631 0.086
6.250 -21.478 -25.894 14.543 0.630 0.087
6.500 -21.914 -25.911 14.794 0.630 0.088
6.750 -22.075 -25.921 15.044 0.629 0.089
7.000 -22.091 -25.929 15.294 0.629 0.089
7.250 -22.316 -25.948 15.544 0.629 0.089
7.500 -22.423 -25.953 15.794 0.629 0.089
7.750 -22.387 -25.958 16.044 0.629 0.089
8.000 -22.320 -25.963 16.294 0.629 0.089
8.250 -22.246 -25.972 16.544 0.629 0.090
8.500 -22.149 -25.977 16.794 0.629 0.090
8.750 -22.031 -25.979 17.044 0.629 0.090
9.000 -21.897 -25.980 17.294 0.629 0.090
