# z = 1.500000e+01
# log(Z/Zsun) = 1.000000e+00
# log(nH) = 4.000000e+00
1.000 -34.537 -26.780 8.933 1.446 -0.730
1.250 -29.420 -26.848 9.181 1.450 -0.626
1.500 -28.004 -27.089 9.429 1.459 -0.514
1.750 -26.996 -27.574 9.674 1.476 -0.410
2.000 -26.404 -27.581 9.918 1.497 -0.315
2.250 -25.983 -27.568 10.158 1.530 -0.224
2.500 -25.624 -27.568 10.401 1.557 -0.147
2.750 -25.294 -27.702 10.684 1.443 -0.127
3.000 -24.844 -27.821 10.932 1.450 -0.119
3.250 -23.657 -27.719 11.167 1.498 -0.107
3.500 -23.529 -27.482 11.433 1.443 0.013
3.750 -23.822 -27.194 11.685 1.438 0.171
4.000 -24.582 -26.755 11.936 1.434 0.898
4.250 -21.520 -26.377 12.418 0.841 3.894
4.500 -21.242 -25.831 12.734 0.722 4.040
4.750 -20.692 -25.990 12.989 0.714 4.049
5.000 -20.313 -25.756 13.257 0.685 4.084
5.250 -20.285 -25.830 13.511 0.679 4.092
5.500 -20.444 -25.876 13.764 0.675 4.097
5.750 -20.727 -25.750 14.015 0.673 4.100
6.000 -20.822 -25.874 14.266 0.671 4.102
6.250 -20.966 -26.177 14.518 0.669 4.105
6.500 -21.412 -26.229 14.769 0.666 4.108
6.750 -21.585 -26.297 15.020 0.665 4.109
7.000 -21.610 -26.374 15.270 0.664 4.110
7.250 -21.886 -26.583 15.521 0.664 4.111
7.500 -22.067 -26.643 15.771 0.663 4.111
7.750 -22.077 -26.736 16.021 0.663 4.111
8.000 -22.049 -26.839 16.271 0.663 4.111
8.250 -22.022 -27.163 16.521 0.663 4.111
8.500 -21.961 -27.465 16.771 0.663 4.111
8.750 -21.869 -27.760 17.021 0.663 4.111
9.000 -21.755 -28.092 17.271 0.663 4.111
