# z = 3.000000e+00
# log(Z/Zsun) = 1.000000e+00
# log(nH) = 0.000000e+00
1.000 -27.507 -26.694 8.937 1.432 -2.802
1.250 -26.911 -26.677 9.187 1.432 -2.721
1.500 -26.491 -26.660 9.437 1.432 -2.641
1.750 -26.188 -26.642 9.687 1.431 -2.565
2.000 -25.924 -26.623 9.937 1.430 -2.489
2.250 -25.613 -26.604 10.188 1.430 -2.414
2.500 -25.290 -26.576 10.438 1.429 -2.339
2.750 -25.029 -26.546 10.688 1.428 -2.266
3.000 -24.817 -26.514 10.939 1.426 -2.196
3.250 -24.636 -26.480 11.189 1.425 -2.130
3.500 -24.452 -26.442 11.439 1.424 -2.070
3.750 -24.231 -26.400 11.690 1.422 -2.015
4.000 -23.874 -26.371 11.940 1.422 -2.001
4.250 -21.477 -25.808 12.417 0.842 -0.107
4.500 -21.192 -25.911 12.731 0.728 0.033
4.750 -20.682 -25.886 12.989 0.714 0.049
5.000 -20.309 -25.620 13.257 0.685 0.084
5.250 -20.285 -25.601 13.511 0.679 0.092
5.500 -20.441 -25.623 13.764 0.675 0.097
5.750 -20.726 -25.738 14.015 0.673 0.100
6.000 -20.821 -25.769 14.266 0.671 0.102
6.250 -20.966 -25.759 14.518 0.669 0.105
6.500 -21.412 -25.775 14.769 0.666 0.108
6.750 -21.585 -25.797 15.020 0.665 0.109
7.000 -21.610 -25.819 15.270 0.664 0.110
7.250 -21.887 -25.868 15.521 0.664 0.111
7.500 -22.067 -25.878 15.771 0.663 0.111
7.750 -22.076 -25.892 16.021 0.663 0.111
8.000 -22.048 -25.906 16.271 0.663 0.111
8.250 -22.020 -25.933 16.521 0.663 0.111
8.500 -21.959 -25.946 16.771 0.663 0.111
8.750 -21.865 -25.953 17.021 0.663 0.111
9.000 -21.751 -25.956 17.271 0.663 0.111
