# z = 7.000000e+00
# log(Z/Zsun) = -5.000000e-01
# log(nH) = -2.000000e+00
1.000 -28.207 -24.199 9.001 1.234 -3.341
1.250 -27.536 -24.199 9.255 1.225 -3.269
1.500 -26.714 -24.200 9.508 1.215 -3.196
1.750 -26.171 -24.202 9.763 1.203 -3.123
2.000 -25.788 -24.204 10.018 1.189 -3.050
2.250 -25.449 -24.207 10.274 1.173 -2.977
2.500 -25.185 -24.212 10.531 1.154 -2.903
2.750 -25.008 -24.217 10.789 1.132 -2.828
3.000 -24.884 -24.225 11.048 1.108 -2.754
3.250 -24.781 -24.234 11.309 1.080 -2.680
3.500 -24.649 -24.245 11.572 1.049 -2.606
3.750 -24.418 -24.258 11.837 1.015 -2.532
4.000 -23.686 -24.274 12.103 0.977 -2.459
4.250 -21.855 -24.458 12.473 0.741 -2.092
4.500 -22.135 -24.641 12.779 0.651 -1.970
4.750 -21.999 -24.674 13.035 0.642 -1.957
5.000 -21.635 -24.658 13.302 0.618 -1.925
5.250 -21.732 -24.653 13.554 0.615 -1.921
5.500 -21.911 -24.652 13.804 0.614 -1.920
5.750 -22.183 -24.653 14.054 0.614 -1.920
6.000 -22.267 -24.655 14.304 0.614 -1.920
6.250 -22.366 -24.656 14.555 0.614 -1.920
6.500 -22.572 -24.656 14.805 0.614 -1.920
6.750 -22.507 -24.656 15.055 0.614 -1.920
7.000 -22.350 -24.656 15.305 0.614 -1.920
7.250 -22.184 -24.656 15.555 0.614 -1.920
7.500 -21.974 -24.657 15.805 0.614 -1.920
7.750 -21.747 -24.657 16.055 0.614 -1.920
8.000 -21.513 -24.657 16.305 0.614 -1.920
8.250 -21.275 -24.657 16.555 0.614 -1.920
8.500 -21.033 -24.657 16.805 0.614 -1.920
8.750 -20.789 -24.657 17.055 0.614 -1.920
9.000 -20.544 -24.657 17.305 0.614 -1.920
