# z = 3.000000e+00
# log(Z/Zsun) = -1.000000e+01
# log(nH) = 0.000000e+00
1.000 -31.096 -26.798 8.986 1.279 -2.769
1.250 -30.767 -26.779 9.236 1.278 -2.698
1.500 -30.455 -26.760 9.486 1.278 -2.626
1.750 -30.046 -26.740 9.736 1.278 -2.554
2.000 -29.221 -26.719 9.986 1.278 -2.482
2.250 -28.138 -26.698 10.236 1.278 -2.409
2.500 -27.108 -26.676 10.486 1.278 -2.335
2.750 -26.196 -26.653 10.736 1.280 -2.261
3.000 -25.415 -26.629 10.984 1.284 -2.186
3.250 -24.811 -26.604 11.232 1.291 -2.111
3.500 -24.773 -26.585 11.485 1.283 -2.050
3.750 -25.549 -26.563 11.739 1.269 -1.977
4.000 -25.171 -26.526 11.991 1.264 -1.859
4.250 -21.865 -26.076 12.467 0.751 -0.110
4.500 -22.258 -25.999 12.780 0.649 0.029
4.750 -22.441 -26.005 13.037 0.639 0.042
5.000 -22.085 -25.992 13.304 0.615 0.075
5.250 -22.573 -25.986 13.558 0.609 0.083
5.500 -22.920 -25.990 13.806 0.612 0.079
5.750 -23.124 -25.990 14.056 0.612 0.079
6.000 -23.217 -25.990 14.306 0.612 0.079
6.250 -23.219 -25.991 14.556 0.612 0.079
6.500 -23.169 -25.991 14.806 0.612 0.079
6.750 -23.090 -25.991 15.056 0.612 0.079
7.000 -22.995 -25.991 15.306 0.612 0.079
7.250 -22.889 -25.991 15.556 0.612 0.079
7.500 -22.777 -25.991 15.806 0.612 0.079
7.750 -22.660 -25.991 16.056 0.612 0.079
8.000 -22.541 -25.991 16.306 0.612 0.079
8.250 -22.418 -25.991 16.556 0.612 0.079
8.500 -22.293 -25.991 16.806 0.612 0.079
8.750 -22.163 -25.991 17.056 0.612 0.079
9.000 -22.025 -25.991 17.306 0.612 0.079
