# z = 1.750000e+00
# log(Z/Zsun) = 5.000000e-01
# log(nH) = -1.000000e+00
1.000 -27.923 -24.867 8.978 1.302 -2.642
1.250 -27.190 -24.866 9.230 1.298 -2.569
1.500 -26.429 -24.865 9.482 1.292 -2.496
1.750 -25.858 -24.864 9.734 1.285 -2.422
2.000 -25.369 -24.864 9.986 1.277 -2.347
2.250 -24.912 -24.865 10.240 1.268 -2.272
2.500 -24.578 -24.866 10.494 1.257 -2.195
2.750 -24.367 -24.868 10.748 1.243 -2.118
3.000 -24.228 -24.871 11.004 1.228 -2.041
3.250 -24.121 -24.874 11.260 1.210 -1.963
3.500 -23.986 -24.878 11.518 1.189 -1.884
3.750 -23.738 -24.883 11.777 1.164 -1.805
4.000 -23.219 -24.887 12.038 1.136 -1.726
4.250 -21.703 -25.105 12.453 0.776 -1.105
4.500 -21.620 -25.295 12.764 0.674 -0.970
4.750 -21.170 -25.319 13.021 0.663 -0.955
5.000 -20.800 -25.274 13.288 0.638 -0.922
5.250 -20.789 -25.264 13.541 0.634 -0.917
5.500 -20.950 -25.261 13.792 0.632 -0.915
5.750 -21.236 -25.284 14.042 0.632 -0.914
6.000 -21.332 -25.294 14.293 0.631 -0.914
6.250 -21.478 -25.296 14.543 0.630 -0.913
6.500 -21.914 -25.299 14.794 0.630 -0.912
6.750 -22.075 -25.301 15.044 0.629 -0.911
7.000 -22.091 -25.303 15.294 0.629 -0.911
7.250 -22.317 -25.307 15.544 0.629 -0.911
7.500 -22.426 -25.308 15.794 0.629 -0.911
7.750 -22.392 -25.309 16.044 0.629 -0.911
8.000 -22.325 -25.310 16.294 0.629 -0.911
8.250 -22.253 -25.312 16.544 0.629 -0.910
8.500 -22.158 -25.313 16.794 0.629 -0.910
8.750 -22.044 -25.314 17.044 0.629 -0.910
9.000 -21.914 -25.314 17.294 0.629 -0.910
