# z = 7.500000e-01
# log(Z/Zsun) = 5.000000e-01
# log(nH) = 0.000000e+00
1.000 -27.883 -26.643 8.970 1.327 -2.659
1.250 -27.337 -26.628 9.220 1.326 -2.586
1.500 -26.933 -26.612 9.470 1.326 -2.512
1.750 -26.636 -26.595 9.721 1.325 -2.438
2.000 -26.354 -26.579 9.971 1.324 -2.364
2.250 -25.988 -26.561 10.221 1.323 -2.289
2.500 -25.624 -26.543 10.472 1.322 -2.214
2.750 -25.346 -26.525 10.722 1.321 -2.138
3.000 -25.139 -26.506 10.972 1.319 -2.063
3.250 -24.988 -26.486 11.223 1.317 -1.988
3.500 -24.835 -26.465 11.474 1.315 -1.917
3.750 -24.605 -26.444 11.725 1.312 -1.846
4.000 -24.142 -26.413 11.976 1.309 -1.756
4.250 -21.702 -26.013 12.451 0.780 -0.109
4.500 -21.620 -25.991 12.764 0.674 0.030
4.750 -21.170 -25.965 13.021 0.663 0.045
5.000 -20.800 -25.808 13.288 0.638 0.078
5.250 -20.789 -25.777 13.541 0.634 0.083
5.500 -20.950 -25.768 13.792 0.632 0.085
5.750 -21.236 -25.847 14.042 0.632 0.086
6.000 -21.332 -25.883 14.293 0.631 0.086
6.250 -21.478 -25.894 14.543 0.630 0.087
6.500 -21.914 -25.911 14.794 0.630 0.088
6.750 -22.075 -25.921 15.044 0.629 0.089
7.000 -22.091 -25.929 15.294 0.629 0.089
7.250 -22.318 -25.948 15.544 0.629 0.089
7.500 -22.426 -25.953 15.794 0.629 0.089
7.750 -22.393 -25.958 16.044 0.629 0.089
8.000 -22.328 -25.963 16.294 0.629 0.089
8.250 -22.258 -25.972 16.544 0.629 0.090
8.500 -22.166 -25.977 16.794 0.629 0.090
8.750 -22.055 -25.979 17.044 0.629 0.090
9.000 -21.928 -25.980 17.294 0.629 0.090
